src/test-src-snk-plain/vpc/FCFS-simple-CPU-golden.vcd
$date
     Jun 29, 2017       17:34:47
$end

$version
 SystemC 2.3.1-Accellera --- Jun  6 2015 16:02:58
$end

$timescale
     1 ns
$end

$scope module SystemC $end
$var wire    8  aaaaa  top.src [7:0]  $end
$var wire    8  aaaab  top.snk [7:0]  $end
$upscope $end
$enddefinitions  $end

$comment
All initial values are dumped below at time 0 sec = 0 timescale units.
$end

$dumpvars
b1010010 aaaaa
b100000 aaaab
$end

#74
b1110010 aaaaa
b1110111 aaaab

#148
b100000 aaaaa
b1010010 aaaab

#247
b1110111 aaaaa
b1110010 aaaab

#346
b1010010 aaaaa
b100000 aaaab

#420
b1110010 aaaaa
b1110111 aaaab

#494
b100000 aaaaa
b1010010 aaaab

#593
b1110111 aaaaa
b1110010 aaaab

#692
b1010010 aaaaa
b100000 aaaab

#766
b1110010 aaaaa
b1110111 aaaab

#840
b100000 aaaaa
b1010010 aaaab

#939
b1110111 aaaaa
b1110010 aaaab

#1038
b1010010 aaaaa
b100000 aaaab

#1112
b1110010 aaaaa
b1110111 aaaab

#1186
b100000 aaaaa
b1010010 aaaab

#1285
b1110111 aaaaa
b1110010 aaaab

#1384
b1010010 aaaaa
b100000 aaaab

#1458
b1110010 aaaaa
b1110111 aaaab

#1532
b100000 aaaaa
b1010010 aaaab

#1631
b1110111 aaaaa
b1110010 aaaab

#1730
b1010010 aaaaa
b100000 aaaab

#1804
b1110010 aaaaa
b1110111 aaaab

#1878
b100000 aaaaa
b1010010 aaaab

#1977
b1110111 aaaaa
b1110010 aaaab

#2076
b1010010 aaaaa
b100000 aaaab

#2150
b1110010 aaaaa
b1110111 aaaab

#2224
b100000 aaaaa
b1010010 aaaab

#2323
b1110111 aaaaa
b1110010 aaaab

#2422
b1010010 aaaaa
b100000 aaaab

#2496
b1110010 aaaaa
b1110111 aaaab

#2570
b100000 aaaaa
b1010010 aaaab

#2669
b1110111 aaaaa
b1110010 aaaab

#2768
b1010010 aaaaa
b100000 aaaab

#2842
b1110010 aaaaa
b1110111 aaaab

#2916
b100000 aaaaa
b1010010 aaaab

#3015
b1110111 aaaaa
b1110010 aaaab

#3114
b1010010 aaaaa
b100000 aaaab

#3188
b1110010 aaaaa
b1110111 aaaab

#3262
b100000 aaaaa
b1010010 aaaab

#3361
b1110111 aaaaa
b1110010 aaaab

#3460
b1010010 aaaaa
b100000 aaaab

#3534
b1110010 aaaaa
b1110111 aaaab

#3608
b100000 aaaaa
b1010010 aaaab

#3707
b1110111 aaaaa
b1110010 aaaab

#3806
b1010010 aaaaa
b100000 aaaab

#3880
b1110010 aaaaa
b1110111 aaaab

#3954
b100000 aaaaa
b1010010 aaaab

#4053
b1110111 aaaaa
b1110010 aaaab

#4152
b1010010 aaaaa
b100000 aaaab

#4226
b1110010 aaaaa
b1110111 aaaab

#4300
b100000 aaaaa
b1010010 aaaab

#4399
b1110111 aaaaa
b1110010 aaaab

#4498
b1010010 aaaaa
b100000 aaaab

#4572
b1110010 aaaaa
b1110111 aaaab

#4646
b100000 aaaaa
b1010010 aaaab

#4745
b1110111 aaaaa
b1110010 aaaab

#4844
b1010010 aaaaa
b100000 aaaab

#4918
b1110010 aaaaa
b1110111 aaaab

#4992
b100000 aaaaa
b1010010 aaaab

#5091
b1110111 aaaaa
b1110010 aaaab

#5190
b1010010 aaaaa
b100000 aaaab

#5264
b1110010 aaaaa
b1110111 aaaab

#5338
b100000 aaaaa
b1010010 aaaab

#5437
b1110111 aaaaa
b1110010 aaaab

#5536
b1010010 aaaaa
b100000 aaaab

#5610
b1110010 aaaaa
b1110111 aaaab

#5684
b100000 aaaaa
b1010010 aaaab

#5783
b1110111 aaaaa
b1110010 aaaab

#5882
b1010010 aaaaa
b100000 aaaab

#5956
b1110010 aaaaa
b1110111 aaaab

#6030
b100000 aaaaa
b1010010 aaaab

#6129
b1110111 aaaaa
b1110010 aaaab

#6228
b1010010 aaaaa
b100000 aaaab

#6302
b1110010 aaaaa
b1110111 aaaab

#6376
b100000 aaaaa
b1010010 aaaab

#6475
b1110111 aaaaa
b1110010 aaaab

#6574
b1010010 aaaaa
b100000 aaaab

#6648
b1110010 aaaaa
b1110111 aaaab

#6722
b100000 aaaaa
b1010010 aaaab

#6821
b1110111 aaaaa
b1110010 aaaab

#6920
b1010010 aaaaa
b100000 aaaab

#6994
b1110010 aaaaa
b1110111 aaaab

#7068
b100000 aaaaa
b1010010 aaaab

#7167
b1110111 aaaaa
b1110010 aaaab

#7266
b1010010 aaaaa
b100000 aaaab

#7340
b1110010 aaaaa
b1110111 aaaab

#7414
b100000 aaaaa
b1010010 aaaab

#7513
b1110111 aaaaa
b1110010 aaaab

#7612
b1010010 aaaaa
b100000 aaaab

#7686
b1110010 aaaaa
b1110111 aaaab

#7760
b100000 aaaaa
b1010010 aaaab

#7859
b1110111 aaaaa
b1110010 aaaab

#7958
b1010010 aaaaa
b100000 aaaab

#8032
b1110010 aaaaa
b1110111 aaaab

#8106
b100000 aaaaa
b1010010 aaaab

#8205
b1110111 aaaaa
b1110010 aaaab

#8304
b1010010 aaaaa
b100000 aaaab

#8378
b1110010 aaaaa
b1110111 aaaab

#8452
b100000 aaaaa
b1010010 aaaab

#8551
b1110111 aaaaa
b1110010 aaaab

#8650
b1010010 aaaaa
b100000 aaaab

#8724
b1110010 aaaaa
b1110111 aaaab

#8798
b100000 aaaaa
b1010010 aaaab

#8897
b1110111 aaaaa
b1110010 aaaab

#8996
b1010010 aaaaa
b100000 aaaab

#9070
b1110010 aaaaa
b1110111 aaaab

#9144
b100000 aaaaa
b1010010 aaaab

#9243
b1110111 aaaaa
b1110010 aaaab

#9342
b1010010 aaaaa
b100000 aaaab

#9416
b1110010 aaaaa
b1110111 aaaab

#9490
b100000 aaaaa
b1010010 aaaab

#9589
b1110111 aaaaa
b1110010 aaaab

#9688
b1010010 aaaaa
b100000 aaaab

#9762
b1110010 aaaaa
b1110111 aaaab

#9836
b100000 aaaaa
b1010010 aaaab

#9935
b1110111 aaaaa
b1110010 aaaab

#10034
b1010010 aaaaa
b100000 aaaab

#10108
b1110010 aaaaa
b1110111 aaaab

#10182
b100000 aaaaa
b1010010 aaaab

#10281
b1110111 aaaaa
b1110010 aaaab

#10380
b1010010 aaaaa
b100000 aaaab

#10454
b1110010 aaaaa
b1110111 aaaab

#10528
b100000 aaaaa
b1010010 aaaab

#10627
b1110111 aaaaa
b1110010 aaaab

#10726
b1010010 aaaaa
b100000 aaaab

#10800
b1110010 aaaaa
b1110111 aaaab

#10874
b100000 aaaaa
b1010010 aaaab

#10973
b1110111 aaaaa
b1110010 aaaab

#11072
b1010010 aaaaa
b100000 aaaab

#11146
b1110010 aaaaa
b1110111 aaaab

#11220
b100000 aaaaa
b1010010 aaaab

#11319
b1110111 aaaaa
b1110010 aaaab

#11418
b1010010 aaaaa
b100000 aaaab

#11492
b1110010 aaaaa
b1110111 aaaab

#11566
b100000 aaaaa
b1010010 aaaab

#11665
b1110111 aaaaa
b1110010 aaaab

#11764
b1010010 aaaaa
b100000 aaaab

#11838
b1110010 aaaaa
b1110111 aaaab

#11912
b100000 aaaaa
b1010010 aaaab

#12011
b1110111 aaaaa
b1110010 aaaab

#12110
b1010010 aaaaa
b100000 aaaab

#12184
b1110010 aaaaa
b1110111 aaaab

#12258
b100000 aaaaa
b1010010 aaaab

#12357
b1110111 aaaaa
b1110010 aaaab

#12456
b1010010 aaaaa
b100000 aaaab

#12530
b1110010 aaaaa
b1110111 aaaab

#12604
b100000 aaaaa
b1010010 aaaab

#12703
b1110111 aaaaa
b1110010 aaaab

#12802
b1010010 aaaaa
b100000 aaaab

#12876
b1110010 aaaaa
b1110111 aaaab

#12950
b100000 aaaaa
b1010010 aaaab

#13049
b1110111 aaaaa
b1110010 aaaab

#13148
b1010010 aaaaa
b100000 aaaab

#13222
b1110010 aaaaa
b1110111 aaaab

#13296
b100000 aaaaa
b1010010 aaaab

#13395
b1110111 aaaaa
b1110010 aaaab

#13494
b1010010 aaaaa
b100000 aaaab

#13568
b1110010 aaaaa
b1110111 aaaab

#13642
b100000 aaaaa
b1010010 aaaab

#13741
b1110111 aaaaa
b1110010 aaaab

#13840
b1010010 aaaaa
b100000 aaaab

#13914
b1110010 aaaaa
b1110111 aaaab

#13988
b100000 aaaaa
b1010010 aaaab

#14087
b1110111 aaaaa
b1110010 aaaab

#14186
b1010010 aaaaa
b100000 aaaab

#14260
b1110010 aaaaa
b1110111 aaaab

#14334
b100000 aaaaa
b1010010 aaaab

#14433
b1110111 aaaaa
b1110010 aaaab

#14532
b1010010 aaaaa
b100000 aaaab

#14606
b1110010 aaaaa
b1110111 aaaab

#14680
b100000 aaaaa
b1010010 aaaab

#14779
b1110111 aaaaa
b1110010 aaaab

#14878
b1010010 aaaaa
b100000 aaaab

#14952
b1110010 aaaaa
b1110111 aaaab

#15026
b100000 aaaaa
b1010010 aaaab

#15125
b1110111 aaaaa
b1110010 aaaab

#15224
b1010010 aaaaa
b100000 aaaab

#15298
b1110010 aaaaa
b1110111 aaaab

#15372
b100000 aaaaa
b1010010 aaaab

#15471
b1110111 aaaaa
b1110010 aaaab

#15570
b1010010 aaaaa
b100000 aaaab

#15644
b1110010 aaaaa
b1110111 aaaab

#15718
b100000 aaaaa
b1010010 aaaab

#15817
b1110111 aaaaa
b1110010 aaaab

#15916
b1010010 aaaaa
b100000 aaaab

#15990
b1110010 aaaaa
b1110111 aaaab

#16064
b100000 aaaaa
b1010010 aaaab

#16163
b1110111 aaaaa
b1110010 aaaab

#16262
b1010010 aaaaa
b100000 aaaab

#16336
b1110010 aaaaa
b1110111 aaaab

#16410
b100000 aaaaa
b1010010 aaaab

#16509
b1110111 aaaaa
b1110010 aaaab

#16608
b1010010 aaaaa
b100000 aaaab

#16682
b1110010 aaaaa
b1110111 aaaab

#16756
b100000 aaaaa
b1010010 aaaab

#16855
b1110111 aaaaa
b1110010 aaaab

#16954
b1010010 aaaaa
b100000 aaaab

#17028
b1110010 aaaaa
b1110111 aaaab

#17102
b100000 aaaaa
b1010010 aaaab

#17201
b1110010 aaaab

#17300
b100000 aaaab

