src/test-src-snk-plain/vpc/FCFS-route-CPU-golden.vcd
$date
     Jul 05, 2018       15:42:27
$end

$version
 SystemC 2.3.1-Accellera --- May  7 2018 11:30:25
$end

$timescale
     1 ns
$end

$scope module SystemC $end
$var wire    8  aaaaa  msg_queue_2_top.snk [7:0]  $end
$var wire    8  aaaab  msg_top.src_2_queue [7:0]  $end
$var wire    8  aaaac  top.snk [7:0]  $end
$var wire    8  aaaad  top.src [7:0]  $end
$upscope $end
$enddefinitions  $end

$comment
All initial values are dumped below at time 0 sec = 0 timescale units.
$end

$dumpvars
b100000 aaaaa
b100000 aaaab
b100000 aaaac
b1010010 aaaad
$end

#7500000
b1010010 aaaab
b1110111 aaaad

#7700000
b100000 aaaab
b1010010 aaaad

#9100000
b1110111 aaaaa

#15200000
b1010010 aaaaa
b1110111 aaaab
b100000 aaaad

#15400000
b100000 aaaaa
b1010010 aaaab
b1110111 aaaac

#15600000
b100000 aaaab
b1010010 aaaac

#25600000
b100000 aaaac
b1010010 aaaad

#26300000
b1110111 aaaaa

#33100000
b1010010 aaaaa
b1110111 aaaab
b100000 aaaad

#33300000
b100000 aaaaa
b1010010 aaaab
b1110111 aaaac

#33500000
b100000 aaaab
b1010010 aaaac

#43500000
b100000 aaaac
b1010010 aaaad

#44200000
b1110111 aaaaa

#51000000
b1010010 aaaaa
b1110111 aaaab
b100000 aaaad

#51200000
b100000 aaaaa
b1010010 aaaab
b1110111 aaaac

#51400000
b100000 aaaab
b1010010 aaaac

#61400000
b100000 aaaac
b1010010 aaaad

#62100000
b1110111 aaaaa

#68900000
b1010010 aaaaa
b1110111 aaaab
b100000 aaaad

#69100000
b100000 aaaaa
b1010010 aaaab
b1110111 aaaac

#69300000
b100000 aaaab
b1010010 aaaac

#79300000
b100000 aaaac
b1010010 aaaad

#80000000
b1110111 aaaaa

#86800000
b1010010 aaaaa
b1110111 aaaab
b100000 aaaad

#87000000
b100000 aaaaa
b1010010 aaaab
b1110111 aaaac

#87200000
b100000 aaaab
b1010010 aaaac

#97200000
b100000 aaaac
b1010010 aaaad

#97900000
b1110111 aaaaa

#104700000
b1010010 aaaaa
b1110111 aaaab
b100000 aaaad

#104900000
b100000 aaaaa
b1010010 aaaab
b1110111 aaaac

#105100000
b100000 aaaab
b1010010 aaaac

#115100000
b100000 aaaac
b1010010 aaaad

#115800000
b1110111 aaaaa

#122600000
b1010010 aaaaa
b1110111 aaaab
b100000 aaaad

#122800000
b100000 aaaaa
b1010010 aaaab
b1110111 aaaac

#123000000
b100000 aaaab
b1010010 aaaac

#133000000
b100000 aaaac
b1010010 aaaad

#133700000
b1110111 aaaaa

#140500000
b1010010 aaaaa
b1110111 aaaab
b100000 aaaad

#140700000
b100000 aaaaa
b1010010 aaaab
b1110111 aaaac

#140900000
b100000 aaaab
b1010010 aaaac

#150900000
b100000 aaaac
b1010010 aaaad

#151600000
b1110111 aaaaa

#158400000
b1010010 aaaaa
b1110111 aaaab
b100000 aaaad

#158600000
b100000 aaaaa
b1010010 aaaab
b1110111 aaaac

#158800000
b100000 aaaab
b1010010 aaaac

#168800000
b100000 aaaac
b1010010 aaaad

#169500000
b1110111 aaaaa

#176300000
b1010010 aaaaa
b1110111 aaaab
b100000 aaaad

#176500000
b100000 aaaaa
b1010010 aaaab
b1110111 aaaac

#176700000
b100000 aaaab
b1010010 aaaac

#186700000
b100000 aaaac
b1010010 aaaad

#187400000
b1110111 aaaaa

#194200000
b1010010 aaaaa
b1110111 aaaab
b100000 aaaad

#194400000
b100000 aaaaa
b1010010 aaaab
b1110111 aaaac

#194600000
b100000 aaaab
b1010010 aaaac

#204600000
b100000 aaaac
b1010010 aaaad

#205300000
b1110111 aaaaa

#212100000
b1010010 aaaaa
b1110111 aaaab
b100000 aaaad

#212300000
b100000 aaaaa
b1010010 aaaab
b1110111 aaaac

#212500000
b100000 aaaab
b1010010 aaaac

#222500000
b100000 aaaac
b1010010 aaaad

#223200000
b1110111 aaaaa

#230000000
b1010010 aaaaa
b1110111 aaaab
b100000 aaaad

#230200000
b100000 aaaaa
b1010010 aaaab
b1110111 aaaac

#230400000
b100000 aaaab
b1010010 aaaac

#240400000
b100000 aaaac
b1010010 aaaad

#241100000
b1110111 aaaaa

#247900000
b1010010 aaaaa
b1110111 aaaab
b100000 aaaad

#248100000
b100000 aaaaa
b1010010 aaaab
b1110111 aaaac

#248300000
b100000 aaaab
b1010010 aaaac

#258300000
b100000 aaaac
b1010010 aaaad

#259000000
b1110111 aaaaa

#265800000
b1010010 aaaaa
b1110111 aaaab
b100000 aaaad

#266000000
b100000 aaaaa
b1010010 aaaab
b1110111 aaaac

#266200000
b100000 aaaab
b1010010 aaaac

#276200000
b100000 aaaac
b1010010 aaaad

#276900000
b1110111 aaaaa

#283700000
b1010010 aaaaa
b1110111 aaaab
b100000 aaaad

#283900000
b100000 aaaaa
b1010010 aaaab
b1110111 aaaac

#284100000
b100000 aaaab
b1010010 aaaac

#294100000
b100000 aaaac
b1010010 aaaad

#294800000
b1110111 aaaaa

#301600000
b1010010 aaaaa
b1110111 aaaab
b100000 aaaad

#301800000
b100000 aaaaa
b1010010 aaaab
b1110111 aaaac

#302000000
b100000 aaaab
b1010010 aaaac

#312000000
b100000 aaaac
b1010010 aaaad

#312700000
b1110111 aaaaa

#319500000
b1010010 aaaaa
b1110111 aaaab
b100000 aaaad

#319700000
b100000 aaaaa
b1010010 aaaab
b1110111 aaaac

#319900000
b100000 aaaab
b1010010 aaaac

#329900000
b100000 aaaac
b1010010 aaaad

#330600000
b1110111 aaaaa

#337400000
b1010010 aaaaa
b1110111 aaaab
b100000 aaaad

#337600000
b100000 aaaaa
b1010010 aaaab
b1110111 aaaac

#337800000
b100000 aaaab
b1010010 aaaac

#347800000
b100000 aaaac
b1010010 aaaad

#348500000
b1110111 aaaaa

#355300000
b1010010 aaaaa
b1110111 aaaab
b100000 aaaad

#355500000
b100000 aaaaa
b1010010 aaaab
b1110111 aaaac

#355700000
b100000 aaaab
b1010010 aaaac

#365700000
b100000 aaaac
b1010010 aaaad

#366400000
b1110111 aaaaa

#373200000
b1010010 aaaaa
b1110111 aaaab
b100000 aaaad

#373400000
b100000 aaaaa
b1010010 aaaab
b1110111 aaaac

#373600000
b100000 aaaab
b1010010 aaaac

#383600000
b100000 aaaac
b1010010 aaaad

#384300000
b1110111 aaaaa

#391100000
b1010010 aaaaa
b1110111 aaaab
b100000 aaaad

#391300000
b100000 aaaaa
b1010010 aaaab
b1110111 aaaac

#391500000
b100000 aaaab
b1010010 aaaac

#401500000
b100000 aaaac
b1010010 aaaad

#402200000
b1110111 aaaaa

#409000000
b1010010 aaaaa
b1110111 aaaab
b100000 aaaad

#409200000
b100000 aaaaa
b1010010 aaaab
b1110111 aaaac

#409400000
b100000 aaaab
b1010010 aaaac

#419400000
b100000 aaaac
b1010010 aaaad

#420100000
b1110111 aaaaa

#426900000
b1010010 aaaaa
b1110111 aaaab
b100000 aaaad

#427100000
b100000 aaaaa
b1010010 aaaab
b1110111 aaaac

#427300000
b100000 aaaab
b1010010 aaaac

#437300000
b100000 aaaac
b1010010 aaaad

#438000000
b1110111 aaaaa

#444800000
b1010010 aaaaa
b1110111 aaaab
b100000 aaaad

#445000000
b100000 aaaaa
b1010010 aaaab
b1110111 aaaac

#445200000
b100000 aaaab
b1010010 aaaac

#455200000
b100000 aaaac
b1010010 aaaad

#455900000
b1110111 aaaaa

#462700000
b1010010 aaaaa
b1110111 aaaab
b100000 aaaad

#462900000
b100000 aaaaa
b1010010 aaaab
b1110111 aaaac

#463100000
b100000 aaaab
b1010010 aaaac

#473100000
b100000 aaaac
b1010010 aaaad

#473800000
b1110111 aaaaa

#480600000
b1010010 aaaaa
b1110111 aaaab
b100000 aaaad

#480800000
b100000 aaaaa
b1010010 aaaab
b1110111 aaaac

#481000000
b100000 aaaab
b1010010 aaaac

#491000000
b100000 aaaac
b1010010 aaaad

#491700000
b1110111 aaaaa

#498500000
b1010010 aaaaa
b1110111 aaaab
b100000 aaaad

#498700000
b100000 aaaaa
b1010010 aaaab
b1110111 aaaac

#498900000
b100000 aaaab
b1010010 aaaac

#508900000
b100000 aaaac
b1010010 aaaad

#509600000
b1110111 aaaaa

#516400000
b1010010 aaaaa
b1110111 aaaab
b100000 aaaad

#516600000
b100000 aaaaa
b1010010 aaaab
b1110111 aaaac

#516800000
b100000 aaaab
b1010010 aaaac

#526800000
b100000 aaaac
b1010010 aaaad

#527500000
b1110111 aaaaa

#534300000
b1010010 aaaaa
b1110111 aaaab
b100000 aaaad

#534500000
b100000 aaaaa
b1010010 aaaab
b1110111 aaaac

#534700000
b100000 aaaab
b1010010 aaaac

#544700000
b100000 aaaac
b1010010 aaaad

#545400000
b1110111 aaaaa

#552200000
b1010010 aaaaa
b1110111 aaaab
b100000 aaaad

#552400000
b100000 aaaaa
b1010010 aaaab
b1110111 aaaac

#552600000
b100000 aaaab
b1010010 aaaac

#562600000
b100000 aaaac
b1010010 aaaad

#563300000
b1110111 aaaaa

#570100000
b1010010 aaaaa
b1110111 aaaab
b100000 aaaad

#570300000
b100000 aaaaa
b1010010 aaaab
b1110111 aaaac

#570500000
b100000 aaaab
b1010010 aaaac

#580500000
b100000 aaaac
b1010010 aaaad

#581200000
b1110111 aaaaa

#588000000
b1010010 aaaaa
b1110111 aaaab
b100000 aaaad

#588200000
b100000 aaaaa
b1010010 aaaab
b1110111 aaaac

#588400000
b100000 aaaab
b1010010 aaaac

#598400000
b100000 aaaac
b1010010 aaaad

#599100000
b1110111 aaaaa

#605900000
b1010010 aaaaa
b1110111 aaaab
b100000 aaaad

#606100000
b100000 aaaaa
b1010010 aaaab
b1110111 aaaac

#606300000
b100000 aaaab
b1010010 aaaac

#616300000
b100000 aaaac
b1010010 aaaad

#617000000
b1110111 aaaaa

#623800000
b1010010 aaaaa
b1110111 aaaab
b100000 aaaad

#624000000
b100000 aaaaa
b1010010 aaaab
b1110111 aaaac

#624200000
b100000 aaaab
b1010010 aaaac

#634200000
b100000 aaaac
b1010010 aaaad

#634900000
b1110111 aaaaa

#641700000
b1010010 aaaaa
b1110111 aaaab
b100000 aaaad

#641900000
b100000 aaaaa
b1010010 aaaab
b1110111 aaaac

#642100000
b100000 aaaab
b1010010 aaaac

#652100000
b100000 aaaac
b1010010 aaaad

#652800000
b1110111 aaaaa

#659600000
b1010010 aaaaa
b1110111 aaaab
b100000 aaaad

#659800000
b100000 aaaaa
b1010010 aaaab
b1110111 aaaac

#660000000
b100000 aaaab
b1010010 aaaac

#670000000
b100000 aaaac
b1010010 aaaad

#670700000
b1110111 aaaaa

#677500000
b1010010 aaaaa
b1110111 aaaab
b100000 aaaad

#677700000
b100000 aaaaa
b1010010 aaaab
b1110111 aaaac

#677900000
b100000 aaaab
b1010010 aaaac

#687900000
b100000 aaaac
b1010010 aaaad

#688600000
b1110111 aaaaa

#695400000
b1010010 aaaaa
b1110111 aaaab
b100000 aaaad

#695600000
b100000 aaaaa
b1010010 aaaab
b1110111 aaaac

#695800000
b100000 aaaab
b1010010 aaaac

#705800000
b100000 aaaac
b1010010 aaaad

#706500000
b1110111 aaaaa

#713300000
b1010010 aaaaa
b1110111 aaaab
b100000 aaaad

#713500000
b100000 aaaaa
b1010010 aaaab
b1110111 aaaac

#713700000
b100000 aaaab
b1010010 aaaac

#723700000
b100000 aaaac
b1010010 aaaad

#724400000
b1110111 aaaaa

#731200000
b1010010 aaaaa
b1110111 aaaab
b100000 aaaad

#731400000
b100000 aaaaa
b1010010 aaaab
b1110111 aaaac

#731600000
b100000 aaaab
b1010010 aaaac

#741600000
b100000 aaaac
b1010010 aaaad

#742300000
b1110111 aaaaa

#749100000
b1010010 aaaaa
b1110111 aaaab
b100000 aaaad

#749300000
b100000 aaaaa
b1010010 aaaab
b1110111 aaaac

#749500000
b100000 aaaab
b1010010 aaaac

#759500000
b100000 aaaac
b1010010 aaaad

#760200000
b1110111 aaaaa

#767000000
b1010010 aaaaa
b1110111 aaaab
b100000 aaaad

#767200000
b100000 aaaaa
b1010010 aaaab
b1110111 aaaac

#767400000
b100000 aaaab
b1010010 aaaac

#777400000
b100000 aaaac
b1010010 aaaad

#778100000
b1110111 aaaaa

#784900000
b1010010 aaaaa
b1110111 aaaab
b100000 aaaad

#785100000
b100000 aaaaa
b1010010 aaaab
b1110111 aaaac

#785300000
b100000 aaaab
b1010010 aaaac

#795300000
b100000 aaaac
b1010010 aaaad

#796000000
b1110111 aaaaa

#802800000
b1010010 aaaaa
b1110111 aaaab
b100000 aaaad

#803000000
b100000 aaaaa
b1010010 aaaab
b1110111 aaaac

#803200000
b100000 aaaab
b1010010 aaaac

#813200000
b100000 aaaac
b1010010 aaaad

#813900000
b1110111 aaaaa

#820700000
b1010010 aaaaa
b1110111 aaaab
b100000 aaaad

#820900000
b100000 aaaaa
b1010010 aaaab
b1110111 aaaac

#821100000
b100000 aaaab
b1010010 aaaac

#831100000
b100000 aaaac
b1010010 aaaad

#831800000
b1110111 aaaaa

#838600000
b1010010 aaaaa
b1110111 aaaab
b100000 aaaad

#838800000
b100000 aaaaa
b1010010 aaaab
b1110111 aaaac

#839000000
b100000 aaaab
b1010010 aaaac

#849000000
b100000 aaaac
b1010010 aaaad

#849700000
b1110111 aaaaa

#856500000
b1010010 aaaaa
b1110111 aaaab
b100000 aaaad

#856700000
b100000 aaaaa
b1010010 aaaab
b1110111 aaaac

#856900000
b100000 aaaab
b1010010 aaaac

#866900000
b100000 aaaac
b1010010 aaaad

#867600000
b1110111 aaaaa

#874400000
b1010010 aaaaa
b1110111 aaaab
b100000 aaaad

#874600000
b100000 aaaaa
b1010010 aaaab
b1110111 aaaac

#874800000
b100000 aaaab
b1010010 aaaac

#884800000
b100000 aaaac
b1010010 aaaad

#885500000
b1110111 aaaaa

#892300000
b1010010 aaaaa
b1110111 aaaab
b100000 aaaad

#892500000
b100000 aaaaa
b1010010 aaaab
b1110111 aaaac

#892700000
b100000 aaaab
b1010010 aaaac

#902700000
b100000 aaaac
b1010010 aaaad

#903400000
b1110111 aaaaa

#910200000
b1010010 aaaaa
b1110111 aaaab
b100000 aaaad

#910400000
b100000 aaaaa
b1010010 aaaab
b1110111 aaaac

#910600000
b100000 aaaab
b1010010 aaaac

#920600000
b100000 aaaac
b1010010 aaaad

#921300000
b1110111 aaaaa

#928100000
b1010010 aaaaa
b1110111 aaaab
b100000 aaaad

#928300000
b100000 aaaaa
b1010010 aaaab
b1110111 aaaac

#928500000
b100000 aaaab
b1010010 aaaac

#938500000
b100000 aaaac
b1010010 aaaad

#939200000
b1110111 aaaaa

#946000000
b1010010 aaaaa
b1110111 aaaab
b100000 aaaad

#946200000
b100000 aaaaa
b1010010 aaaab
b1110111 aaaac

#946400000
b100000 aaaab
b1010010 aaaac

#956400000
b100000 aaaac
b1010010 aaaad

#957100000
b1110111 aaaaa

#963900000
b1010010 aaaaa
b1110111 aaaab
b100000 aaaad

#964100000
b100000 aaaaa
b1010010 aaaab
b1110111 aaaac

#964300000
b100000 aaaab
b1010010 aaaac

#974300000
b100000 aaaac
b1010010 aaaad

#975000000
b1110111 aaaaa

#981800000
b1010010 aaaaa
b1110111 aaaab
b100000 aaaad

#982000000
b100000 aaaaa
b1010010 aaaab
b1110111 aaaac

#982200000
b100000 aaaab
b1010010 aaaac

#992200000
b100000 aaaac
b1010010 aaaad

#992900000
b1110111 aaaaa

#999700000
b1010010 aaaaa
b1110111 aaaab
b100000 aaaad

#999900000
b100000 aaaaa
b1010010 aaaab
b1110111 aaaac

#1000100000
b100000 aaaab
b1010010 aaaac

#1010100000
b100000 aaaac
b1010010 aaaad

#1010800000
b1110111 aaaaa

#1017600000
b1010010 aaaaa
b1110111 aaaab
b100000 aaaad

#1017800000
b100000 aaaaa
b1010010 aaaab
b1110111 aaaac

#1018000000
b100000 aaaab
b1010010 aaaac

#1028000000
b100000 aaaac
b1010010 aaaad

#1028700000
b1110111 aaaaa

#1035500000
b1010010 aaaaa
b1110111 aaaab
b100000 aaaad

#1035700000
b100000 aaaaa
b1010010 aaaab
b1110111 aaaac

#1035900000
b100000 aaaab
b1010010 aaaac

#1045900000
b100000 aaaac
b1010010 aaaad

#1046600000
b1110111 aaaaa

#1053400000
b1010010 aaaaa
b1110111 aaaab
b100000 aaaad

#1053600000
b100000 aaaaa
b1010010 aaaab
b1110111 aaaac

#1053800000
b100000 aaaab
b1010010 aaaac

#1063800000
b100000 aaaac
b1010010 aaaad

#1064500000
b1110111 aaaaa

#1071300000
b1010010 aaaaa
b1110111 aaaab
b100000 aaaad

#1071500000
b100000 aaaaa
b1010010 aaaab
b1110111 aaaac

#1071700000
b100000 aaaab
b1010010 aaaac

#1081700000
b100000 aaaac
b1010010 aaaad

#1082400000
b1110111 aaaaa

#1089200000
b1010010 aaaaa
b1110111 aaaab
b100000 aaaad

#1089400000
b100000 aaaaa
b1010010 aaaab
b1110111 aaaac

#1089600000
b100000 aaaab
b1010010 aaaac

#1099600000
b100000 aaaac
b1010010 aaaad

#1100300000
b1110111 aaaaa

#1107100000
b1010010 aaaaa
b1110111 aaaab
b100000 aaaad

#1107300000
b100000 aaaaa
b1010010 aaaab
b1110111 aaaac

#1107500000
b100000 aaaab
b1010010 aaaac

#1117500000
b100000 aaaac
b1010010 aaaad

#1118200000
b1110111 aaaaa

#1125000000
b1010010 aaaaa
b1110111 aaaab
b100000 aaaad

#1125200000
b100000 aaaaa
b1010010 aaaab
b1110111 aaaac

#1125400000
b100000 aaaab
b1010010 aaaac

#1135400000
b100000 aaaac
b1010010 aaaad

#1136100000
b1110111 aaaaa

#1142900000
b1010010 aaaaa
b1110111 aaaab
b100000 aaaad

#1143100000
b100000 aaaaa
b1010010 aaaab
b1110111 aaaac

#1143300000
b100000 aaaab
b1010010 aaaac

#1153300000
b100000 aaaac
b1010010 aaaad

#1154000000
b1110111 aaaaa

#1160800000
b1010010 aaaaa
b1110111 aaaab
b100000 aaaad

#1161000000
b100000 aaaaa
b1010010 aaaab
b1110111 aaaac

#1161200000
b100000 aaaab
b1010010 aaaac

#1171200000
b100000 aaaac
b1010010 aaaad

#1171900000
b1110111 aaaaa

#1178700000
b1010010 aaaaa
b1110111 aaaab
b100000 aaaad

#1178900000
b100000 aaaaa
b1010010 aaaab
b1110111 aaaac

#1179100000
b100000 aaaab
b1010010 aaaac

#1189100000
b100000 aaaac
b1010010 aaaad

#1189800000
b1110111 aaaaa

#1196600000
b1010010 aaaaa
b1110111 aaaab
b100000 aaaad

#1196800000
b100000 aaaaa
b1010010 aaaab
b1110111 aaaac

#1197000000
b100000 aaaab
b1010010 aaaac

#1207000000
b100000 aaaac
b1010010 aaaad

#1207700000
b1110111 aaaaa

#1214500000
b1010010 aaaaa
b1110111 aaaab
b100000 aaaad

#1214700000
b100000 aaaaa
b1010010 aaaab
b1110111 aaaac

#1214900000
b100000 aaaab
b1010010 aaaac

#1224900000
b100000 aaaac
b1010010 aaaad

#1225600000
b1110111 aaaaa

#1232400000
b1010010 aaaaa
b1110111 aaaab
b100000 aaaad

#1232600000
b100000 aaaaa
b1010010 aaaab
b1110111 aaaac

#1232800000
b100000 aaaab
b1010010 aaaac

#1242800000
b100000 aaaac
b1010010 aaaad

#1243500000
b1110111 aaaaa

#1250300000
b1010010 aaaaa
b1110111 aaaab
b100000 aaaad

#1250500000
b100000 aaaaa
b1010010 aaaab
b1110111 aaaac

#1250700000
b100000 aaaab
b1010010 aaaac

#1260700000
b100000 aaaac
b1010010 aaaad

#1261400000
b1110111 aaaaa

#1268200000
b1010010 aaaaa
b1110111 aaaab
b100000 aaaad

#1268400000
b100000 aaaaa
b1010010 aaaab
b1110111 aaaac

#1268600000
b100000 aaaab
b1010010 aaaac

#1278600000
b100000 aaaac
b1010010 aaaad

#1279300000
b1110111 aaaaa

#1286100000
b1010010 aaaaa
b1110111 aaaab
b100000 aaaad

#1286300000
b100000 aaaaa
b1010010 aaaab
b1110111 aaaac

#1286500000
b100000 aaaab
b1010010 aaaac

#1296500000
b100000 aaaac
b1010010 aaaad

#1297200000
b1110111 aaaaa

#1304000000
b1010010 aaaaa
b1110111 aaaab
b100000 aaaad

#1304200000
b100000 aaaaa
b1010010 aaaab
b1110111 aaaac

#1304400000
b100000 aaaab
b1010010 aaaac

#1314400000
b100000 aaaac
b1010010 aaaad

#1315100000
b1110111 aaaaa

#1321900000
b1010010 aaaaa
b1110111 aaaab
b100000 aaaad

#1322100000
b100000 aaaaa
b1010010 aaaab
b1110111 aaaac

#1322300000
b100000 aaaab
b1010010 aaaac

#1332300000
b100000 aaaac
b1010010 aaaad

#1333000000
b1110111 aaaaa

#1339800000
b1010010 aaaaa
b1110111 aaaab
b100000 aaaad

#1340000000
b100000 aaaaa
b1010010 aaaab
b1110111 aaaac

#1340200000
b100000 aaaab
b1010010 aaaac

#1350200000
b100000 aaaac
b1010010 aaaad

#1350900000
b1110111 aaaaa

#1357700000
b1010010 aaaaa
b1110111 aaaab
b100000 aaaad

#1357900000
b100000 aaaaa
b1010010 aaaab
b1110111 aaaac

#1358100000
b100000 aaaab
b1010010 aaaac

#1368100000
b100000 aaaac
b1010010 aaaad

#1368800000
b1110111 aaaaa

#1375600000
b1010010 aaaaa
b1110111 aaaab
b100000 aaaad

#1375800000
b100000 aaaaa
b1010010 aaaab
b1110111 aaaac

#1376000000
b100000 aaaab
b1010010 aaaac

#1386000000
b100000 aaaac
b1010010 aaaad

#1386700000
b1110111 aaaaa

#1393500000
b1010010 aaaaa
b1110111 aaaab
b100000 aaaad

#1393700000
b100000 aaaaa
b1010010 aaaab
b1110111 aaaac

#1393900000
b100000 aaaab
b1010010 aaaac

#1403900000
b100000 aaaac
b1010010 aaaad

#1404600000
b1110111 aaaaa

#1411400000
b1010010 aaaaa
b1110111 aaaab
b100000 aaaad

#1411600000
b100000 aaaaa
b1010010 aaaab
b1110111 aaaac

#1411800000
b100000 aaaab
b1010010 aaaac

#1421800000
b100000 aaaac
b1010010 aaaad

#1422500000
b1110111 aaaaa

#1429300000
b1010010 aaaaa
b1110111 aaaab
b100000 aaaad

#1429500000
b100000 aaaaa
b1010010 aaaab
b1110111 aaaac

#1429700000
b100000 aaaab
b1010010 aaaac

#1439700000
b100000 aaaac
b1010010 aaaad

#1440400000
b1110111 aaaaa

#1447200000
b1010010 aaaaa
b1110111 aaaab
b100000 aaaad

#1447400000
b100000 aaaaa
b1010010 aaaab
b1110111 aaaac

#1447600000
b100000 aaaab
b1010010 aaaac

#1457600000
b100000 aaaac
b1010010 aaaad

#1458300000
b1110111 aaaaa

#1465100000
b1010010 aaaaa
b1110111 aaaab
b100000 aaaad

#1465300000
b100000 aaaaa
b1010010 aaaab
b1110111 aaaac

#1465500000
b100000 aaaab
b1010010 aaaac

#1475500000
b100000 aaaac
b1010010 aaaad

#1476200000
b1110111 aaaaa

#1483000000
b1010010 aaaaa
b1110111 aaaab
b100000 aaaad

#1483200000
b100000 aaaaa
b1010010 aaaab
b1110111 aaaac

#1483400000
b100000 aaaab
b1010010 aaaac

#1493400000
b100000 aaaac
b1010010 aaaad

#1494100000
b1110111 aaaaa

#1500900000
b1010010 aaaaa
b1110111 aaaab
b100000 aaaad

#1501100000
b100000 aaaaa
b1010010 aaaab
b1110111 aaaac

#1501300000
b100000 aaaab
b1010010 aaaac

#1511300000
b100000 aaaac
b1010010 aaaad

#1512000000
b1110111 aaaaa

#1518800000
b1010010 aaaaa
b1110111 aaaab
b100000 aaaad

#1519000000
b100000 aaaaa
b1010010 aaaab
b1110111 aaaac

#1519200000
b100000 aaaab
b1010010 aaaac

#1529200000
b100000 aaaac
b1010010 aaaad

#1529900000
b1110111 aaaaa

#1536700000
b1010010 aaaaa
b1110111 aaaab
b100000 aaaad

#1536900000
b100000 aaaaa
b1010010 aaaab
b1110111 aaaac

#1537100000
b100000 aaaab
b1010010 aaaac

#1547100000
b100000 aaaac
b1010010 aaaad

#1547800000
b1110111 aaaaa

#1554600000
b1010010 aaaaa
b1110111 aaaab
b100000 aaaad

#1554800000
b100000 aaaaa
b1010010 aaaab
b1110111 aaaac

#1555000000
b100000 aaaab
b1010010 aaaac

#1565000000
b100000 aaaac
b1010010 aaaad

#1565700000
b1110111 aaaaa

#1572500000
b1010010 aaaaa
b1110111 aaaab
b100000 aaaad

#1572700000
b100000 aaaaa
b1010010 aaaab
b1110111 aaaac

#1572900000
b100000 aaaab
b1010010 aaaac

#1582900000
b100000 aaaac
b1010010 aaaad

#1583600000
b1110111 aaaaa

#1590400000
b1010010 aaaaa
b1110111 aaaab
b100000 aaaad

#1590600000
b100000 aaaaa
b1010010 aaaab
b1110111 aaaac

#1590800000
b100000 aaaab
b1010010 aaaac

#1600800000
b100000 aaaac
b1010010 aaaad

#1601500000
b1110111 aaaaa

#1608300000
b1010010 aaaaa
b1110111 aaaab
b100000 aaaad

#1608500000
b100000 aaaaa
b1010010 aaaab
b1110111 aaaac

#1608700000
b100000 aaaab
b1010010 aaaac

#1618700000
b100000 aaaac
b1010010 aaaad

#1619400000
b1110111 aaaaa

#1626200000
b1010010 aaaaa
b1110111 aaaab
b100000 aaaad

#1626400000
b100000 aaaaa
b1010010 aaaab
b1110111 aaaac

#1626600000
b100000 aaaab
b1010010 aaaac

#1636600000
b100000 aaaac
b1010010 aaaad

#1637300000
b1110111 aaaaa

#1644100000
b1010010 aaaaa
b1110111 aaaab
b100000 aaaad

#1644300000
b100000 aaaaa
b1010010 aaaab
b1110111 aaaac

#1644500000
b100000 aaaab
b1010010 aaaac

#1654500000
b100000 aaaac
b1010010 aaaad

#1655200000
b1110111 aaaaa

#1662000000
b1010010 aaaaa
b1110111 aaaab
b100000 aaaad

#1662200000
b100000 aaaaa
b1010010 aaaab
b1110111 aaaac

#1662400000
b100000 aaaab
b1010010 aaaac

#1672400000
b100000 aaaac
b1010010 aaaad

#1673100000
b1110111 aaaaa

#1679900000
b1010010 aaaaa
b1110111 aaaab
b100000 aaaad

#1680100000
b100000 aaaaa
b1010010 aaaab
b1110111 aaaac

#1680300000
b100000 aaaab
b1010010 aaaac

#1690300000
b100000 aaaac
b1010010 aaaad

#1691000000
b1110111 aaaaa

#1697800000
b1010010 aaaaa
b1110111 aaaab
b100000 aaaad

#1698000000
b100000 aaaaa
b1010010 aaaab
b1110111 aaaac

#1698200000
b100000 aaaab
b1010010 aaaac

#1708200000
b100000 aaaac
b1010010 aaaad

#1708900000
b1110111 aaaaa

#1715700000
b1010010 aaaaa
b1110111 aaaab
b100000 aaaad

#1715900000
b100000 aaaaa
b1010010 aaaab
b1110111 aaaac

#1716100000
b100000 aaaab
b1010010 aaaac

#1726100000
b100000 aaaac
b1010010 aaaad

#1726800000
b1110111 aaaaa

#1733600000
b1010010 aaaaa
b1110111 aaaab
b100000 aaaad

#1733800000
b100000 aaaaa
b1010010 aaaab
b1110111 aaaac

#1734000000
b100000 aaaab
b1010010 aaaac

#1744000000
b100000 aaaac
b1010010 aaaad

#1744700000
b1110111 aaaaa

#1751500000
b1010010 aaaaa
b1110111 aaaab
b100000 aaaad

#1751700000
b100000 aaaaa
b1010010 aaaab
b1110111 aaaac

#1751900000
b100000 aaaab
b1010010 aaaac

#1761900000
b100000 aaaac
b1010010 aaaad

#1762600000
b1110111 aaaaa

#1769400000
b1010010 aaaaa
b1110111 aaaab
b100000 aaaad

#1769600000
b100000 aaaaa
b1010010 aaaab
b1110111 aaaac

#1769800000
b100000 aaaab
b1010010 aaaac

#1779800000
b100000 aaaac

#1780500000
b1010010 aaaaa

#1780700000
b100000 aaaaa
b1010010 aaaac

#1790700000
b100000 aaaac

