src/test-src-snk-plain/vpc/FCFS-route-MEM-golden.vcd
$date
     Jul 05, 2018       15:42:27
$end

$version
 SystemC 2.3.1-Accellera --- May  7 2018 11:30:25
$end

$timescale
     1 ns
$end

$scope module SystemC $end
$var wire    8  aaaaa  msg_queue_2_top.snk [7:0]  $end
$var wire    8  aaaab  msg_top.src_2_queue [7:0]  $end
$upscope $end
$enddefinitions  $end

$comment
All initial values are dumped below at time 0 sec = 0 timescale units.
$end

$dumpvars
b100000 aaaaa
b100000 aaaab
$end

#8000000
b1010010 aaaab

#8400000
b1010010 aaaaa
b100000 aaaab

#8800000
b100000 aaaaa

#15900000
b1010010 aaaab

#16300000
b100000 aaaab

#25600000
b1010010 aaaaa

#26000000
b100000 aaaaa

#33800000
b1010010 aaaab

#34200000
b100000 aaaab

#43500000
b1010010 aaaaa

#43900000
b100000 aaaaa

#51700000
b1010010 aaaab

#52100000
b100000 aaaab

#61400000
b1010010 aaaaa

#61800000
b100000 aaaaa

#69600000
b1010010 aaaab

#70000000
b100000 aaaab

#79300000
b1010010 aaaaa

#79700000
b100000 aaaaa

#87500000
b1010010 aaaab

#87900000
b100000 aaaab

#97200000
b1010010 aaaaa

#97600000
b100000 aaaaa

#105400000
b1010010 aaaab

#105800000
b100000 aaaab

#115100000
b1010010 aaaaa

#115500000
b100000 aaaaa

#123300000
b1010010 aaaab

#123700000
b100000 aaaab

#133000000
b1010010 aaaaa

#133400000
b100000 aaaaa

#141200000
b1010010 aaaab

#141600000
b100000 aaaab

#150900000
b1010010 aaaaa

#151300000
b100000 aaaaa

#159100000
b1010010 aaaab

#159500000
b100000 aaaab

#168800000
b1010010 aaaaa

#169200000
b100000 aaaaa

#177000000
b1010010 aaaab

#177400000
b100000 aaaab

#186700000
b1010010 aaaaa

#187100000
b100000 aaaaa

#194900000
b1010010 aaaab

#195300000
b100000 aaaab

#204600000
b1010010 aaaaa

#205000000
b100000 aaaaa

#212800000
b1010010 aaaab

#213200000
b100000 aaaab

#222500000
b1010010 aaaaa

#222900000
b100000 aaaaa

#230700000
b1010010 aaaab

#231100000
b100000 aaaab

#240400000
b1010010 aaaaa

#240800000
b100000 aaaaa

#248600000
b1010010 aaaab

#249000000
b100000 aaaab

#258300000
b1010010 aaaaa

#258700000
b100000 aaaaa

#266500000
b1010010 aaaab

#266900000
b100000 aaaab

#276200000
b1010010 aaaaa

#276600000
b100000 aaaaa

#284400000
b1010010 aaaab

#284800000
b100000 aaaab

#294100000
b1010010 aaaaa

#294500000
b100000 aaaaa

#302300000
b1010010 aaaab

#302700000
b100000 aaaab

#312000000
b1010010 aaaaa

#312400000
b100000 aaaaa

#320200000
b1010010 aaaab

#320600000
b100000 aaaab

#329900000
b1010010 aaaaa

#330300000
b100000 aaaaa

#338100000
b1010010 aaaab

#338500000
b100000 aaaab

#347800000
b1010010 aaaaa

#348200000
b100000 aaaaa

#356000000
b1010010 aaaab

#356400000
b100000 aaaab

#365700000
b1010010 aaaaa

#366100000
b100000 aaaaa

#373900000
b1010010 aaaab

#374300000
b100000 aaaab

#383600000
b1010010 aaaaa

#384000000
b100000 aaaaa

#391800000
b1010010 aaaab

#392200000
b100000 aaaab

#401500000
b1010010 aaaaa

#401900000
b100000 aaaaa

#409700000
b1010010 aaaab

#410100000
b100000 aaaab

#419400000
b1010010 aaaaa

#419800000
b100000 aaaaa

#427600000
b1010010 aaaab

#428000000
b100000 aaaab

#437300000
b1010010 aaaaa

#437700000
b100000 aaaaa

#445500000
b1010010 aaaab

#445900000
b100000 aaaab

#455200000
b1010010 aaaaa

#455600000
b100000 aaaaa

#463400000
b1010010 aaaab

#463800000
b100000 aaaab

#473100000
b1010010 aaaaa

#473500000
b100000 aaaaa

#481300000
b1010010 aaaab

#481700000
b100000 aaaab

#491000000
b1010010 aaaaa

#491400000
b100000 aaaaa

#499200000
b1010010 aaaab

#499600000
b100000 aaaab

#508900000
b1010010 aaaaa

#509300000
b100000 aaaaa

#517100000
b1010010 aaaab

#517500000
b100000 aaaab

#526800000
b1010010 aaaaa

#527200000
b100000 aaaaa

#535000000
b1010010 aaaab

#535400000
b100000 aaaab

#544700000
b1010010 aaaaa

#545100000
b100000 aaaaa

#552900000
b1010010 aaaab

#553300000
b100000 aaaab

#562600000
b1010010 aaaaa

#563000000
b100000 aaaaa

#570800000
b1010010 aaaab

#571200000
b100000 aaaab

#580500000
b1010010 aaaaa

#580900000
b100000 aaaaa

#588700000
b1010010 aaaab

#589100000
b100000 aaaab

#598400000
b1010010 aaaaa

#598800000
b100000 aaaaa

#606600000
b1010010 aaaab

#607000000
b100000 aaaab

#616300000
b1010010 aaaaa

#616700000
b100000 aaaaa

#624500000
b1010010 aaaab

#624900000
b100000 aaaab

#634200000
b1010010 aaaaa

#634600000
b100000 aaaaa

#642400000
b1010010 aaaab

#642800000
b100000 aaaab

#652100000
b1010010 aaaaa

#652500000
b100000 aaaaa

#660300000
b1010010 aaaab

#660700000
b100000 aaaab

#670000000
b1010010 aaaaa

#670400000
b100000 aaaaa

#678200000
b1010010 aaaab

#678600000
b100000 aaaab

#687900000
b1010010 aaaaa

#688300000
b100000 aaaaa

#696100000
b1010010 aaaab

#696500000
b100000 aaaab

#705800000
b1010010 aaaaa

#706200000
b100000 aaaaa

#714000000
b1010010 aaaab

#714400000
b100000 aaaab

#723700000
b1010010 aaaaa

#724100000
b100000 aaaaa

#731900000
b1010010 aaaab

#732300000
b100000 aaaab

#741600000
b1010010 aaaaa

#742000000
b100000 aaaaa

#749800000
b1010010 aaaab

#750200000
b100000 aaaab

#759500000
b1010010 aaaaa

#759900000
b100000 aaaaa

#767700000
b1010010 aaaab

#768100000
b100000 aaaab

#777400000
b1010010 aaaaa

#777800000
b100000 aaaaa

#785600000
b1010010 aaaab

#786000000
b100000 aaaab

#795300000
b1010010 aaaaa

#795700000
b100000 aaaaa

#803500000
b1010010 aaaab

#803900000
b100000 aaaab

#813200000
b1010010 aaaaa

#813600000
b100000 aaaaa

#821400000
b1010010 aaaab

#821800000
b100000 aaaab

#831100000
b1010010 aaaaa

#831500000
b100000 aaaaa

#839300000
b1010010 aaaab

#839700000
b100000 aaaab

#849000000
b1010010 aaaaa

#849400000
b100000 aaaaa

#857200000
b1010010 aaaab

#857600000
b100000 aaaab

#866900000
b1010010 aaaaa

#867300000
b100000 aaaaa

#875100000
b1010010 aaaab

#875500000
b100000 aaaab

#884800000
b1010010 aaaaa

#885200000
b100000 aaaaa

#893000000
b1010010 aaaab

#893400000
b100000 aaaab

#902700000
b1010010 aaaaa

#903100000
b100000 aaaaa

#910900000
b1010010 aaaab

#911300000
b100000 aaaab

#920600000
b1010010 aaaaa

#921000000
b100000 aaaaa

#928800000
b1010010 aaaab

#929200000
b100000 aaaab

#938500000
b1010010 aaaaa

#938900000
b100000 aaaaa

#946700000
b1010010 aaaab

#947100000
b100000 aaaab

#956400000
b1010010 aaaaa

#956800000
b100000 aaaaa

#964600000
b1010010 aaaab

#965000000
b100000 aaaab

#974300000
b1010010 aaaaa

#974700000
b100000 aaaaa

#982500000
b1010010 aaaab

#982900000
b100000 aaaab

#992200000
b1010010 aaaaa

#992600000
b100000 aaaaa

#1000400000
b1010010 aaaab

#1000800000
b100000 aaaab

#1010100000
b1010010 aaaaa

#1010500000
b100000 aaaaa

#1018300000
b1010010 aaaab

#1018700000
b100000 aaaab

#1028000000
b1010010 aaaaa

#1028400000
b100000 aaaaa

#1036200000
b1010010 aaaab

#1036600000
b100000 aaaab

#1045900000
b1010010 aaaaa

#1046300000
b100000 aaaaa

#1054100000
b1010010 aaaab

#1054500000
b100000 aaaab

#1063800000
b1010010 aaaaa

#1064200000
b100000 aaaaa

#1072000000
b1010010 aaaab

#1072400000
b100000 aaaab

#1081700000
b1010010 aaaaa

#1082100000
b100000 aaaaa

#1089900000
b1010010 aaaab

#1090300000
b100000 aaaab

#1099600000
b1010010 aaaaa

#1100000000
b100000 aaaaa

#1107800000
b1010010 aaaab

#1108200000
b100000 aaaab

#1117500000
b1010010 aaaaa

#1117900000
b100000 aaaaa

#1125700000
b1010010 aaaab

#1126100000
b100000 aaaab

#1135400000
b1010010 aaaaa

#1135800000
b100000 aaaaa

#1143600000
b1010010 aaaab

#1144000000
b100000 aaaab

#1153300000
b1010010 aaaaa

#1153700000
b100000 aaaaa

#1161500000
b1010010 aaaab

#1161900000
b100000 aaaab

#1171200000
b1010010 aaaaa

#1171600000
b100000 aaaaa

#1179400000
b1010010 aaaab

#1179800000
b100000 aaaab

#1189100000
b1010010 aaaaa

#1189500000
b100000 aaaaa

#1197300000
b1010010 aaaab

#1197700000
b100000 aaaab

#1207000000
b1010010 aaaaa

#1207400000
b100000 aaaaa

#1215200000
b1010010 aaaab

#1215600000
b100000 aaaab

#1224900000
b1010010 aaaaa

#1225300000
b100000 aaaaa

#1233100000
b1010010 aaaab

#1233500000
b100000 aaaab

#1242800000
b1010010 aaaaa

#1243200000
b100000 aaaaa

#1251000000
b1010010 aaaab

#1251400000
b100000 aaaab

#1260700000
b1010010 aaaaa

#1261100000
b100000 aaaaa

#1268900000
b1010010 aaaab

#1269300000
b100000 aaaab

#1278600000
b1010010 aaaaa

#1279000000
b100000 aaaaa

#1286800000
b1010010 aaaab

#1287200000
b100000 aaaab

#1296500000
b1010010 aaaaa

#1296900000
b100000 aaaaa

#1304700000
b1010010 aaaab

#1305100000
b100000 aaaab

#1314400000
b1010010 aaaaa

#1314800000
b100000 aaaaa

#1322600000
b1010010 aaaab

#1323000000
b100000 aaaab

#1332300000
b1010010 aaaaa

#1332700000
b100000 aaaaa

#1340500000
b1010010 aaaab

#1340900000
b100000 aaaab

#1350200000
b1010010 aaaaa

#1350600000
b100000 aaaaa

#1358400000
b1010010 aaaab

#1358800000
b100000 aaaab

#1368100000
b1010010 aaaaa

#1368500000
b100000 aaaaa

#1376300000
b1010010 aaaab

#1376700000
b100000 aaaab

#1386000000
b1010010 aaaaa

#1386400000
b100000 aaaaa

#1394200000
b1010010 aaaab

#1394600000
b100000 aaaab

#1403900000
b1010010 aaaaa

#1404300000
b100000 aaaaa

#1412100000
b1010010 aaaab

#1412500000
b100000 aaaab

#1421800000
b1010010 aaaaa

#1422200000
b100000 aaaaa

#1430000000
b1010010 aaaab

#1430400000
b100000 aaaab

#1439700000
b1010010 aaaaa

#1440100000
b100000 aaaaa

#1447900000
b1010010 aaaab

#1448300000
b100000 aaaab

#1457600000
b1010010 aaaaa

#1458000000
b100000 aaaaa

#1465800000
b1010010 aaaab

#1466200000
b100000 aaaab

#1475500000
b1010010 aaaaa

#1475900000
b100000 aaaaa

#1483700000
b1010010 aaaab

#1484100000
b100000 aaaab

#1493400000
b1010010 aaaaa

#1493800000
b100000 aaaaa

#1501600000
b1010010 aaaab

#1502000000
b100000 aaaab

#1511300000
b1010010 aaaaa

#1511700000
b100000 aaaaa

#1519500000
b1010010 aaaab

#1519900000
b100000 aaaab

#1529200000
b1010010 aaaaa

#1529600000
b100000 aaaaa

#1537400000
b1010010 aaaab

#1537800000
b100000 aaaab

#1547100000
b1010010 aaaaa

#1547500000
b100000 aaaaa

#1555300000
b1010010 aaaab

#1555700000
b100000 aaaab

#1565000000
b1010010 aaaaa

#1565400000
b100000 aaaaa

#1573200000
b1010010 aaaab

#1573600000
b100000 aaaab

#1582900000
b1010010 aaaaa

#1583300000
b100000 aaaaa

#1591100000
b1010010 aaaab

#1591500000
b100000 aaaab

#1600800000
b1010010 aaaaa

#1601200000
b100000 aaaaa

#1609000000
b1010010 aaaab

#1609400000
b100000 aaaab

#1618700000
b1010010 aaaaa

#1619100000
b100000 aaaaa

#1626900000
b1010010 aaaab

#1627300000
b100000 aaaab

#1636600000
b1010010 aaaaa

#1637000000
b100000 aaaaa

#1644800000
b1010010 aaaab

#1645200000
b100000 aaaab

#1654500000
b1010010 aaaaa

#1654900000
b100000 aaaaa

#1662700000
b1010010 aaaab

#1663100000
b100000 aaaab

#1672400000
b1010010 aaaaa

#1672800000
b100000 aaaaa

#1680600000
b1010010 aaaab

#1681000000
b100000 aaaab

#1690300000
b1010010 aaaaa

#1690700000
b100000 aaaaa

#1698500000
b1010010 aaaab

#1698900000
b100000 aaaab

#1708200000
b1010010 aaaaa

#1708600000
b100000 aaaaa

#1716400000
b1010010 aaaab

#1716800000
b100000 aaaab

#1726100000
b1010010 aaaaa

#1726500000
b100000 aaaaa

#1734300000
b1010010 aaaab

#1734700000
b100000 aaaab

#1744000000
b1010010 aaaaa

#1744400000
b100000 aaaaa

#1752200000
b1010010 aaaab

#1752600000
b100000 aaaab

#1761900000
b1010010 aaaaa

#1762300000
b100000 aaaaa

#1770100000
b1010010 aaaab

#1770500000
b100000 aaaab

#1779800000
b1010010 aaaaa

#1780200000
b100000 aaaaa

