src/test-src-snk-plain/vpc/RR-simple-CPU-golden.vcd
$date
     Oct 13, 2017       14:48:28
$end

$version
 SystemC 2.3.1-Accellera --- Jan  8 2015 10:19:30
$end

$timescale
     1 ns
$end

$scope module SystemC $end
$var wire    8  aaaaa  top.src [7:0]  $end
$var wire    8  aaaab  top.snk [7:0]  $end
$upscope $end
$enddefinitions  $end

$comment
All initial values are dumped below at time 0 sec = 0 timescale units.
$end

$dumpvars
b1010010 aaaaa
b100000 aaaab
$end

#74
b1110010 aaaaa

#75
b1110111 aaaab

#87
b1110111 aaaaa
b1010010 aaaab

#100
b1010010 aaaaa
b1110111 aaaab

#113
b1110111 aaaaa
b1010010 aaaab

#126
b1010010 aaaaa
b1110111 aaaab

#139
b1110111 aaaaa
b1010010 aaaab

#152
b1010010 aaaaa
b1110111 aaaab

#165
b1110111 aaaaa
b1010010 aaaab

#178
b1010010 aaaaa
b1110111 aaaab

#191
b1110111 aaaaa
b1010010 aaaab

#204
b1010010 aaaaa
b1110111 aaaab

#213
b100000 aaaaa
b1010010 aaaab

#247
b1010010 aaaaa
b1110111 aaaab

#260
b1110111 aaaaa
b1010010 aaaab

#273
b1010010 aaaaa
b1110111 aaaab

#286
b1110111 aaaaa
b1010010 aaaab

#299
b1010010 aaaaa
b1110111 aaaab

#312
b1110111 aaaaa
b1010010 aaaab

#325
b1010010 aaaaa
b1110111 aaaab

#338
b1110111 aaaaa
b1010010 aaaab

#351
b1010010 aaaaa
b1110111 aaaab

#364
b1110111 aaaaa
b1010010 aaaab

#377
b1010010 aaaaa
b1110111 aaaab

#386
b100000 aaaaa
b1010010 aaaab

#420
b1010010 aaaaa
b1110111 aaaab

#433
b1110111 aaaaa
b1010010 aaaab

#446
b1010010 aaaaa
b1110111 aaaab

#459
b1110111 aaaaa
b1010010 aaaab

#472
b1010010 aaaaa
b1110111 aaaab

#485
b1110111 aaaaa
b1010010 aaaab

#498
b1010010 aaaaa
b1110111 aaaab

#511
b1110111 aaaaa
b1010010 aaaab

#524
b1010010 aaaaa
b1110111 aaaab

#537
b1110111 aaaaa
b1010010 aaaab

#550
b1010010 aaaaa
b1110111 aaaab

#559
b100000 aaaaa
b1010010 aaaab

#593
b1010010 aaaaa
b1110111 aaaab

#606
b1110111 aaaaa
b1010010 aaaab

#619
b1010010 aaaaa
b1110111 aaaab

#632
b1110111 aaaaa
b1010010 aaaab

#645
b1010010 aaaaa
b1110111 aaaab

#658
b1110111 aaaaa
b1010010 aaaab

#671
b1010010 aaaaa
b1110111 aaaab

#684
b1110111 aaaaa
b1010010 aaaab

#697
b1010010 aaaaa
b1110111 aaaab

#710
b1110111 aaaaa
b1010010 aaaab

#723
b1010010 aaaaa
b1110111 aaaab

#732
b100000 aaaaa
b1010010 aaaab

#766
b1010010 aaaaa
b1110111 aaaab

#779
b1110111 aaaaa
b1010010 aaaab

#792
b1010010 aaaaa
b1110111 aaaab

#805
b1110111 aaaaa
b1010010 aaaab

#818
b1010010 aaaaa
b1110111 aaaab

#831
b1110111 aaaaa
b1010010 aaaab

#844
b1010010 aaaaa
b1110111 aaaab

#857
b1110111 aaaaa
b1010010 aaaab

#870
b1010010 aaaaa
b1110111 aaaab

#883
b1110111 aaaaa
b1010010 aaaab

#896
b1010010 aaaaa
b1110111 aaaab

#905
b100000 aaaaa
b1010010 aaaab

#939
b1010010 aaaaa
b1110111 aaaab

#952
b1110111 aaaaa
b1010010 aaaab

#965
b1010010 aaaaa
b1110111 aaaab

#978
b1110111 aaaaa
b1010010 aaaab

#991
b1010010 aaaaa
b1110111 aaaab

#1004
b1110111 aaaaa
b1010010 aaaab

#1017
b1010010 aaaaa
b1110111 aaaab

#1030
b1110111 aaaaa
b1010010 aaaab

#1043
b1010010 aaaaa
b1110111 aaaab

#1056
b1110111 aaaaa
b1010010 aaaab

#1069
b1010010 aaaaa
b1110111 aaaab

#1078
b100000 aaaaa
b1010010 aaaab

#1112
b1010010 aaaaa
b1110111 aaaab

#1125
b1110111 aaaaa
b1010010 aaaab

#1138
b1010010 aaaaa
b1110111 aaaab

#1151
b1110111 aaaaa
b1010010 aaaab

#1164
b1010010 aaaaa
b1110111 aaaab

#1177
b1110111 aaaaa
b1010010 aaaab

#1190
b1010010 aaaaa
b1110111 aaaab

#1203
b1110111 aaaaa
b1010010 aaaab

#1216
b1010010 aaaaa
b1110111 aaaab

#1229
b1110111 aaaaa
b1010010 aaaab

#1242
b1010010 aaaaa
b1110111 aaaab

#1251
b100000 aaaaa
b1010010 aaaab

#1285
b1010010 aaaaa
b1110111 aaaab

#1298
b1110111 aaaaa
b1010010 aaaab

#1311
b1010010 aaaaa
b1110111 aaaab

#1324
b1110111 aaaaa
b1010010 aaaab

#1337
b1010010 aaaaa
b1110111 aaaab

#1350
b1110111 aaaaa
b1010010 aaaab

#1363
b1010010 aaaaa
b1110111 aaaab

#1376
b1110111 aaaaa
b1010010 aaaab

#1389
b1010010 aaaaa
b1110111 aaaab

#1402
b1110111 aaaaa
b1010010 aaaab

#1415
b1010010 aaaaa
b1110111 aaaab

#1424
b100000 aaaaa
b1010010 aaaab

#1458
b1010010 aaaaa
b1110111 aaaab

#1471
b1110111 aaaaa
b1010010 aaaab

#1484
b1010010 aaaaa
b1110111 aaaab

#1497
b1110111 aaaaa
b1010010 aaaab

#1510
b1010010 aaaaa
b1110111 aaaab

#1523
b1110111 aaaaa
b1010010 aaaab

#1536
b1010010 aaaaa
b1110111 aaaab

#1549
b1110111 aaaaa
b1010010 aaaab

#1562
b1010010 aaaaa
b1110111 aaaab

#1575
b1110111 aaaaa
b1010010 aaaab

#1588
b1010010 aaaaa
b1110111 aaaab

#1597
b100000 aaaaa
b1010010 aaaab

#1631
b1010010 aaaaa
b1110111 aaaab

#1644
b1110111 aaaaa
b1010010 aaaab

#1657
b1010010 aaaaa
b1110111 aaaab

#1670
b1110111 aaaaa
b1010010 aaaab

#1683
b1010010 aaaaa
b1110111 aaaab

#1696
b1110111 aaaaa
b1010010 aaaab

#1709
b1010010 aaaaa
b1110111 aaaab

#1722
b1110111 aaaaa
b1010010 aaaab

#1735
b1010010 aaaaa
b1110111 aaaab

#1748
b1110111 aaaaa
b1010010 aaaab

#1761
b1010010 aaaaa
b1110111 aaaab

#1770
b100000 aaaaa
b1010010 aaaab

#1804
b1010010 aaaaa
b1110111 aaaab

#1817
b1110111 aaaaa
b1010010 aaaab

#1830
b1010010 aaaaa
b1110111 aaaab

#1843
b1110111 aaaaa
b1010010 aaaab

#1856
b1010010 aaaaa
b1110111 aaaab

#1869
b1110111 aaaaa
b1010010 aaaab

#1882
b1010010 aaaaa
b1110111 aaaab

#1895
b1110111 aaaaa
b1010010 aaaab

#1908
b1010010 aaaaa
b1110111 aaaab

#1921
b1110111 aaaaa
b1010010 aaaab

#1934
b1010010 aaaaa
b1110111 aaaab

#1943
b100000 aaaaa
b1010010 aaaab

#1977
b1010010 aaaaa
b1110111 aaaab

#1990
b1110111 aaaaa
b1010010 aaaab

#2003
b1010010 aaaaa
b1110111 aaaab

#2016
b1110111 aaaaa
b1010010 aaaab

#2029
b1010010 aaaaa
b1110111 aaaab

#2042
b1110111 aaaaa
b1010010 aaaab

#2055
b1010010 aaaaa
b1110111 aaaab

#2068
b1110111 aaaaa
b1010010 aaaab

#2081
b1010010 aaaaa
b1110111 aaaab

#2094
b1110111 aaaaa
b1010010 aaaab

#2107
b1010010 aaaaa
b1110111 aaaab

#2116
b100000 aaaaa
b1010010 aaaab

#2150
b1010010 aaaaa
b1110111 aaaab

#2163
b1110111 aaaaa
b1010010 aaaab

#2176
b1010010 aaaaa
b1110111 aaaab

#2189
b1110111 aaaaa
b1010010 aaaab

#2202
b1010010 aaaaa
b1110111 aaaab

#2215
b1110111 aaaaa
b1010010 aaaab

#2228
b1010010 aaaaa
b1110111 aaaab

#2241
b1110111 aaaaa
b1010010 aaaab

#2254
b1010010 aaaaa
b1110111 aaaab

#2267
b1110111 aaaaa
b1010010 aaaab

#2280
b1010010 aaaaa
b1110111 aaaab

#2289
b100000 aaaaa
b1010010 aaaab

#2323
b1010010 aaaaa
b1110111 aaaab

#2336
b1110111 aaaaa
b1010010 aaaab

#2349
b1010010 aaaaa
b1110111 aaaab

#2362
b1110111 aaaaa
b1010010 aaaab

#2375
b1010010 aaaaa
b1110111 aaaab

#2388
b1110111 aaaaa
b1010010 aaaab

#2401
b1010010 aaaaa
b1110111 aaaab

#2414
b1110111 aaaaa
b1010010 aaaab

#2427
b1010010 aaaaa
b1110111 aaaab

#2440
b1110111 aaaaa
b1010010 aaaab

#2453
b1010010 aaaaa
b1110111 aaaab

#2462
b100000 aaaaa
b1010010 aaaab

#2496
b1010010 aaaaa
b1110111 aaaab

#2509
b1110111 aaaaa
b1010010 aaaab

#2522
b1010010 aaaaa
b1110111 aaaab

#2535
b1110111 aaaaa
b1010010 aaaab

#2548
b1010010 aaaaa
b1110111 aaaab

#2561
b1110111 aaaaa
b1010010 aaaab

#2574
b1010010 aaaaa
b1110111 aaaab

#2587
b1110111 aaaaa
b1010010 aaaab

#2600
b1010010 aaaaa
b1110111 aaaab

#2613
b1110111 aaaaa
b1010010 aaaab

#2626
b1010010 aaaaa
b1110111 aaaab

#2635
b100000 aaaaa
b1010010 aaaab

#2669
b1010010 aaaaa
b1110111 aaaab

#2682
b1110111 aaaaa
b1010010 aaaab

#2695
b1010010 aaaaa
b1110111 aaaab

#2708
b1110111 aaaaa
b1010010 aaaab

#2721
b1010010 aaaaa
b1110111 aaaab

#2734
b1110111 aaaaa
b1010010 aaaab

#2747
b1010010 aaaaa
b1110111 aaaab

#2760
b1110111 aaaaa
b1010010 aaaab

#2773
b1010010 aaaaa
b1110111 aaaab

#2786
b1110111 aaaaa
b1010010 aaaab

#2799
b1010010 aaaaa
b1110111 aaaab

#2808
b100000 aaaaa
b1010010 aaaab

#2842
b1010010 aaaaa
b1110111 aaaab

#2855
b1110111 aaaaa
b1010010 aaaab

#2868
b1010010 aaaaa
b1110111 aaaab

#2881
b1110111 aaaaa
b1010010 aaaab

#2894
b1010010 aaaaa
b1110111 aaaab

#2907
b1110111 aaaaa
b1010010 aaaab

#2920
b1010010 aaaaa
b1110111 aaaab

#2933
b1110111 aaaaa
b1010010 aaaab

#2946
b1010010 aaaaa
b1110111 aaaab

#2959
b1110111 aaaaa
b1010010 aaaab

#2972
b1010010 aaaaa
b1110111 aaaab

#2981
b100000 aaaaa
b1010010 aaaab

#3015
b1010010 aaaaa
b1110111 aaaab

#3028
b1110111 aaaaa
b1010010 aaaab

#3041
b1010010 aaaaa
b1110111 aaaab

#3054
b1110111 aaaaa
b1010010 aaaab

#3067
b1010010 aaaaa
b1110111 aaaab

#3080
b1110111 aaaaa
b1010010 aaaab

#3093
b1010010 aaaaa
b1110111 aaaab

#3106
b1110111 aaaaa
b1010010 aaaab

#3119
b1010010 aaaaa
b1110111 aaaab

#3132
b1110111 aaaaa
b1010010 aaaab

#3145
b1010010 aaaaa
b1110111 aaaab

#3154
b100000 aaaaa
b1010010 aaaab

#3188
b1010010 aaaaa
b1110111 aaaab

#3201
b1110111 aaaaa
b1010010 aaaab

#3214
b1010010 aaaaa
b1110111 aaaab

#3227
b1110111 aaaaa
b1010010 aaaab

#3240
b1010010 aaaaa
b1110111 aaaab

#3253
b1110111 aaaaa
b1010010 aaaab

#3266
b1010010 aaaaa
b1110111 aaaab

#3279
b1110111 aaaaa
b1010010 aaaab

#3292
b1010010 aaaaa
b1110111 aaaab

#3305
b1110111 aaaaa
b1010010 aaaab

#3318
b1010010 aaaaa
b1110111 aaaab

#3327
b100000 aaaaa
b1010010 aaaab

#3361
b1010010 aaaaa
b1110111 aaaab

#3374
b1110111 aaaaa
b1010010 aaaab

#3387
b1010010 aaaaa
b1110111 aaaab

#3400
b1110111 aaaaa
b1010010 aaaab

#3413
b1010010 aaaaa
b1110111 aaaab

#3426
b1110111 aaaaa
b1010010 aaaab

#3439
b1010010 aaaaa
b1110111 aaaab

#3452
b1110111 aaaaa
b1010010 aaaab

#3465
b1010010 aaaaa
b1110111 aaaab

#3478
b1110111 aaaaa
b1010010 aaaab

#3491
b1010010 aaaaa
b1110111 aaaab

#3500
b100000 aaaaa
b1010010 aaaab

#3534
b1010010 aaaaa
b1110111 aaaab

#3547
b1110111 aaaaa
b1010010 aaaab

#3560
b1010010 aaaaa
b1110111 aaaab

#3573
b1110111 aaaaa
b1010010 aaaab

#3586
b1010010 aaaaa
b1110111 aaaab

#3599
b1110111 aaaaa
b1010010 aaaab

#3612
b1010010 aaaaa
b1110111 aaaab

#3625
b1110111 aaaaa
b1010010 aaaab

#3638
b1010010 aaaaa
b1110111 aaaab

#3651
b1110111 aaaaa
b1010010 aaaab

#3664
b1010010 aaaaa
b1110111 aaaab

#3673
b100000 aaaaa
b1010010 aaaab

#3707
b1010010 aaaaa
b1110111 aaaab

#3720
b1110111 aaaaa
b1010010 aaaab

#3733
b1010010 aaaaa
b1110111 aaaab

#3746
b1110111 aaaaa
b1010010 aaaab

#3759
b1010010 aaaaa
b1110111 aaaab

#3772
b1110111 aaaaa
b1010010 aaaab

#3785
b1010010 aaaaa
b1110111 aaaab

#3798
b1110111 aaaaa
b1010010 aaaab

#3811
b1010010 aaaaa
b1110111 aaaab

#3824
b1110111 aaaaa
b1010010 aaaab

#3837
b1010010 aaaaa
b1110111 aaaab

#3846
b100000 aaaaa
b1010010 aaaab

#3880
b1010010 aaaaa
b1110111 aaaab

#3893
b1110111 aaaaa
b1010010 aaaab

#3906
b1010010 aaaaa
b1110111 aaaab

#3919
b1110111 aaaaa
b1010010 aaaab

#3932
b1010010 aaaaa
b1110111 aaaab

#3945
b1110111 aaaaa
b1010010 aaaab

#3958
b1010010 aaaaa
b1110111 aaaab

#3971
b1110111 aaaaa
b1010010 aaaab

#3984
b1010010 aaaaa
b1110111 aaaab

#3997
b1110111 aaaaa
b1010010 aaaab

#4010
b1010010 aaaaa
b1110111 aaaab

#4019
b100000 aaaaa
b1010010 aaaab

#4053
b1010010 aaaaa
b1110111 aaaab

#4066
b1110111 aaaaa
b1010010 aaaab

#4079
b1010010 aaaaa
b1110111 aaaab

#4092
b1110111 aaaaa
b1010010 aaaab

#4105
b1010010 aaaaa
b1110111 aaaab

#4118
b1110111 aaaaa
b1010010 aaaab

#4131
b1010010 aaaaa
b1110111 aaaab

#4144
b1110111 aaaaa
b1010010 aaaab

#4157
b1010010 aaaaa
b1110111 aaaab

#4170
b1110111 aaaaa
b1010010 aaaab

#4183
b1010010 aaaaa
b1110111 aaaab

#4192
b100000 aaaaa
b1010010 aaaab

#4226
b1010010 aaaaa
b1110111 aaaab

#4239
b1110111 aaaaa
b1010010 aaaab

#4252
b1010010 aaaaa
b1110111 aaaab

#4265
b1110111 aaaaa
b1010010 aaaab

#4278
b1010010 aaaaa
b1110111 aaaab

#4291
b1110111 aaaaa
b1010010 aaaab

#4304
b1010010 aaaaa
b1110111 aaaab

#4317
b1110111 aaaaa
b1010010 aaaab

#4330
b1010010 aaaaa
b1110111 aaaab

#4343
b1110111 aaaaa
b1010010 aaaab

#4356
b1010010 aaaaa
b1110111 aaaab

#4365
b100000 aaaaa
b1010010 aaaab

#4399
b1010010 aaaaa
b1110111 aaaab

#4412
b1110111 aaaaa
b1010010 aaaab

#4425
b1010010 aaaaa
b1110111 aaaab

#4438
b1110111 aaaaa
b1010010 aaaab

#4451
b1010010 aaaaa
b1110111 aaaab

#4464
b1110111 aaaaa
b1010010 aaaab

#4477
b1010010 aaaaa
b1110111 aaaab

#4490
b1110111 aaaaa
b1010010 aaaab

#4503
b1010010 aaaaa
b1110111 aaaab

#4516
b1110111 aaaaa
b1010010 aaaab

#4529
b1010010 aaaaa
b1110111 aaaab

#4538
b100000 aaaaa
b1010010 aaaab

#4572
b1010010 aaaaa
b1110111 aaaab

#4585
b1110111 aaaaa
b1010010 aaaab

#4598
b1010010 aaaaa
b1110111 aaaab

#4611
b1110111 aaaaa
b1010010 aaaab

#4624
b1010010 aaaaa
b1110111 aaaab

#4637
b1110111 aaaaa
b1010010 aaaab

#4650
b1010010 aaaaa
b1110111 aaaab

#4663
b1110111 aaaaa
b1010010 aaaab

#4676
b1010010 aaaaa
b1110111 aaaab

#4689
b1110111 aaaaa
b1010010 aaaab

#4702
b1010010 aaaaa
b1110111 aaaab

#4711
b100000 aaaaa
b1010010 aaaab

#4745
b1010010 aaaaa
b1110111 aaaab

#4758
b1110111 aaaaa
b1010010 aaaab

#4771
b1010010 aaaaa
b1110111 aaaab

#4784
b1110111 aaaaa
b1010010 aaaab

#4797
b1010010 aaaaa
b1110111 aaaab

#4810
b1110111 aaaaa
b1010010 aaaab

#4823
b1010010 aaaaa
b1110111 aaaab

#4836
b1110111 aaaaa
b1010010 aaaab

#4849
b1010010 aaaaa
b1110111 aaaab

#4862
b1110111 aaaaa
b1010010 aaaab

#4875
b1010010 aaaaa
b1110111 aaaab

#4884
b100000 aaaaa
b1010010 aaaab

#4918
b1010010 aaaaa
b1110111 aaaab

#4931
b1110111 aaaaa
b1010010 aaaab

#4944
b1010010 aaaaa
b1110111 aaaab

#4957
b1110111 aaaaa
b1010010 aaaab

#4970
b1010010 aaaaa
b1110111 aaaab

#4983
b1110111 aaaaa
b1010010 aaaab

#4996
b1010010 aaaaa
b1110111 aaaab

#5009
b1110111 aaaaa
b1010010 aaaab

#5022
b1010010 aaaaa
b1110111 aaaab

#5035
b1110111 aaaaa
b1010010 aaaab

#5048
b1010010 aaaaa
b1110111 aaaab

#5057
b100000 aaaaa
b1010010 aaaab

#5091
b1010010 aaaaa
b1110111 aaaab

#5104
b1110111 aaaaa
b1010010 aaaab

#5117
b1010010 aaaaa
b1110111 aaaab

#5130
b1110111 aaaaa
b1010010 aaaab

#5143
b1010010 aaaaa
b1110111 aaaab

#5156
b1110111 aaaaa
b1010010 aaaab

#5169
b1010010 aaaaa
b1110111 aaaab

#5182
b1110111 aaaaa
b1010010 aaaab

#5195
b1010010 aaaaa
b1110111 aaaab

#5208
b1110111 aaaaa
b1010010 aaaab

#5221
b1010010 aaaaa
b1110111 aaaab

#5230
b100000 aaaaa
b1010010 aaaab

#5264
b1010010 aaaaa
b1110111 aaaab

#5277
b1110111 aaaaa
b1010010 aaaab

#5290
b1010010 aaaaa
b1110111 aaaab

#5303
b1110111 aaaaa
b1010010 aaaab

#5316
b1010010 aaaaa
b1110111 aaaab

#5329
b1110111 aaaaa
b1010010 aaaab

#5342
b1010010 aaaaa
b1110111 aaaab

#5355
b1110111 aaaaa
b1010010 aaaab

#5368
b1010010 aaaaa
b1110111 aaaab

#5381
b1110111 aaaaa
b1010010 aaaab

#5394
b1010010 aaaaa
b1110111 aaaab

#5403
b100000 aaaaa
b1010010 aaaab

#5437
b1010010 aaaaa
b1110111 aaaab

#5450
b1110111 aaaaa
b1010010 aaaab

#5463
b1010010 aaaaa
b1110111 aaaab

#5476
b1110111 aaaaa
b1010010 aaaab

#5489
b1010010 aaaaa
b1110111 aaaab

#5502
b1110111 aaaaa
b1010010 aaaab

#5515
b1010010 aaaaa
b1110111 aaaab

#5528
b1110111 aaaaa
b1010010 aaaab

#5541
b1010010 aaaaa
b1110111 aaaab

#5554
b1110111 aaaaa
b1010010 aaaab

#5567
b1010010 aaaaa
b1110111 aaaab

#5576
b100000 aaaaa
b1010010 aaaab

#5610
b1010010 aaaaa
b1110111 aaaab

#5623
b1110111 aaaaa
b1010010 aaaab

#5636
b1010010 aaaaa
b1110111 aaaab

#5649
b1110111 aaaaa
b1010010 aaaab

#5662
b1010010 aaaaa
b1110111 aaaab

#5675
b1110111 aaaaa
b1010010 aaaab

#5688
b1010010 aaaaa
b1110111 aaaab

#5701
b1110111 aaaaa
b1010010 aaaab

#5714
b1010010 aaaaa
b1110111 aaaab

#5727
b1110111 aaaaa
b1010010 aaaab

#5740
b1010010 aaaaa
b1110111 aaaab

#5749
b100000 aaaaa
b1010010 aaaab

#5783
b1010010 aaaaa
b1110111 aaaab

#5796
b1110111 aaaaa
b1010010 aaaab

#5809
b1010010 aaaaa
b1110111 aaaab

#5822
b1110111 aaaaa
b1010010 aaaab

#5835
b1010010 aaaaa
b1110111 aaaab

#5848
b1110111 aaaaa
b1010010 aaaab

#5861
b1010010 aaaaa
b1110111 aaaab

#5874
b1110111 aaaaa
b1010010 aaaab

#5887
b1010010 aaaaa
b1110111 aaaab

#5900
b1110111 aaaaa
b1010010 aaaab

#5913
b1010010 aaaaa
b1110111 aaaab

#5922
b100000 aaaaa
b1010010 aaaab

#5956
b1010010 aaaaa
b1110111 aaaab

#5969
b1110111 aaaaa
b1010010 aaaab

#5982
b1010010 aaaaa
b1110111 aaaab

#5995
b1110111 aaaaa
b1010010 aaaab

#6008
b1010010 aaaaa
b1110111 aaaab

#6021
b1110111 aaaaa
b1010010 aaaab

#6034
b1010010 aaaaa
b1110111 aaaab

#6047
b1110111 aaaaa
b1010010 aaaab

#6060
b1010010 aaaaa
b1110111 aaaab

#6073
b1110111 aaaaa
b1010010 aaaab

#6086
b1010010 aaaaa
b1110111 aaaab

#6095
b100000 aaaaa
b1010010 aaaab

#6129
b1010010 aaaaa
b1110111 aaaab

#6142
b1110111 aaaaa
b1010010 aaaab

#6155
b1010010 aaaaa
b1110111 aaaab

#6168
b1110111 aaaaa
b1010010 aaaab

#6181
b1010010 aaaaa
b1110111 aaaab

#6194
b1110111 aaaaa
b1010010 aaaab

#6207
b1010010 aaaaa
b1110111 aaaab

#6220
b1110111 aaaaa
b1010010 aaaab

#6233
b1010010 aaaaa
b1110111 aaaab

#6246
b1110111 aaaaa
b1010010 aaaab

#6259
b1010010 aaaaa
b1110111 aaaab

#6268
b100000 aaaaa
b1010010 aaaab

#6302
b1010010 aaaaa
b1110111 aaaab

#6315
b1110111 aaaaa
b1010010 aaaab

#6328
b1010010 aaaaa
b1110111 aaaab

#6341
b1110111 aaaaa
b1010010 aaaab

#6354
b1010010 aaaaa
b1110111 aaaab

#6367
b1110111 aaaaa
b1010010 aaaab

#6380
b1010010 aaaaa
b1110111 aaaab

#6393
b1110111 aaaaa
b1010010 aaaab

#6406
b1010010 aaaaa
b1110111 aaaab

#6419
b1110111 aaaaa
b1010010 aaaab

#6432
b1010010 aaaaa
b1110111 aaaab

#6441
b100000 aaaaa
b1010010 aaaab

#6475
b1010010 aaaaa
b1110111 aaaab

#6488
b1110111 aaaaa
b1010010 aaaab

#6501
b1010010 aaaaa
b1110111 aaaab

#6514
b1110111 aaaaa
b1010010 aaaab

#6527
b1010010 aaaaa
b1110111 aaaab

#6540
b1110111 aaaaa
b1010010 aaaab

#6553
b1010010 aaaaa
b1110111 aaaab

#6566
b1110111 aaaaa
b1010010 aaaab

#6579
b1010010 aaaaa
b1110111 aaaab

#6592
b1110111 aaaaa
b1010010 aaaab

#6605
b1010010 aaaaa
b1110111 aaaab

#6614
b100000 aaaaa
b1010010 aaaab

#6648
b1010010 aaaaa
b1110111 aaaab

#6661
b1110111 aaaaa
b1010010 aaaab

#6674
b1010010 aaaaa
b1110111 aaaab

#6687
b1110111 aaaaa
b1010010 aaaab

#6700
b1010010 aaaaa
b1110111 aaaab

#6713
b1110111 aaaaa
b1010010 aaaab

#6726
b1010010 aaaaa
b1110111 aaaab

#6739
b1110111 aaaaa
b1010010 aaaab

#6752
b1010010 aaaaa
b1110111 aaaab

#6765
b1110111 aaaaa
b1010010 aaaab

#6778
b1010010 aaaaa
b1110111 aaaab

#6787
b100000 aaaaa
b1010010 aaaab

#6821
b1010010 aaaaa
b1110111 aaaab

#6834
b1110111 aaaaa
b1010010 aaaab

#6847
b1010010 aaaaa
b1110111 aaaab

#6860
b1110111 aaaaa
b1010010 aaaab

#6873
b1010010 aaaaa
b1110111 aaaab

#6886
b1110111 aaaaa
b1010010 aaaab

#6899
b1010010 aaaaa
b1110111 aaaab

#6912
b1110111 aaaaa
b1010010 aaaab

#6925
b1010010 aaaaa
b1110111 aaaab

#6938
b1110111 aaaaa
b1010010 aaaab

#6951
b1010010 aaaaa
b1110111 aaaab

#6960
b100000 aaaaa
b1010010 aaaab

#6994
b1010010 aaaaa
b1110111 aaaab

#7007
b1110111 aaaaa
b1010010 aaaab

#7020
b1010010 aaaaa
b1110111 aaaab

#7033
b1110111 aaaaa
b1010010 aaaab

#7046
b1010010 aaaaa
b1110111 aaaab

#7059
b1110111 aaaaa
b1010010 aaaab

#7072
b1010010 aaaaa
b1110111 aaaab

#7085
b1110111 aaaaa
b1010010 aaaab

#7098
b1010010 aaaaa
b1110111 aaaab

#7111
b1110111 aaaaa
b1010010 aaaab

#7124
b1010010 aaaaa
b1110111 aaaab

#7133
b100000 aaaaa
b1010010 aaaab

#7167
b1010010 aaaaa
b1110111 aaaab

#7180
b1110111 aaaaa
b1010010 aaaab

#7193
b1010010 aaaaa
b1110111 aaaab

#7206
b1110111 aaaaa
b1010010 aaaab

#7219
b1010010 aaaaa
b1110111 aaaab

#7232
b1110111 aaaaa
b1010010 aaaab

#7245
b1010010 aaaaa
b1110111 aaaab

#7258
b1110111 aaaaa
b1010010 aaaab

#7271
b1010010 aaaaa
b1110111 aaaab

#7284
b1110111 aaaaa
b1010010 aaaab

#7297
b1010010 aaaaa
b1110111 aaaab

#7306
b100000 aaaaa
b1010010 aaaab

#7340
b1010010 aaaaa
b1110111 aaaab

#7353
b1110111 aaaaa
b1010010 aaaab

#7366
b1010010 aaaaa
b1110111 aaaab

#7379
b1110111 aaaaa
b1010010 aaaab

#7392
b1010010 aaaaa
b1110111 aaaab

#7405
b1110111 aaaaa
b1010010 aaaab

#7418
b1010010 aaaaa
b1110111 aaaab

#7431
b1110111 aaaaa
b1010010 aaaab

#7444
b1010010 aaaaa
b1110111 aaaab

#7457
b1110111 aaaaa
b1010010 aaaab

#7470
b1010010 aaaaa
b1110111 aaaab

#7479
b100000 aaaaa
b1010010 aaaab

#7513
b1010010 aaaaa
b1110111 aaaab

#7526
b1110111 aaaaa
b1010010 aaaab

#7539
b1010010 aaaaa
b1110111 aaaab

#7552
b1110111 aaaaa
b1010010 aaaab

#7565
b1010010 aaaaa
b1110111 aaaab

#7578
b1110111 aaaaa
b1010010 aaaab

#7591
b1010010 aaaaa
b1110111 aaaab

#7604
b1110111 aaaaa
b1010010 aaaab

#7617
b1010010 aaaaa
b1110111 aaaab

#7630
b1110111 aaaaa
b1010010 aaaab

#7643
b1010010 aaaaa
b1110111 aaaab

#7652
b100000 aaaaa
b1010010 aaaab

#7686
b1010010 aaaaa
b1110111 aaaab

#7699
b1110111 aaaaa
b1010010 aaaab

#7712
b1010010 aaaaa
b1110111 aaaab

#7725
b1110111 aaaaa
b1010010 aaaab

#7738
b1010010 aaaaa
b1110111 aaaab

#7751
b1110111 aaaaa
b1010010 aaaab

#7764
b1010010 aaaaa
b1110111 aaaab

#7777
b1110111 aaaaa
b1010010 aaaab

#7790
b1010010 aaaaa
b1110111 aaaab

#7803
b1110111 aaaaa
b1010010 aaaab

#7816
b1010010 aaaaa
b1110111 aaaab

#7825
b100000 aaaaa
b1010010 aaaab

#7859
b1010010 aaaaa
b1110111 aaaab

#7872
b1110111 aaaaa
b1010010 aaaab

#7885
b1010010 aaaaa
b1110111 aaaab

#7898
b1110111 aaaaa
b1010010 aaaab

#7911
b1010010 aaaaa
b1110111 aaaab

#7924
b1110111 aaaaa
b1010010 aaaab

#7937
b1010010 aaaaa
b1110111 aaaab

#7950
b1110111 aaaaa
b1010010 aaaab

#7963
b1010010 aaaaa
b1110111 aaaab

#7976
b1110111 aaaaa
b1010010 aaaab

#7989
b1010010 aaaaa
b1110111 aaaab

#7998
b100000 aaaaa
b1010010 aaaab

#8032
b1010010 aaaaa
b1110111 aaaab

#8045
b1110111 aaaaa
b1010010 aaaab

#8058
b1010010 aaaaa
b1110111 aaaab

#8071
b1110111 aaaaa
b1010010 aaaab

#8084
b1010010 aaaaa
b1110111 aaaab

#8097
b1110111 aaaaa
b1010010 aaaab

#8110
b1010010 aaaaa
b1110111 aaaab

#8123
b1110111 aaaaa
b1010010 aaaab

#8136
b1010010 aaaaa
b1110111 aaaab

#8149
b1110111 aaaaa
b1010010 aaaab

#8162
b1010010 aaaaa
b1110111 aaaab

#8171
b100000 aaaaa
b1010010 aaaab

#8205
b1010010 aaaaa
b1110111 aaaab

#8218
b1110111 aaaaa
b1010010 aaaab

#8231
b1010010 aaaaa
b1110111 aaaab

#8244
b1110111 aaaaa
b1010010 aaaab

#8257
b1010010 aaaaa
b1110111 aaaab

#8270
b1110111 aaaaa
b1010010 aaaab

#8283
b1010010 aaaaa
b1110111 aaaab

#8296
b1110111 aaaaa
b1010010 aaaab

#8309
b1010010 aaaaa
b1110111 aaaab

#8322
b1110111 aaaaa
b1010010 aaaab

#8335
b1010010 aaaaa
b1110111 aaaab

#8344
b100000 aaaaa
b1010010 aaaab

#8378
b1010010 aaaaa
b1110111 aaaab

#8391
b1110111 aaaaa
b1010010 aaaab

#8404
b1010010 aaaaa
b1110111 aaaab

#8417
b1110111 aaaaa
b1010010 aaaab

#8430
b1010010 aaaaa
b1110111 aaaab

#8443
b1110111 aaaaa
b1010010 aaaab

#8456
b1010010 aaaaa
b1110111 aaaab

#8469
b1110111 aaaaa
b1010010 aaaab

#8482
b1010010 aaaaa
b1110111 aaaab

#8495
b1110111 aaaaa
b1010010 aaaab

#8508
b1010010 aaaaa
b1110111 aaaab

#8517
b100000 aaaaa
b1010010 aaaab

#8551
b1010010 aaaaa
b1110111 aaaab

#8564
b1110111 aaaaa
b1010010 aaaab

#8577
b1010010 aaaaa
b1110111 aaaab

#8590
b1110111 aaaaa
b1010010 aaaab

#8603
b1010010 aaaaa
b1110111 aaaab

#8616
b1110111 aaaaa
b1010010 aaaab

