src/test-src-snk-plain/vpc/RR-simple-CPU-golden.vcd
$date
     Jun 29, 2017       17:34:48
$end

$version
 SystemC 2.3.1-Accellera --- Jun  6 2015 16:02:58
$end

$timescale
     1 ns
$end

$scope module SystemC $end
$var wire    8  aaaaa  top.src [7:0]  $end
$var wire    8  aaaab  top.snk [7:0]  $end
$upscope $end
$enddefinitions  $end

$comment
All initial values are dumped below at time 0 sec = 0 timescale units.
$end

$dumpvars
b1010010 aaaaa
b100000 aaaab
$end

#74
b1110010 aaaaa

#75
b1110111 aaaab

#148
b100000 aaaaa
b1010010 aaaab

#247
b1110111 aaaaa
b1110010 aaaab

#260
b1010010 aaaaa
b1110111 aaaab

#273
b1110111 aaaaa
b1010010 aaaab

#286
b1010010 aaaaa
b1110111 aaaab

#299
b1110111 aaaaa
b1010010 aaaab

#312
b1010010 aaaaa
b1110111 aaaab

#325
b1110111 aaaaa
b1010010 aaaab

#338
b1010010 aaaaa
b1110111 aaaab

#351
b1110111 aaaaa
b1010010 aaaab

#364
b1010010 aaaaa
b1110111 aaaab

#377
b1110111 aaaaa
b1010010 aaaab

#390
b1010010 aaaaa
b1110111 aaaab

#399
b100000 aaaaa
b1010010 aaaab

#420
b1110111 aaaaa
b1110010 aaaab

#433
b1010010 aaaaa
b1110111 aaaab

#446
b1110111 aaaaa
b1010010 aaaab

#459
b1010010 aaaaa
b1110111 aaaab

#472
b1110111 aaaaa
b1010010 aaaab

#485
b1010010 aaaaa
b1110111 aaaab

#498
b1110111 aaaaa
b1010010 aaaab

#511
b1010010 aaaaa
b1110111 aaaab

#524
b1110111 aaaaa
b1010010 aaaab

#537
b1010010 aaaaa
b1110111 aaaab

#550
b1110111 aaaaa
b1010010 aaaab

#563
b1010010 aaaaa
b1110111 aaaab

#572
b100000 aaaaa
b1010010 aaaab

#593
b1110111 aaaaa
b1110010 aaaab

#606
b1010010 aaaaa
b1110111 aaaab

#619
b1110111 aaaaa
b1010010 aaaab

#632
b1010010 aaaaa
b1110111 aaaab

#645
b1110111 aaaaa
b1010010 aaaab

#658
b1010010 aaaaa
b1110111 aaaab

#671
b1110111 aaaaa
b1010010 aaaab

#684
b1010010 aaaaa
b1110111 aaaab

#697
b1110111 aaaaa
b1010010 aaaab

#710
b1010010 aaaaa
b1110111 aaaab

#723
b1110111 aaaaa
b1010010 aaaab

#736
b1010010 aaaaa
b1110111 aaaab

#745
b100000 aaaaa
b1010010 aaaab

#766
b1110111 aaaaa
b1110010 aaaab

#779
b1010010 aaaaa
b1110111 aaaab

#792
b1110111 aaaaa
b1010010 aaaab

#805
b1010010 aaaaa
b1110111 aaaab

#818
b1110111 aaaaa
b1010010 aaaab

#831
b1010010 aaaaa
b1110111 aaaab

#844
b1110111 aaaaa
b1010010 aaaab

#857
b1010010 aaaaa
b1110111 aaaab

#870
b1110111 aaaaa
b1010010 aaaab

#883
b1010010 aaaaa
b1110111 aaaab

#896
b1110111 aaaaa
b1010010 aaaab

#909
b1010010 aaaaa
b1110111 aaaab

#918
b100000 aaaaa
b1010010 aaaab

#939
b1110111 aaaaa
b1110010 aaaab

#952
b1010010 aaaaa
b1110111 aaaab

#965
b1110111 aaaaa
b1010010 aaaab

#978
b1010010 aaaaa
b1110111 aaaab

#991
b1110111 aaaaa
b1010010 aaaab

#1004
b1010010 aaaaa
b1110111 aaaab

#1017
b1110111 aaaaa
b1010010 aaaab

#1030
b1010010 aaaaa
b1110111 aaaab

#1043
b1110111 aaaaa
b1010010 aaaab

#1056
b1010010 aaaaa
b1110111 aaaab

#1069
b1110111 aaaaa
b1010010 aaaab

#1082
b1010010 aaaaa
b1110111 aaaab

#1091
b100000 aaaaa
b1010010 aaaab

#1112
b1110111 aaaaa
b1110010 aaaab

#1125
b1010010 aaaaa
b1110111 aaaab

#1138
b1110111 aaaaa
b1010010 aaaab

#1151
b1010010 aaaaa
b1110111 aaaab

#1164
b1110111 aaaaa
b1010010 aaaab

#1177
b1010010 aaaaa
b1110111 aaaab

#1190
b1110111 aaaaa
b1010010 aaaab

#1203
b1010010 aaaaa
b1110111 aaaab

#1216
b1110111 aaaaa
b1010010 aaaab

#1229
b1010010 aaaaa
b1110111 aaaab

#1242
b1110111 aaaaa
b1010010 aaaab

#1255
b1010010 aaaaa
b1110111 aaaab

#1264
b100000 aaaaa
b1010010 aaaab

#1285
b1110111 aaaaa
b1110010 aaaab

#1298
b1010010 aaaaa
b1110111 aaaab

#1311
b1110111 aaaaa
b1010010 aaaab

#1324
b1010010 aaaaa
b1110111 aaaab

#1337
b1110111 aaaaa
b1010010 aaaab

#1350
b1010010 aaaaa
b1110111 aaaab

#1363
b1110111 aaaaa
b1010010 aaaab

#1376
b1010010 aaaaa
b1110111 aaaab

#1389
b1110111 aaaaa
b1010010 aaaab

#1402
b1010010 aaaaa
b1110111 aaaab

#1415
b1110111 aaaaa
b1010010 aaaab

#1428
b1010010 aaaaa
b1110111 aaaab

#1437
b100000 aaaaa
b1010010 aaaab

#1458
b1110111 aaaaa
b1110010 aaaab

#1471
b1010010 aaaaa
b1110111 aaaab

#1484
b1110111 aaaaa
b1010010 aaaab

#1497
b1010010 aaaaa
b1110111 aaaab

#1510
b1110111 aaaaa
b1010010 aaaab

#1523
b1010010 aaaaa
b1110111 aaaab

#1536
b1110111 aaaaa
b1010010 aaaab

#1549
b1010010 aaaaa
b1110111 aaaab

#1562
b1110111 aaaaa
b1010010 aaaab

#1575
b1010010 aaaaa
b1110111 aaaab

#1588
b1110111 aaaaa
b1010010 aaaab

#1601
b1010010 aaaaa
b1110111 aaaab

#1610
b100000 aaaaa
b1010010 aaaab

#1631
b1110111 aaaaa
b1110010 aaaab

#1644
b1010010 aaaaa
b1110111 aaaab

#1657
b1110111 aaaaa
b1010010 aaaab

#1670
b1010010 aaaaa
b1110111 aaaab

#1683
b1110111 aaaaa
b1010010 aaaab

#1696
b1010010 aaaaa
b1110111 aaaab

#1709
b1110111 aaaaa
b1010010 aaaab

#1722
b1010010 aaaaa
b1110111 aaaab

#1735
b1110111 aaaaa
b1010010 aaaab

#1748
b1010010 aaaaa
b1110111 aaaab

#1761
b1110111 aaaaa
b1010010 aaaab

#1774
b1010010 aaaaa
b1110111 aaaab

#1783
b100000 aaaaa
b1010010 aaaab

#1804
b1110111 aaaaa
b1110010 aaaab

#1817
b1010010 aaaaa
b1110111 aaaab

#1830
b1110111 aaaaa
b1010010 aaaab

#1843
b1010010 aaaaa
b1110111 aaaab

#1856
b1110111 aaaaa
b1010010 aaaab

#1869
b1010010 aaaaa
b1110111 aaaab

#1882
b1110111 aaaaa
b1010010 aaaab

#1895
b1010010 aaaaa
b1110111 aaaab

#1908
b1110111 aaaaa
b1010010 aaaab

#1921
b1010010 aaaaa
b1110111 aaaab

#1934
b1110111 aaaaa
b1010010 aaaab

#1947
b1010010 aaaaa
b1110111 aaaab

#1956
b100000 aaaaa
b1010010 aaaab

#1977
b1110111 aaaaa
b1110010 aaaab

#1990
b1010010 aaaaa
b1110111 aaaab

#2003
b1110111 aaaaa
b1010010 aaaab

#2016
b1010010 aaaaa
b1110111 aaaab

#2029
b1110111 aaaaa
b1010010 aaaab

#2042
b1010010 aaaaa
b1110111 aaaab

#2055
b1110111 aaaaa
b1010010 aaaab

#2068
b1010010 aaaaa
b1110111 aaaab

#2081
b1110111 aaaaa
b1010010 aaaab

#2094
b1010010 aaaaa
b1110111 aaaab

#2107
b1110111 aaaaa
b1010010 aaaab

#2120
b1010010 aaaaa
b1110111 aaaab

#2129
b100000 aaaaa
b1010010 aaaab

#2150
b1110111 aaaaa
b1110010 aaaab

#2163
b1010010 aaaaa
b1110111 aaaab

#2176
b1110111 aaaaa
b1010010 aaaab

#2189
b1010010 aaaaa
b1110111 aaaab

#2202
b1110111 aaaaa
b1010010 aaaab

#2215
b1010010 aaaaa
b1110111 aaaab

#2228
b1110111 aaaaa
b1010010 aaaab

#2241
b1010010 aaaaa
b1110111 aaaab

#2254
b1110111 aaaaa
b1010010 aaaab

#2267
b1010010 aaaaa
b1110111 aaaab

#2280
b1110111 aaaaa
b1010010 aaaab

#2293
b1010010 aaaaa
b1110111 aaaab

#2302
b100000 aaaaa
b1010010 aaaab

#2323
b1110111 aaaaa
b1110010 aaaab

#2336
b1010010 aaaaa
b1110111 aaaab

#2349
b1110111 aaaaa
b1010010 aaaab

#2362
b1010010 aaaaa
b1110111 aaaab

#2375
b1110111 aaaaa
b1010010 aaaab

#2388
b1010010 aaaaa
b1110111 aaaab

#2401
b1110111 aaaaa
b1010010 aaaab

#2414
b1010010 aaaaa
b1110111 aaaab

#2427
b1110111 aaaaa
b1010010 aaaab

#2440
b1010010 aaaaa
b1110111 aaaab

#2453
b1110111 aaaaa
b1010010 aaaab

#2466
b1010010 aaaaa
b1110111 aaaab

#2475
b100000 aaaaa
b1010010 aaaab

#2496
b1110111 aaaaa
b1110010 aaaab

#2509
b1010010 aaaaa
b1110111 aaaab

#2522
b1110111 aaaaa
b1010010 aaaab

#2535
b1010010 aaaaa
b1110111 aaaab

#2548
b1110111 aaaaa
b1010010 aaaab

#2561
b1010010 aaaaa
b1110111 aaaab

#2574
b1110111 aaaaa
b1010010 aaaab

#2587
b1010010 aaaaa
b1110111 aaaab

#2600
b1110111 aaaaa
b1010010 aaaab

#2613
b1010010 aaaaa
b1110111 aaaab

#2626
b1110111 aaaaa
b1010010 aaaab

#2639
b1010010 aaaaa
b1110111 aaaab

#2648
b100000 aaaaa
b1010010 aaaab

#2669
b1110111 aaaaa
b1110010 aaaab

#2682
b1010010 aaaaa
b1110111 aaaab

#2695
b1110111 aaaaa
b1010010 aaaab

#2708
b1010010 aaaaa
b1110111 aaaab

#2721
b1110111 aaaaa
b1010010 aaaab

#2734
b1010010 aaaaa
b1110111 aaaab

#2747
b1110111 aaaaa
b1010010 aaaab

#2760
b1010010 aaaaa
b1110111 aaaab

#2773
b1110111 aaaaa
b1010010 aaaab

#2786
b1010010 aaaaa
b1110111 aaaab

#2799
b1110111 aaaaa
b1010010 aaaab

#2812
b1010010 aaaaa
b1110111 aaaab

#2821
b100000 aaaaa
b1010010 aaaab

#2842
b1110111 aaaaa
b1110010 aaaab

#2855
b1010010 aaaaa
b1110111 aaaab

#2868
b1110111 aaaaa
b1010010 aaaab

#2881
b1010010 aaaaa
b1110111 aaaab

#2894
b1110111 aaaaa
b1010010 aaaab

#2907
b1010010 aaaaa
b1110111 aaaab

#2920
b1110111 aaaaa
b1010010 aaaab

#2933
b1010010 aaaaa
b1110111 aaaab

#2946
b1110111 aaaaa
b1010010 aaaab

#2959
b1010010 aaaaa
b1110111 aaaab

#2972
b1110111 aaaaa
b1010010 aaaab

#2985
b1010010 aaaaa
b1110111 aaaab

#2994
b100000 aaaaa
b1010010 aaaab

#3015
b1110111 aaaaa
b1110010 aaaab

#3028
b1010010 aaaaa
b1110111 aaaab

#3041
b1110111 aaaaa
b1010010 aaaab

#3054
b1010010 aaaaa
b1110111 aaaab

#3067
b1110111 aaaaa
b1010010 aaaab

#3080
b1010010 aaaaa
b1110111 aaaab

#3093
b1110111 aaaaa
b1010010 aaaab

#3106
b1010010 aaaaa
b1110111 aaaab

#3119
b1110111 aaaaa
b1010010 aaaab

#3132
b1010010 aaaaa
b1110111 aaaab

#3145
b1110111 aaaaa
b1010010 aaaab

#3158
b1010010 aaaaa
b1110111 aaaab

#3167
b100000 aaaaa
b1010010 aaaab

#3188
b1110111 aaaaa
b1110010 aaaab

#3201
b1010010 aaaaa
b1110111 aaaab

#3214
b1110111 aaaaa
b1010010 aaaab

#3227
b1010010 aaaaa
b1110111 aaaab

#3240
b1110111 aaaaa
b1010010 aaaab

#3253
b1010010 aaaaa
b1110111 aaaab

#3266
b1110111 aaaaa
b1010010 aaaab

#3279
b1010010 aaaaa
b1110111 aaaab

#3292
b1110111 aaaaa
b1010010 aaaab

#3305
b1010010 aaaaa
b1110111 aaaab

#3318
b1110111 aaaaa
b1010010 aaaab

#3331
b1010010 aaaaa
b1110111 aaaab

#3340
b100000 aaaaa
b1010010 aaaab

#3361
b1110111 aaaaa
b1110010 aaaab

#3374
b1010010 aaaaa
b1110111 aaaab

#3387
b1110111 aaaaa
b1010010 aaaab

#3400
b1010010 aaaaa
b1110111 aaaab

#3413
b1110111 aaaaa
b1010010 aaaab

#3426
b1010010 aaaaa
b1110111 aaaab

#3439
b1110111 aaaaa
b1010010 aaaab

#3452
b1010010 aaaaa
b1110111 aaaab

#3465
b1110111 aaaaa
b1010010 aaaab

#3478
b1010010 aaaaa
b1110111 aaaab

#3491
b1110111 aaaaa
b1010010 aaaab

#3504
b1010010 aaaaa
b1110111 aaaab

#3513
b100000 aaaaa
b1010010 aaaab

#3534
b1110111 aaaaa
b1110010 aaaab

#3547
b1010010 aaaaa
b1110111 aaaab

#3560
b1110111 aaaaa
b1010010 aaaab

#3573
b1010010 aaaaa
b1110111 aaaab

#3586
b1110111 aaaaa
b1010010 aaaab

#3599
b1010010 aaaaa
b1110111 aaaab

#3612
b1110111 aaaaa
b1010010 aaaab

#3625
b1010010 aaaaa
b1110111 aaaab

#3638
b1110111 aaaaa
b1010010 aaaab

#3651
b1010010 aaaaa
b1110111 aaaab

#3664
b1110111 aaaaa
b1010010 aaaab

#3677
b1010010 aaaaa
b1110111 aaaab

#3686
b100000 aaaaa
b1010010 aaaab

#3707
b1110111 aaaaa
b1110010 aaaab

#3720
b1010010 aaaaa
b1110111 aaaab

#3733
b1110111 aaaaa
b1010010 aaaab

#3746
b1010010 aaaaa
b1110111 aaaab

#3759
b1110111 aaaaa
b1010010 aaaab

#3772
b1010010 aaaaa
b1110111 aaaab

#3785
b1110111 aaaaa
b1010010 aaaab

#3798
b1010010 aaaaa
b1110111 aaaab

#3811
b1110111 aaaaa
b1010010 aaaab

#3824
b1010010 aaaaa
b1110111 aaaab

#3837
b1110111 aaaaa
b1010010 aaaab

#3850
b1010010 aaaaa
b1110111 aaaab

#3859
b100000 aaaaa
b1010010 aaaab

#3880
b1110111 aaaaa
b1110010 aaaab

#3893
b1010010 aaaaa
b1110111 aaaab

#3906
b1110111 aaaaa
b1010010 aaaab

#3919
b1010010 aaaaa
b1110111 aaaab

#3932
b1110111 aaaaa
b1010010 aaaab

#3945
b1010010 aaaaa
b1110111 aaaab

#3958
b1110111 aaaaa
b1010010 aaaab

#3971
b1010010 aaaaa
b1110111 aaaab

#3984
b1110111 aaaaa
b1010010 aaaab

#3997
b1010010 aaaaa
b1110111 aaaab

#4010
b1110111 aaaaa
b1010010 aaaab

#4023
b1010010 aaaaa
b1110111 aaaab

#4032
b100000 aaaaa
b1010010 aaaab

#4053
b1110111 aaaaa
b1110010 aaaab

#4066
b1010010 aaaaa
b1110111 aaaab

#4079
b1110111 aaaaa
b1010010 aaaab

#4092
b1010010 aaaaa
b1110111 aaaab

#4105
b1110111 aaaaa
b1010010 aaaab

#4118
b1010010 aaaaa
b1110111 aaaab

#4131
b1110111 aaaaa
b1010010 aaaab

#4144
b1010010 aaaaa
b1110111 aaaab

#4157
b1110111 aaaaa
b1010010 aaaab

#4170
b1010010 aaaaa
b1110111 aaaab

#4183
b1110111 aaaaa
b1010010 aaaab

#4196
b1010010 aaaaa
b1110111 aaaab

#4205
b100000 aaaaa
b1010010 aaaab

#4226
b1110111 aaaaa
b1110010 aaaab

#4239
b1010010 aaaaa
b1110111 aaaab

#4252
b1110111 aaaaa
b1010010 aaaab

#4265
b1010010 aaaaa
b1110111 aaaab

#4278
b1110111 aaaaa
b1010010 aaaab

#4291
b1010010 aaaaa
b1110111 aaaab

#4304
b1110111 aaaaa
b1010010 aaaab

#4317
b1010010 aaaaa
b1110111 aaaab

#4330
b1110111 aaaaa
b1010010 aaaab

#4343
b1010010 aaaaa
b1110111 aaaab

#4356
b1110111 aaaaa
b1010010 aaaab

#4369
b1010010 aaaaa
b1110111 aaaab

#4378
b100000 aaaaa
b1010010 aaaab

#4399
b1110111 aaaaa
b1110010 aaaab

#4412
b1010010 aaaaa
b1110111 aaaab

#4425
b1110111 aaaaa
b1010010 aaaab

#4438
b1010010 aaaaa
b1110111 aaaab

#4451
b1110111 aaaaa
b1010010 aaaab

#4464
b1010010 aaaaa
b1110111 aaaab

#4477
b1110111 aaaaa
b1010010 aaaab

#4490
b1010010 aaaaa
b1110111 aaaab

#4503
b1110111 aaaaa
b1010010 aaaab

#4516
b1010010 aaaaa
b1110111 aaaab

#4529
b1110111 aaaaa
b1010010 aaaab

#4542
b1010010 aaaaa
b1110111 aaaab

#4551
b100000 aaaaa
b1010010 aaaab

#4572
b1110111 aaaaa
b1110010 aaaab

#4585
b1010010 aaaaa
b1110111 aaaab

#4598
b1110111 aaaaa
b1010010 aaaab

#4611
b1010010 aaaaa
b1110111 aaaab

#4624
b1110111 aaaaa
b1010010 aaaab

#4637
b1010010 aaaaa
b1110111 aaaab

#4650
b1110111 aaaaa
b1010010 aaaab

#4663
b1010010 aaaaa
b1110111 aaaab

#4676
b1110111 aaaaa
b1010010 aaaab

#4689
b1010010 aaaaa
b1110111 aaaab

#4702
b1110111 aaaaa
b1010010 aaaab

#4715
b1010010 aaaaa
b1110111 aaaab

#4724
b100000 aaaaa
b1010010 aaaab

#4745
b1110111 aaaaa
b1110010 aaaab

#4758
b1010010 aaaaa
b1110111 aaaab

#4771
b1110111 aaaaa
b1010010 aaaab

#4784
b1010010 aaaaa
b1110111 aaaab

#4797
b1110111 aaaaa
b1010010 aaaab

#4810
b1010010 aaaaa
b1110111 aaaab

#4823
b1110111 aaaaa
b1010010 aaaab

#4836
b1010010 aaaaa
b1110111 aaaab

#4849
b1110111 aaaaa
b1010010 aaaab

#4862
b1010010 aaaaa
b1110111 aaaab

#4875
b1110111 aaaaa
b1010010 aaaab

#4888
b1010010 aaaaa
b1110111 aaaab

#4897
b100000 aaaaa
b1010010 aaaab

#4918
b1110111 aaaaa
b1110010 aaaab

#4931
b1010010 aaaaa
b1110111 aaaab

#4944
b1110111 aaaaa
b1010010 aaaab

#4957
b1010010 aaaaa
b1110111 aaaab

#4970
b1110111 aaaaa
b1010010 aaaab

#4983
b1010010 aaaaa
b1110111 aaaab

#4996
b1110111 aaaaa
b1010010 aaaab

#5009
b1010010 aaaaa
b1110111 aaaab

#5022
b1110111 aaaaa
b1010010 aaaab

#5035
b1010010 aaaaa
b1110111 aaaab

#5048
b1110111 aaaaa
b1010010 aaaab

#5061
b1010010 aaaaa
b1110111 aaaab

#5070
b100000 aaaaa
b1010010 aaaab

#5091
b1110111 aaaaa
b1110010 aaaab

#5104
b1010010 aaaaa
b1110111 aaaab

#5117
b1110111 aaaaa
b1010010 aaaab

#5130
b1010010 aaaaa
b1110111 aaaab

#5143
b1110111 aaaaa
b1010010 aaaab

#5156
b1010010 aaaaa
b1110111 aaaab

#5169
b1110111 aaaaa
b1010010 aaaab

#5182
b1010010 aaaaa
b1110111 aaaab

#5195
b1110111 aaaaa
b1010010 aaaab

#5208
b1010010 aaaaa
b1110111 aaaab

#5221
b1110111 aaaaa
b1010010 aaaab

#5234
b1010010 aaaaa
b1110111 aaaab

#5243
b100000 aaaaa
b1010010 aaaab

#5264
b1110111 aaaaa
b1110010 aaaab

#5277
b1010010 aaaaa
b1110111 aaaab

#5290
b1110111 aaaaa
b1010010 aaaab

#5303
b1010010 aaaaa
b1110111 aaaab

#5316
b1110111 aaaaa
b1010010 aaaab

#5329
b1010010 aaaaa
b1110111 aaaab

#5342
b1110111 aaaaa
b1010010 aaaab

#5355
b1010010 aaaaa
b1110111 aaaab

#5368
b1110111 aaaaa
b1010010 aaaab

#5381
b1010010 aaaaa
b1110111 aaaab

#5394
b1110111 aaaaa
b1010010 aaaab

#5407
b1010010 aaaaa
b1110111 aaaab

#5416
b100000 aaaaa
b1010010 aaaab

#5437
b1110111 aaaaa
b1110010 aaaab

#5450
b1010010 aaaaa
b1110111 aaaab

#5463
b1110111 aaaaa
b1010010 aaaab

#5476
b1010010 aaaaa
b1110111 aaaab

#5489
b1110111 aaaaa
b1010010 aaaab

#5502
b1010010 aaaaa
b1110111 aaaab

#5515
b1110111 aaaaa
b1010010 aaaab

#5528
b1010010 aaaaa
b1110111 aaaab

#5541
b1110111 aaaaa
b1010010 aaaab

#5554
b1010010 aaaaa
b1110111 aaaab

#5567
b1110111 aaaaa
b1010010 aaaab

#5580
b1010010 aaaaa
b1110111 aaaab

#5589
b100000 aaaaa
b1010010 aaaab

#5610
b1110111 aaaaa
b1110010 aaaab

#5623
b1010010 aaaaa
b1110111 aaaab

#5636
b1110111 aaaaa
b1010010 aaaab

#5649
b1010010 aaaaa
b1110111 aaaab

#5662
b1110111 aaaaa
b1010010 aaaab

#5675
b1010010 aaaaa
b1110111 aaaab

#5688
b1110111 aaaaa
b1010010 aaaab

#5701
b1010010 aaaaa
b1110111 aaaab

#5714
b1110111 aaaaa
b1010010 aaaab

#5727
b1010010 aaaaa
b1110111 aaaab

#5740
b1110111 aaaaa
b1010010 aaaab

#5753
b1010010 aaaaa
b1110111 aaaab

#5762
b100000 aaaaa
b1010010 aaaab

#5783
b1110111 aaaaa
b1110010 aaaab

#5796
b1010010 aaaaa
b1110111 aaaab

#5809
b1110111 aaaaa
b1010010 aaaab

#5822
b1010010 aaaaa
b1110111 aaaab

#5835
b1110111 aaaaa
b1010010 aaaab

#5848
b1010010 aaaaa
b1110111 aaaab

#5861
b1110111 aaaaa
b1010010 aaaab

#5874
b1010010 aaaaa
b1110111 aaaab

#5887
b1110111 aaaaa
b1010010 aaaab

#5900
b1010010 aaaaa
b1110111 aaaab

#5913
b1110111 aaaaa
b1010010 aaaab

#5926
b1010010 aaaaa
b1110111 aaaab

#5935
b100000 aaaaa
b1010010 aaaab

#5956
b1110111 aaaaa
b1110010 aaaab

#5969
b1010010 aaaaa
b1110111 aaaab

#5982
b1110111 aaaaa
b1010010 aaaab

#5995
b1010010 aaaaa
b1110111 aaaab

#6008
b1110111 aaaaa
b1010010 aaaab

#6021
b1010010 aaaaa
b1110111 aaaab

#6034
b1110111 aaaaa
b1010010 aaaab

#6047
b1010010 aaaaa
b1110111 aaaab

#6060
b1110111 aaaaa
b1010010 aaaab

#6073
b1010010 aaaaa
b1110111 aaaab

#6086
b1110111 aaaaa
b1010010 aaaab

#6099
b1010010 aaaaa
b1110111 aaaab

#6108
b100000 aaaaa
b1010010 aaaab

#6129
b1110111 aaaaa
b1110010 aaaab

#6142
b1010010 aaaaa
b1110111 aaaab

#6155
b1110111 aaaaa
b1010010 aaaab

#6168
b1010010 aaaaa
b1110111 aaaab

#6181
b1110111 aaaaa
b1010010 aaaab

#6194
b1010010 aaaaa
b1110111 aaaab

#6207
b1110111 aaaaa
b1010010 aaaab

#6220
b1010010 aaaaa
b1110111 aaaab

#6233
b1110111 aaaaa
b1010010 aaaab

#6246
b1010010 aaaaa
b1110111 aaaab

#6259
b1110111 aaaaa
b1010010 aaaab

#6272
b1010010 aaaaa
b1110111 aaaab

#6281
b100000 aaaaa
b1010010 aaaab

#6302
b1110111 aaaaa
b1110010 aaaab

#6315
b1010010 aaaaa
b1110111 aaaab

#6328
b1110111 aaaaa
b1010010 aaaab

#6341
b1010010 aaaaa
b1110111 aaaab

#6354
b1110111 aaaaa
b1010010 aaaab

#6367
b1010010 aaaaa
b1110111 aaaab

#6380
b1110111 aaaaa
b1010010 aaaab

#6393
b1010010 aaaaa
b1110111 aaaab

#6406
b1110111 aaaaa
b1010010 aaaab

#6419
b1010010 aaaaa
b1110111 aaaab

#6432
b1110111 aaaaa
b1010010 aaaab

#6445
b1010010 aaaaa
b1110111 aaaab

#6454
b100000 aaaaa
b1010010 aaaab

#6475
b1110111 aaaaa
b1110010 aaaab

#6488
b1010010 aaaaa
b1110111 aaaab

#6501
b1110111 aaaaa
b1010010 aaaab

#6514
b1010010 aaaaa
b1110111 aaaab

#6527
b1110111 aaaaa
b1010010 aaaab

#6540
b1010010 aaaaa
b1110111 aaaab

#6553
b1110111 aaaaa
b1010010 aaaab

#6566
b1010010 aaaaa
b1110111 aaaab

#6579
b1110111 aaaaa
b1010010 aaaab

#6592
b1010010 aaaaa
b1110111 aaaab

#6605
b1110111 aaaaa
b1010010 aaaab

#6618
b1010010 aaaaa
b1110111 aaaab

#6627
b100000 aaaaa
b1010010 aaaab

#6648
b1110111 aaaaa
b1110010 aaaab

#6661
b1010010 aaaaa
b1110111 aaaab

#6674
b1110111 aaaaa
b1010010 aaaab

#6687
b1010010 aaaaa
b1110111 aaaab

#6700
b1110111 aaaaa
b1010010 aaaab

#6713
b1010010 aaaaa
b1110111 aaaab

#6726
b1110111 aaaaa
b1010010 aaaab

#6739
b1010010 aaaaa
b1110111 aaaab

#6752
b1110111 aaaaa
b1010010 aaaab

#6765
b1010010 aaaaa
b1110111 aaaab

#6778
b1110111 aaaaa
b1010010 aaaab

#6791
b1010010 aaaaa
b1110111 aaaab

#6800
b100000 aaaaa
b1010010 aaaab

#6821
b1110111 aaaaa
b1110010 aaaab

#6834
b1010010 aaaaa
b1110111 aaaab

#6847
b1110111 aaaaa
b1010010 aaaab

#6860
b1010010 aaaaa
b1110111 aaaab

#6873
b1110111 aaaaa
b1010010 aaaab

#6886
b1010010 aaaaa
b1110111 aaaab

#6899
b1110111 aaaaa
b1010010 aaaab

#6912
b1010010 aaaaa
b1110111 aaaab

#6925
b1110111 aaaaa
b1010010 aaaab

#6938
b1010010 aaaaa
b1110111 aaaab

#6951
b1110111 aaaaa
b1010010 aaaab

#6964
b1010010 aaaaa
b1110111 aaaab

#6973
b100000 aaaaa
b1010010 aaaab

#6994
b1110111 aaaaa
b1110010 aaaab

#7007
b1010010 aaaaa
b1110111 aaaab

#7020
b1110111 aaaaa
b1010010 aaaab

#7033
b1010010 aaaaa
b1110111 aaaab

#7046
b1110111 aaaaa
b1010010 aaaab

#7059
b1010010 aaaaa
b1110111 aaaab

#7072
b1110111 aaaaa
b1010010 aaaab

#7085
b1010010 aaaaa
b1110111 aaaab

#7098
b1110111 aaaaa
b1010010 aaaab

#7111
b1010010 aaaaa
b1110111 aaaab

#7124
b1110111 aaaaa
b1010010 aaaab

#7137
b1010010 aaaaa
b1110111 aaaab

#7146
b100000 aaaaa
b1010010 aaaab

#7167
b1110111 aaaaa
b1110010 aaaab

#7180
b1010010 aaaaa
b1110111 aaaab

#7193
b1110111 aaaaa
b1010010 aaaab

#7206
b1010010 aaaaa
b1110111 aaaab

#7219
b1110111 aaaaa
b1010010 aaaab

#7232
b1010010 aaaaa
b1110111 aaaab

#7245
b1110111 aaaaa
b1010010 aaaab

#7258
b1010010 aaaaa
b1110111 aaaab

#7271
b1110111 aaaaa
b1010010 aaaab

#7284
b1010010 aaaaa
b1110111 aaaab

#7297
b1110111 aaaaa
b1010010 aaaab

#7310
b1010010 aaaaa
b1110111 aaaab

#7319
b100000 aaaaa
b1010010 aaaab

#7340
b1110111 aaaaa
b1110010 aaaab

#7353
b1010010 aaaaa
b1110111 aaaab

#7366
b1110111 aaaaa
b1010010 aaaab

#7379
b1010010 aaaaa
b1110111 aaaab

#7392
b1110111 aaaaa
b1010010 aaaab

#7405
b1010010 aaaaa
b1110111 aaaab

#7418
b1110111 aaaaa
b1010010 aaaab

#7431
b1010010 aaaaa
b1110111 aaaab

#7444
b1110111 aaaaa
b1010010 aaaab

#7457
b1010010 aaaaa
b1110111 aaaab

#7470
b1110111 aaaaa
b1010010 aaaab

#7483
b1010010 aaaaa
b1110111 aaaab

#7492
b100000 aaaaa
b1010010 aaaab

#7513
b1110111 aaaaa
b1110010 aaaab

#7526
b1010010 aaaaa
b1110111 aaaab

#7539
b1110111 aaaaa
b1010010 aaaab

#7552
b1010010 aaaaa
b1110111 aaaab

#7565
b1110111 aaaaa
b1010010 aaaab

#7578
b1010010 aaaaa
b1110111 aaaab

#7591
b1110111 aaaaa
b1010010 aaaab

#7604
b1010010 aaaaa
b1110111 aaaab

#7617
b1110111 aaaaa
b1010010 aaaab

#7630
b1010010 aaaaa
b1110111 aaaab

#7643
b1110111 aaaaa
b1010010 aaaab

#7656
b1010010 aaaaa
b1110111 aaaab

#7665
b100000 aaaaa
b1010010 aaaab

#7686
b1110111 aaaaa
b1110010 aaaab

#7699
b1010010 aaaaa
b1110111 aaaab

#7712
b1110111 aaaaa
b1010010 aaaab

#7725
b1010010 aaaaa
b1110111 aaaab

#7738
b1110111 aaaaa
b1010010 aaaab

#7751
b1010010 aaaaa
b1110111 aaaab

#7764
b1110111 aaaaa
b1010010 aaaab

#7777
b1010010 aaaaa
b1110111 aaaab

#7790
b1110111 aaaaa
b1010010 aaaab

#7803
b1010010 aaaaa
b1110111 aaaab

#7816
b1110111 aaaaa
b1010010 aaaab

#7829
b1010010 aaaaa
b1110111 aaaab

#7838
b100000 aaaaa
b1010010 aaaab

#7859
b1110111 aaaaa
b1110010 aaaab

#7872
b1010010 aaaaa
b1110111 aaaab

#7885
b1110111 aaaaa
b1010010 aaaab

#7898
b1010010 aaaaa
b1110111 aaaab

#7911
b1110111 aaaaa
b1010010 aaaab

#7924
b1010010 aaaaa
b1110111 aaaab

#7937
b1110111 aaaaa
b1010010 aaaab

#7950
b1010010 aaaaa
b1110111 aaaab

#7963
b1110111 aaaaa
b1010010 aaaab

#7976
b1010010 aaaaa
b1110111 aaaab

#7989
b1110111 aaaaa
b1010010 aaaab

#8002
b1010010 aaaaa
b1110111 aaaab

#8011
b100000 aaaaa
b1010010 aaaab

#8032
b1110111 aaaaa
b1110010 aaaab

#8045
b1010010 aaaaa
b1110111 aaaab

#8058
b1110111 aaaaa
b1010010 aaaab

#8071
b1010010 aaaaa
b1110111 aaaab

#8084
b1110111 aaaaa
b1010010 aaaab

#8097
b1010010 aaaaa
b1110111 aaaab

#8110
b1110111 aaaaa
b1010010 aaaab

