src/test-src-snk-plain/vpc/SP-latency-CPU-golden.vcd
$date
     Jun 04, 2018       15:41:20
$end

$version
 SystemC 2.3.1-Accellera --- May  7 2018 11:30:25
$end

$timescale
     1 ns
$end

$scope module SystemC $end
$var wire    8  aaaaa  top.src [7:0]  $end
$var wire    8  aaaab  top.snk [7:0]  $end
$upscope $end
$enddefinitions  $end

$comment
All initial values are dumped below at time 0 sec = 0 timescale units.
$end

$dumpvars
b1010010 aaaaa
b100000 aaaab
$end

#7500000
b1110010 aaaaa

#10000000
b1110111 aaaaa
b1010010 aaaab

#16500000
b1010010 aaaaa
b100000 aaaab

#21500000
b1110010 aaaaa

#24000000
b1110111 aaaaa
b1010010 aaaab

#30500000
b1010010 aaaaa
b100000 aaaab

#35500000
b1110010 aaaaa

#38000000
b1110111 aaaaa
b1010010 aaaab

#44500000
b1010010 aaaaa
b100000 aaaab

#49500000
b1110010 aaaaa

#52000000
b1110111 aaaaa
b1010010 aaaab

#58500000
b1010010 aaaaa
b100000 aaaab

#63500000
b1110010 aaaaa

#66000000
b1110111 aaaaa
b1010010 aaaab

#72500000
b1010010 aaaaa
b100000 aaaab

#77500000
b1110010 aaaaa

#80000000
b1110111 aaaaa
b1010010 aaaab

#86500000
b1010010 aaaaa
b100000 aaaab

#91500000
b1110010 aaaaa

#94000000
b1110111 aaaaa
b1010010 aaaab

#100500000
b1010010 aaaaa
b100000 aaaab

#105500000
b1110010 aaaaa

#108000000
b1110111 aaaaa
b1010010 aaaab

#114500000
b1010010 aaaaa
b100000 aaaab

#119500000
b1110010 aaaaa

#122000000
b1110111 aaaaa
b1010010 aaaab

#128500000
b1010010 aaaaa
b100000 aaaab

#133500000
b1110010 aaaaa

#136000000
b1110111 aaaaa
b1010010 aaaab

#142500000
b1010010 aaaaa
b100000 aaaab

#147500000
b1110010 aaaaa

#150000000
b1110111 aaaaa
b1010010 aaaab

#156500000
b1010010 aaaaa
b100000 aaaab

#161500000
b1110010 aaaaa

#164000000
b1110111 aaaaa
b1010010 aaaab

#170500000
b1010010 aaaaa
b100000 aaaab

#175500000
b1110010 aaaaa

#178000000
b1110111 aaaaa
b1010010 aaaab

#184500000
b1010010 aaaaa
b100000 aaaab

#189500000
b1110010 aaaaa

#192000000
b1110111 aaaaa
b1010010 aaaab

#198500000
b1010010 aaaaa
b100000 aaaab

#203500000
b1110010 aaaaa

#206000000
b1110111 aaaaa
b1010010 aaaab

#212500000
b1010010 aaaaa
b100000 aaaab

#217500000
b1110010 aaaaa

#220000000
b1110111 aaaaa
b1010010 aaaab

#226500000
b1010010 aaaaa
b100000 aaaab

#231500000
b1110010 aaaaa

#234000000
b1110111 aaaaa
b1010010 aaaab

#240500000
b1010010 aaaaa
b100000 aaaab

#245500000
b1110010 aaaaa

#248000000
b1110111 aaaaa
b1010010 aaaab

#254500000
b1010010 aaaaa
b100000 aaaab

#259500000
b1110010 aaaaa

#262000000
b1110111 aaaaa
b1010010 aaaab

#268500000
b1010010 aaaaa
b100000 aaaab

#273500000
b1110010 aaaaa

#276000000
b1110111 aaaaa
b1010010 aaaab

#282500000
b1010010 aaaaa
b100000 aaaab

#287500000
b1110010 aaaaa

#290000000
b1110111 aaaaa
b1010010 aaaab

#296500000
b1010010 aaaaa
b100000 aaaab

#301500000
b1110010 aaaaa

#304000000
b1110111 aaaaa
b1010010 aaaab

#310500000
b1010010 aaaaa
b100000 aaaab

#315500000
b1110010 aaaaa

#318000000
b1110111 aaaaa
b1010010 aaaab

#324500000
b1010010 aaaaa
b100000 aaaab

#329500000
b1110010 aaaaa

#332000000
b1110111 aaaaa
b1010010 aaaab

#338500000
b1010010 aaaaa
b100000 aaaab

#343500000
b1110010 aaaaa

#346000000
b1110111 aaaaa
b1010010 aaaab

#352500000
b1010010 aaaaa
b100000 aaaab

#357500000
b1110010 aaaaa

#360000000
b1110111 aaaaa
b1010010 aaaab

#366500000
b1010010 aaaaa
b100000 aaaab

#371500000
b1110010 aaaaa

#374000000
b1110111 aaaaa
b1010010 aaaab

#380500000
b1010010 aaaaa
b100000 aaaab

#385500000
b1110010 aaaaa

#388000000
b1110111 aaaaa
b1010010 aaaab

#394500000
b1010010 aaaaa
b100000 aaaab

#399500000
b1110010 aaaaa

#402000000
b1110111 aaaaa
b1010010 aaaab

#408500000
b1010010 aaaaa
b100000 aaaab

#413500000
b1110010 aaaaa

#416000000
b1110111 aaaaa
b1010010 aaaab

#422500000
b1010010 aaaaa
b100000 aaaab

#427500000
b1110010 aaaaa

#430000000
b1110111 aaaaa
b1010010 aaaab

#436500000
b1010010 aaaaa
b100000 aaaab

#441500000
b1110010 aaaaa

#444000000
b1110111 aaaaa
b1010010 aaaab

#450500000
b1010010 aaaaa
b100000 aaaab

#455500000
b1110010 aaaaa

#458000000
b1110111 aaaaa
b1010010 aaaab

#464500000
b1010010 aaaaa
b100000 aaaab

#469500000
b1110010 aaaaa

#472000000
b1110111 aaaaa
b1010010 aaaab

#478500000
b1010010 aaaaa
b100000 aaaab

#483500000
b1110010 aaaaa

#486000000
b1110111 aaaaa
b1010010 aaaab

#492500000
b1010010 aaaaa
b100000 aaaab

#497500000
b1110010 aaaaa

#500000000
b1110111 aaaaa
b1010010 aaaab

#506500000
b1010010 aaaaa
b100000 aaaab

#511500000
b1110010 aaaaa

#514000000
b1110111 aaaaa
b1010010 aaaab

#520500000
b1010010 aaaaa
b100000 aaaab

#525500000
b1110010 aaaaa

#528000000
b1110111 aaaaa
b1010010 aaaab

#534500000
b1010010 aaaaa
b100000 aaaab

#539500000
b1110010 aaaaa

#542000000
b1110111 aaaaa
b1010010 aaaab

#548500000
b1010010 aaaaa
b100000 aaaab

#553500000
b1110010 aaaaa

#556000000
b1110111 aaaaa
b1010010 aaaab

#562500000
b1010010 aaaaa
b100000 aaaab

#567500000
b1110010 aaaaa

#570000000
b1110111 aaaaa
b1010010 aaaab

#576500000
b1010010 aaaaa
b100000 aaaab

#581500000
b1110010 aaaaa

#584000000
b1110111 aaaaa
b1010010 aaaab

#590500000
b1010010 aaaaa
b100000 aaaab

#595500000
b1110010 aaaaa

#598000000
b1110111 aaaaa
b1010010 aaaab

#604500000
b1010010 aaaaa
b100000 aaaab

#609500000
b1110010 aaaaa

#612000000
b1110111 aaaaa
b1010010 aaaab

#618500000
b1010010 aaaaa
b100000 aaaab

#623500000
b1110010 aaaaa

#626000000
b1110111 aaaaa
b1010010 aaaab

#632500000
b1010010 aaaaa
b100000 aaaab

#637500000
b1110010 aaaaa

#640000000
b1110111 aaaaa
b1010010 aaaab

#646500000
b1010010 aaaaa
b100000 aaaab

#651500000
b1110010 aaaaa

#654000000
b1110111 aaaaa
b1010010 aaaab

#660500000
b1010010 aaaaa
b100000 aaaab

#665500000
b1110010 aaaaa

#668000000
b1110111 aaaaa
b1010010 aaaab

#674500000
b1010010 aaaaa
b100000 aaaab

#679500000
b1110010 aaaaa

#682000000
b1110111 aaaaa
b1010010 aaaab

#688500000
b1010010 aaaaa
b100000 aaaab

#693500000
b1110010 aaaaa

#696000000
b1110111 aaaaa
b1010010 aaaab

#702500000
b1010010 aaaaa
b100000 aaaab

#707500000
b1110010 aaaaa

#710000000
b1110111 aaaaa
b1010010 aaaab

#716500000
b1010010 aaaaa
b100000 aaaab

#721500000
b1110010 aaaaa

#724000000
b1110111 aaaaa
b1010010 aaaab

#730500000
b1010010 aaaaa
b100000 aaaab

#735500000
b1110010 aaaaa

#738000000
b1110111 aaaaa
b1010010 aaaab

#744500000
b1010010 aaaaa
b100000 aaaab

#749500000
b1110010 aaaaa

#752000000
b1110111 aaaaa
b1010010 aaaab

#758500000
b1010010 aaaaa
b100000 aaaab

#763500000
b1110010 aaaaa

#766000000
b1110111 aaaaa
b1010010 aaaab

#772500000
b1010010 aaaaa
b100000 aaaab

#777500000
b1110010 aaaaa

#780000000
b1110111 aaaaa
b1010010 aaaab

#786500000
b1010010 aaaaa
b100000 aaaab

#791500000
b1110010 aaaaa

#794000000
b1110111 aaaaa
b1010010 aaaab

#800500000
b1010010 aaaaa
b100000 aaaab

#805500000
b1110010 aaaaa

#808000000
b1110111 aaaaa
b1010010 aaaab

#814500000
b1010010 aaaaa
b100000 aaaab

#819500000
b1110010 aaaaa

#822000000
b1110111 aaaaa
b1010010 aaaab

#828500000
b1010010 aaaaa
b100000 aaaab

#833500000
b1110010 aaaaa

#836000000
b1110111 aaaaa
b1010010 aaaab

#842500000
b1010010 aaaaa
b100000 aaaab

#847500000
b1110010 aaaaa

#850000000
b1110111 aaaaa
b1010010 aaaab

#856500000
b1010010 aaaaa
b100000 aaaab

#861500000
b1110010 aaaaa

#864000000
b1110111 aaaaa
b1010010 aaaab

#870500000
b1010010 aaaaa
b100000 aaaab

#875500000
b1110010 aaaaa

#878000000
b1110111 aaaaa
b1010010 aaaab

#884500000
b1010010 aaaaa
b100000 aaaab

#889500000
b1110010 aaaaa

#892000000
b1110111 aaaaa
b1010010 aaaab

#898500000
b1010010 aaaaa
b100000 aaaab

#903500000
b1110010 aaaaa

#906000000
b1110111 aaaaa
b1010010 aaaab

#912500000
b1010010 aaaaa
b100000 aaaab

#917500000
b1110010 aaaaa

#920000000
b1110111 aaaaa
b1010010 aaaab

#926500000
b1010010 aaaaa
b100000 aaaab

#931500000
b1110010 aaaaa

#934000000
b1110111 aaaaa
b1010010 aaaab

#940500000
b1010010 aaaaa
b100000 aaaab

#945500000
b1110010 aaaaa

#948000000
b1110111 aaaaa
b1010010 aaaab

#954500000
b1010010 aaaaa
b100000 aaaab

#959500000
b1110010 aaaaa

#962000000
b1110111 aaaaa
b1010010 aaaab

#968500000
b1010010 aaaaa
b100000 aaaab

#973500000
b1110010 aaaaa

#976000000
b1110111 aaaaa
b1010010 aaaab

#982500000
b1010010 aaaaa
b100000 aaaab

#987500000
b1110010 aaaaa

#990000000
b1110111 aaaaa
b1010010 aaaab

#996500000
b1010010 aaaaa
b100000 aaaab

#1001500000
b1110010 aaaaa

#1004000000
b1110111 aaaaa
b1010010 aaaab

#1010500000
b1010010 aaaaa
b100000 aaaab

#1015500000
b1110010 aaaaa

#1018000000
b1110111 aaaaa
b1010010 aaaab

#1024500000
b1010010 aaaaa
b100000 aaaab

#1029500000
b1110010 aaaaa

#1032000000
b1110111 aaaaa
b1010010 aaaab

#1038500000
b1010010 aaaaa
b100000 aaaab

#1043500000
b1110010 aaaaa

#1046000000
b1110111 aaaaa
b1010010 aaaab

#1052500000
b1010010 aaaaa
b100000 aaaab

#1057500000
b1110010 aaaaa

#1060000000
b1110111 aaaaa
b1010010 aaaab

#1066500000
b1010010 aaaaa
b100000 aaaab

#1071500000
b1110010 aaaaa

#1074000000
b1110111 aaaaa
b1010010 aaaab

#1080500000
b1010010 aaaaa
b100000 aaaab

#1085500000
b1110010 aaaaa

#1088000000
b1110111 aaaaa
b1010010 aaaab

#1094500000
b1010010 aaaaa
b100000 aaaab

#1099500000
b1110010 aaaaa

#1102000000
b1110111 aaaaa
b1010010 aaaab

#1108500000
b1010010 aaaaa
b100000 aaaab

#1113500000
b1110010 aaaaa

#1116000000
b1110111 aaaaa
b1010010 aaaab

#1122500000
b1010010 aaaaa
b100000 aaaab

#1127500000
b1110010 aaaaa

#1130000000
b1110111 aaaaa
b1010010 aaaab

#1136500000
b1010010 aaaaa
b100000 aaaab

#1141500000
b1110010 aaaaa

#1144000000
b1110111 aaaaa
b1010010 aaaab

#1150500000
b1010010 aaaaa
b100000 aaaab

#1155500000
b1110010 aaaaa

#1158000000
b1110111 aaaaa
b1010010 aaaab

#1164500000
b1010010 aaaaa
b100000 aaaab

#1169500000
b1110010 aaaaa

#1172000000
b1110111 aaaaa
b1010010 aaaab

#1178500000
b1010010 aaaaa
b100000 aaaab

#1183500000
b1110010 aaaaa

#1186000000
b1110111 aaaaa
b1010010 aaaab

#1192500000
b1010010 aaaaa
b100000 aaaab

#1197500000
b1110010 aaaaa

#1200000000
b1110111 aaaaa
b1010010 aaaab

#1206500000
b1010010 aaaaa
b100000 aaaab

#1211500000
b1110010 aaaaa

#1214000000
b1110111 aaaaa
b1010010 aaaab

#1220500000
b1010010 aaaaa
b100000 aaaab

#1225500000
b1110010 aaaaa

#1228000000
b1110111 aaaaa
b1010010 aaaab

#1234500000
b1010010 aaaaa
b100000 aaaab

#1239500000
b1110010 aaaaa

#1242000000
b1110111 aaaaa
b1010010 aaaab

#1248500000
b1010010 aaaaa
b100000 aaaab

#1253500000
b1110010 aaaaa

#1256000000
b1110111 aaaaa
b1010010 aaaab

#1262500000
b1010010 aaaaa
b100000 aaaab

#1267500000
b1110010 aaaaa

#1270000000
b1110111 aaaaa
b1010010 aaaab

#1276500000
b1010010 aaaaa
b100000 aaaab

#1281500000
b1110010 aaaaa

#1284000000
b1110111 aaaaa
b1010010 aaaab

#1290500000
b1010010 aaaaa
b100000 aaaab

#1295500000
b1110010 aaaaa

#1298000000
b1110111 aaaaa
b1010010 aaaab

#1304500000
b1010010 aaaaa
b100000 aaaab

#1309500000
b1110010 aaaaa

#1312000000
b1110111 aaaaa
b1010010 aaaab

#1318500000
b1010010 aaaaa
b100000 aaaab

#1323500000
b1110010 aaaaa

#1326000000
b1110111 aaaaa
b1010010 aaaab

#1332500000
b1010010 aaaaa
b100000 aaaab

#1337500000
b1110010 aaaaa

#1340000000
b1110111 aaaaa
b1010010 aaaab

#1346500000
b1010010 aaaaa
b100000 aaaab

#1351500000
b1110010 aaaaa

#1354000000
b1110111 aaaaa
b1010010 aaaab

#1360500000
b1010010 aaaaa
b100000 aaaab

#1365500000
b1110010 aaaaa

#1368000000
b1110111 aaaaa
b1010010 aaaab

#1374500000
b1010010 aaaaa
b100000 aaaab

#1379500000
b1110010 aaaaa

#1382000000
b1110111 aaaaa
b1010010 aaaab

#1388500000
b1010010 aaaaa
b100000 aaaab

#1393500000
b100000 aaaaa

#1396000000
b1010010 aaaab

#1402500000
b100000 aaaab

