vpc/automotive-energy/testlogs/FCFS.vpc.xml/Bus.vcd
$date
     Sep 01, 2011       13:20:58
$end

$version
              SystemC 2.2.0 --- Aug 31 2011 16:07:50
$end

$timescale
     1 ns
$end

$scope module SystemC $end
$var wire    8  aaa  msg_top.src_2_queue [7:0]  $end
$var wire    8  aab  msg_queue_2_top.snk [7:0]  $end
$upscope $end
$enddefinitions  $end

$comment
All initial values are dumped below at time 0 sec = 0 timescale units.
$end

$dumpvars
b100000 aaa
b100000 aab
$end

#30
b1010010 aaa

#40
b100000 aaa

#60
b1010010 aaa

#70
b100000 aaa

#90
b1010010 aaa
b1110111 aab

#100
b100000 aaa
b1010010 aab

#120
b1110111 aaa

#150
b1010111 aaa

#180
b1110111 aaa
b100000 aab

#190
b1010010 aaa

#200
b1110010 aaa

#210
b100000 aaa

#230
b1010010 aaa

#240
b100000 aaa

#270
b1010010 aaa

#280
b100000 aaa

#290
b1010010 aab

#300
b1110111 aaa

#330
b1010111 aaa

#360
b1110111 aaa

#370
b1010010 aaa
b100000 aab

#380
b1110010 aaa

#390
b1010010 aaa

#400
b100000 aaa

#430
b1010010 aaa

#440
b100000 aaa

#460
b1010010 aab

#540
b100000 aab

#600
b1010010 aaa
b1110111 aab

#610
b100000 aaa
b1010010 aab

#690
b100000 aab

#750
b1010010 aaa
b1110111 aab

#760
b100000 aaa
b1010010 aab

#840
b100000 aab

#900
b1010010 aaa
b1110111 aab

#910
b100000 aaa
b1010010 aab

#990
b100000 aab

#1050
b1010010 aaa
b1110111 aab

#1060
b100000 aaa
b1010010 aab

#1140
b100000 aab

#1200
b1010010 aaa
b1110111 aab

#1210
b100000 aaa
b1010010 aab

#1290
b100000 aab

#1350
b1010010 aaa
b1110111 aab

#1360
b100000 aaa
b1010010 aab

#1440
b100000 aab

#1500
b1010010 aaa
b1110111 aab

#1510
b100000 aaa
b1010010 aab

#1590
b100000 aab

#1650
b1010010 aaa
b1110111 aab

#1660
b100000 aaa
b1010010 aab

#1740
b100000 aab

#1800
b1010010 aaa
b1110111 aab

#1810
b100000 aaa
b1010010 aab

#1890
b100000 aab

#1950
b1010010 aaa
b1110111 aab

#1960
b100000 aaa
b1010010 aab

#2040
b100000 aab

#2100
b1010010 aaa
b1110111 aab

#2110
b100000 aaa
b1010010 aab

#2190
b100000 aab

#2250
b1010010 aaa
b1110111 aab

#2260
b100000 aaa
b1010010 aab

#2340
b100000 aab

#2400
b1010010 aaa
b1110111 aab

#2410
b100000 aaa
b1010010 aab

#2490
b100000 aab

#2550
b1010010 aaa
b1110111 aab

#2560
b100000 aaa
b1010010 aab

#2640
b100000 aab

#2700
b1010010 aaa
b1110111 aab

#2710
b100000 aaa
b1010010 aab

#2790
b100000 aab

#2850
b1010010 aaa
b1110111 aab

#2860
b100000 aaa
b1010010 aab

#2940
b100000 aab

#3000
b1010010 aaa
b1110111 aab

#3010
b100000 aaa
b1010010 aab

#3090
b100000 aab

#3150
b1010010 aaa
b1110111 aab

#3160
b100000 aaa
b1010010 aab

#3240
b100000 aab

#3300
b1010010 aaa
b1110111 aab

#3310
b100000 aaa
b1010010 aab

#3390
b100000 aab

#3450
b1010010 aaa
b1110111 aab

#3460
b100000 aaa
b1010010 aab

#3540
b100000 aab

#3600
b1010010 aaa
b1110111 aab

#3610
b100000 aaa
b1010010 aab

#3690
b100000 aab

#3750
b1010010 aaa
b1110111 aab

#3760
b100000 aaa
b1010010 aab

#3840
b100000 aab

#3900
b1010010 aaa
b1110111 aab

#3910
b100000 aaa
b1010010 aab

#3990
b100000 aab

#4050
b1010010 aaa
b1110111 aab

#4060
b100000 aaa
b1010010 aab

#4140
b100000 aab

#4200
b1010010 aaa
b1110111 aab

#4210
b100000 aaa
b1010010 aab

#4290
b100000 aab

#4350
b1010010 aaa
b1110111 aab

#4360
b100000 aaa
b1010010 aab

#4440
b100000 aab

#4500
b1010010 aaa
b1110111 aab

#4510
b100000 aaa
b1010010 aab

#4590
b100000 aab

#4650
b1010010 aaa
b1110111 aab

#4660
b100000 aaa
b1010010 aab

#4740
b100000 aab

#4800
b1010010 aaa
b1110111 aab

#4810
b100000 aaa
b1010010 aab

#4890
b100000 aab

#4950
b1010010 aaa
b1110111 aab

#4960
b100000 aaa
b1010010 aab

#5040
b100000 aab

#5100
b1010010 aaa
b1110111 aab

#5110
b100000 aaa
b1010010 aab

#5190
b100000 aab

#5250
b1010010 aaa
b1110111 aab

#5260
b100000 aaa
b1010010 aab

#5340
b100000 aab

#5400
b1010010 aaa
b1110111 aab

#5410
b100000 aaa
b1010010 aab

#5490
b100000 aab

#5550
b1010010 aaa
b1110111 aab

#5560
b100000 aaa
b1010010 aab

#5640
b100000 aab

#5700
b1010010 aaa
b1110111 aab

#5710
b100000 aaa
b1010010 aab

#5790
b100000 aab

#5850
b1010010 aaa
b1110111 aab

#5860
b100000 aaa
b1010010 aab

#5940
b100000 aab

#6000
b1010010 aaa
b1110111 aab

#6010
b100000 aaa
b1010010 aab

#6090
b100000 aab

#6150
b1010010 aaa
b1110111 aab

#6160
b100000 aaa
b1010010 aab

#6240
b100000 aab

#6300
b1010010 aaa
b1110111 aab

#6310
b100000 aaa
b1010010 aab

#6390
b100000 aab

#6450
b1010010 aaa
b1110111 aab

#6460
b100000 aaa
b1010010 aab

#6540
b100000 aab

#6600
b1010010 aaa
b1110111 aab

#6610
b100000 aaa
b1010010 aab

#6690
b100000 aab

#6750
b1010010 aaa
b1110111 aab

#6760
b100000 aaa
b1010010 aab

#6840
b100000 aab

#6900
b1010010 aaa
b1110111 aab

#6910
b100000 aaa
b1010010 aab

#6990
b100000 aab

#7050
b1010010 aaa
b1110111 aab

#7060
b100000 aaa
b1010010 aab

#7140
b100000 aab

#7200
b1010010 aaa
b1110111 aab

#7210
b100000 aaa
b1010010 aab

#7290
b100000 aab

#7350
b1010010 aaa
b1110111 aab

#7360
b100000 aaa
b1010010 aab

#7440
b100000 aab

#7500
b1010010 aaa
b1110111 aab

#7510
b100000 aaa
b1010010 aab

#7590
b100000 aab

#7650
b1010010 aaa
b1110111 aab

#7660
b100000 aaa
b1010010 aab

#7740
b100000 aab

#7800
b1010010 aaa
b1110111 aab

#7810
b100000 aaa
b1010010 aab

#7890
b100000 aab

#7950
b1010010 aaa
b1110111 aab

#7960
b100000 aaa
b1010010 aab

#8040
b100000 aab

#8100
b1010010 aaa
b1110111 aab

#8110
b100000 aaa
b1010010 aab

#8190
b100000 aab

#8250
b1010010 aaa
b1110111 aab

#8260
b100000 aaa
b1010010 aab

#8340
b100000 aab

#8400
b1010010 aaa
b1110111 aab

#8410
b100000 aaa
b1010010 aab

#8490
b100000 aab

#8550
b1010010 aaa
b1110111 aab

#8560
b100000 aaa
b1010010 aab

#8640
b100000 aab

#8700
b1010010 aaa
b1110111 aab

#8710
b100000 aaa
b1010010 aab

#8790
b100000 aab

#8850
b1010010 aaa
b1110111 aab

#8860
b100000 aaa
b1010010 aab

#8940
b100000 aab

#9000
b1010010 aaa
b1110111 aab

#9010
b100000 aaa
b1010010 aab

#9090
b100000 aab

#9150
b1010010 aaa
b1110111 aab

#9160
b100000 aaa
b1010010 aab

#9240
b100000 aab

#9300
b1010010 aaa
b1110111 aab

#9310
b100000 aaa
b1010010 aab

#9390
b100000 aab

#9450
b1010010 aaa
b1110111 aab

#9460
b100000 aaa
b1010010 aab

#9540
b100000 aab

#9600
b1010010 aaa
b1110111 aab

#9610
b100000 aaa
b1010010 aab

#9690
b100000 aab

#9750
b1010010 aaa
b1110111 aab

#9760
b100000 aaa
b1010010 aab

#9840
b100000 aab

#9900
b1010010 aaa
b1110111 aab

#9910
b100000 aaa
b1010010 aab

#9990
b100000 aab

#10050
b1010010 aaa
b1110111 aab

#10060
b100000 aaa
b1010010 aab

#10140
b100000 aab

#10200
b1010010 aaa
b1110111 aab

#10210
b100000 aaa
b1010010 aab

#10290
b100000 aab

#10350
b1010010 aaa
b1110111 aab

#10360
b100000 aaa
b1010010 aab

#10440
b100000 aab

#10500
b1010010 aaa
b1110111 aab

#10510
b100000 aaa
b1010010 aab

#10590
b100000 aab

#10650
b1010010 aaa
b1110111 aab

#10660
b100000 aaa
b1010010 aab

#10740
b100000 aab

#10800
b1010010 aaa
b1110111 aab

#10810
b100000 aaa
b1010010 aab

#10890
b100000 aab

#10950
b1010010 aaa
b1110111 aab

#10960
b100000 aaa
b1010010 aab

#11040
b100000 aab

#11100
b1010010 aaa
b1110111 aab

#11110
b100000 aaa
b1010010 aab

#11190
b100000 aab

#11250
b1010010 aaa
b1110111 aab

#11260
b100000 aaa
b1010010 aab

#11340
b100000 aab

#11400
b1010010 aaa
b1110111 aab

#11410
b100000 aaa
b1010010 aab

#11490
b100000 aab

#11550
b1010010 aaa
b1110111 aab

#11560
b100000 aaa
b1010010 aab

#11640
b100000 aab

#11700
b1010010 aaa
b1110111 aab

#11710
b100000 aaa
b1010010 aab

#11790
b100000 aab

#11850
b1010010 aaa
b1110111 aab

#11860
b100000 aaa
b1010010 aab

#11940
b100000 aab

#12000
b1010010 aaa
b1110111 aab

#12010
b100000 aaa
b1010010 aab

#12090
b100000 aab

#12150
b1010010 aaa
b1110111 aab

#12160
b100000 aaa
b1010010 aab

#12240
b100000 aab

#12300
b1010010 aaa
b1110111 aab

#12310
b100000 aaa
b1010010 aab

#12390
b100000 aab

#12450
b1010010 aaa
b1110111 aab

#12460
b100000 aaa
b1010010 aab

#12540
b100000 aab

#12600
b1010010 aaa
b1110111 aab

#12610
b100000 aaa
b1010010 aab

#12690
b100000 aab

#12750
b1010010 aaa
b1110111 aab

#12760
b100000 aaa
b1010010 aab

#12840
b100000 aab

#12900
b1010010 aaa
b1110111 aab

#12910
b100000 aaa
b1010010 aab

#12990
b100000 aab

#13050
b1010010 aaa
b1110111 aab

#13060
b100000 aaa
b1010010 aab

#13140
b100000 aab

#13200
b1010010 aaa
b1110111 aab

#13210
b100000 aaa
b1010010 aab

#13290
b100000 aab

#13350
b1010010 aaa
b1110111 aab

#13360
b100000 aaa
b1010010 aab

#13440
b100000 aab

#13500
b1010010 aaa
b1110111 aab

#13510
b100000 aaa
b1010010 aab

#13590
b100000 aab

#13650
b1010010 aaa
b1110111 aab

#13660
b100000 aaa
b1010010 aab

#13740
b100000 aab

#13800
b1010010 aaa
b1110111 aab

#13810
b100000 aaa
b1010010 aab

#13890
b100000 aab

#13950
b1010010 aaa
b1110111 aab

#13960
b100000 aaa
b1010010 aab

#14040
b100000 aab

#14100
b1010010 aaa
b1110111 aab

#14110
b100000 aaa
b1010010 aab

#14190
b100000 aab

#14250
b1010010 aaa
b1110111 aab

#14260
b100000 aaa
b1010010 aab

#14340
b100000 aab

#14400
b1010010 aaa
b1110111 aab

#14410
b100000 aaa
b1010010 aab

#14490
b100000 aab

#14550
b1010010 aaa
b1110111 aab

#14560
b100000 aaa
b1010010 aab

#14640
b100000 aab

#14700
b1010010 aaa
b1110111 aab

#14710
b100000 aaa
b1010010 aab

#14790
b100000 aab

#14850
b1010010 aaa
b1110111 aab

#14860
b100000 aaa
b1010010 aab

#14940
b100000 aab

#15000
b1010010 aaa
b1110111 aab

#15010
b100000 aaa
b1010010 aab

#15090
b100000 aab

#15150
b1010010 aaa
b1110111 aab

#15160
b100000 aaa
b1010010 aab

#15240
b100000 aab

#15300
b1010010 aaa
b1110111 aab

#15310
b100000 aaa
b1010010 aab

#15390
b100000 aab

#15450
b1010010 aaa
b1110111 aab

#15460
b100000 aaa
b1010010 aab

#15540
b100000 aab

#15600
b1010010 aaa
b1110111 aab

#15610
b100000 aaa
b1010010 aab

#15690
b100000 aab

#15750
b1010010 aaa
b1110111 aab

#15760
b100000 aaa
b1010010 aab

#15840
b100000 aab

#15900
b1010010 aaa
b1110111 aab

#15910
b100000 aaa
b1010010 aab

#15990
b100000 aab

#16050
b1010010 aaa
b1110111 aab

#16060
b100000 aaa
b1010010 aab

#16140
b100000 aab

#16200
b1010010 aaa
b1110111 aab

#16210
b100000 aaa
b1010010 aab

#16290
b100000 aab

#16350
b1010010 aaa
b1110111 aab

#16360
b100000 aaa
b1010010 aab

#16440
b100000 aab

#16500
b1010010 aaa
b1110111 aab

#16510
b100000 aaa
b1010010 aab

#16590
b100000 aab

#16650
b1010010 aaa
b1110111 aab

#16660
b100000 aaa
b1010010 aab

#16740
b100000 aab

#16800
b1010010 aaa
b1110111 aab

#16810
b100000 aaa
b1010010 aab

#16890
b100000 aab

#16950
b1010010 aaa
b1110111 aab

#16960
b100000 aaa
b1010010 aab

#17040
b100000 aab

#17100
b1010010 aaa
b1110111 aab

#17110
b100000 aaa
b1010010 aab

#17190
b100000 aab

#17250
b1010010 aaa
b1110111 aab

#17260
b100000 aaa
b1010010 aab

#17340
b100000 aab

#17400
b1010010 aaa
b1110111 aab

#17410
b100000 aaa
b1010010 aab

#17490
b100000 aab

#17550
b1010010 aaa
b1110111 aab

#17560
b100000 aaa
b1010010 aab

#17640
b100000 aab

#17700
b1010010 aaa
b1110111 aab

#17710
b100000 aaa
b1010010 aab

#17790
b100000 aab

#17850
b1010010 aaa
b1110111 aab

#17860
b100000 aaa
b1010010 aab

#17940
b100000 aab

#18000
b1010010 aaa
b1110111 aab

#18010
b100000 aaa
b1010010 aab

#18090
b100000 aab

#18150
b1010010 aaa
b1110111 aab

#18160
b100000 aaa
b1010010 aab

#18240
b100000 aab

#18300
b1010010 aaa
b1110111 aab

#18310
b100000 aaa
b1010010 aab

#18390
b100000 aab

#18450
b1010010 aaa
b1110111 aab

#18460
b100000 aaa
b1010010 aab

#18540
b100000 aab

#18600
b1010010 aaa
b1110111 aab

#18610
b100000 aaa
b1010010 aab

#18690
b100000 aab

#18750
b1010010 aaa
b1110111 aab

#18760
b100000 aaa
b1010010 aab

#18840
b100000 aab

#18900
b1010010 aaa
b1110111 aab

#18910
b100000 aaa
b1010010 aab

#18990
b100000 aab

#19050
b1010010 aaa
b1110111 aab

#19060
b100000 aaa
b1010010 aab

#19140
b100000 aab

#19200
b1010010 aaa
b1110111 aab

#19210
b100000 aaa
b1010010 aab

#19290
b100000 aab

#19350
b1010010 aaa
b1110111 aab

#19360
b100000 aaa
b1010010 aab

#19440
b100000 aab

#19500
b1010010 aaa
b1110111 aab

#19510
b100000 aaa
b1010010 aab

#19590
b100000 aab

#19650
b1010010 aaa
b1110111 aab

#19660
b100000 aaa
b1010010 aab

#19740
b100000 aab

#19800
b1010010 aaa
b1110111 aab

#19810
b100000 aaa
b1010010 aab

#19890
b100000 aab

#19950
b1010010 aaa
b1110111 aab

#19960
b100000 aaa
b1010010 aab

#20040
b100000 aab

#20100
b1010010 aaa
b1110111 aab

#20110
b100000 aaa
b1010010 aab

#20190
b100000 aab

#20250
b1010010 aaa
b1110111 aab

#20260
b100000 aaa
b1010010 aab

#20340
b100000 aab

#20400
b1010010 aaa
b1110111 aab

#20410
b100000 aaa
b1010010 aab

#20490
b100000 aab

#20550
b1010010 aaa
b1110111 aab

#20560
b100000 aaa
b1010010 aab

#20640
b100000 aab

#20700
b1010010 aaa
b1110111 aab

#20710
b100000 aaa
b1010010 aab

#20790
b100000 aab

#20850
b1010010 aaa
b1110111 aab

#20860
b100000 aaa
b1010010 aab

#20940
b100000 aab

#21000
b1010010 aaa
b1110111 aab

#21010
b100000 aaa
b1010010 aab

#21090
b100000 aab

#21150
b1010010 aaa
b1110111 aab

#21160
b100000 aaa
b1010010 aab

#21240
b100000 aab

#21300
b1010010 aaa
b1110111 aab

#21310
b100000 aaa
b1010010 aab

#21390
b100000 aab

#21450
b1010010 aaa
b1110111 aab

#21460
b100000 aaa
b1010010 aab

#21540
b100000 aab

#21600
b1010010 aaa
b1110111 aab

#21610
b100000 aaa
b1010010 aab

#21690
b100000 aab

#21750
b1010010 aaa
b1110111 aab

#21760
b100000 aaa
b1010010 aab

#21840
b100000 aab

#21900
b1010010 aaa
b1110111 aab

#21910
b100000 aaa
b1010010 aab

#21990
b100000 aab

#22050
b1010010 aaa
b1110111 aab

#22060
b100000 aaa
b1010010 aab

#22140
b100000 aab

#22200
b1010010 aaa
b1110111 aab

#22210
b100000 aaa
b1010010 aab

#22290
b100000 aab

#22350
b1010010 aaa
b1110111 aab

#22360
b100000 aaa
b1010010 aab

#22440
b100000 aab

#22500
b1010010 aaa
b1110111 aab

#22510
b100000 aaa
b1010010 aab

#22590
b100000 aab

#22650
b1010010 aaa
b1110111 aab

#22660
b100000 aaa
b1010010 aab

#22740
b100000 aab

#22800
b1010010 aaa
b1110111 aab

#22810
b100000 aaa
b1010010 aab

#22890
b100000 aab

#22950
b1010010 aaa
b1110111 aab

#22960
b100000 aaa
b1010010 aab

#23040
b100000 aab

#23100
b1010010 aaa
b1110111 aab

#23110
b100000 aaa
b1010010 aab

#23190
b100000 aab

#23250
b1010010 aaa
b1110111 aab

#23260
b100000 aaa
b1010010 aab

#23340
b100000 aab

#23400
b1010010 aaa
b1110111 aab

#23410
b100000 aaa
b1010010 aab

#23490
b100000 aab

#23550
b1010010 aaa
b1110111 aab

#23560
b100000 aaa
b1010010 aab

#23640
b100000 aab

#23700
b1010010 aaa
b1110111 aab

#23710
b100000 aaa
b1010010 aab

#23790
b100000 aab

#23850
b1010010 aaa
b1110111 aab

#23860
b100000 aaa
b1010010 aab

#23940
b100000 aab

#24000
b1010010 aaa
b1110111 aab

#24010
b100000 aaa
b1010010 aab

#24090
b100000 aab

#24150
b1010010 aaa
b1110111 aab

#24160
b100000 aaa
b1010010 aab

#24240
b100000 aab

#24300
b1010010 aaa
b1110111 aab

#24310
b100000 aaa
b1010010 aab

#24390
b100000 aab

#24450
b1010010 aaa
b1110111 aab

#24460
b100000 aaa
b1010010 aab

#24540
b100000 aab

#24600
b1010010 aaa
b1110111 aab

#24610
b100000 aaa
b1010010 aab

#24690
b100000 aab

#24750
b1010010 aaa
b1110111 aab

#24760
b100000 aaa
b1010010 aab

#24840
b100000 aab

#24900
b1010010 aaa
b1110111 aab

#24910
b100000 aaa
b1010010 aab

#24990
b100000 aab

#25050
b1010010 aaa
b1110111 aab

#25060
b100000 aaa
b1010010 aab

#25140
b100000 aab

#25200
b1010010 aaa
b1110111 aab

#25210
b100000 aaa
b1010010 aab

#25290
b100000 aab

#25350
b1010010 aaa
b1110111 aab

#25360
b100000 aaa
b1010010 aab

#25440
b100000 aab

#25500
b1010010 aaa
b1110111 aab

#25510
b100000 aaa
b1010010 aab

#25590
b100000 aab

#25650
b1010010 aaa
b1110111 aab

#25660
b100000 aaa
b1010010 aab

#25740
b100000 aab

#25800
b1010010 aaa
b1110111 aab

#25810
b100000 aaa
b1010010 aab

#25890
b100000 aab

#25950
b1010010 aaa
b1110111 aab

#25960
b100000 aaa
b1010010 aab

#26040
b100000 aab

#26100
b1010010 aaa
b1110111 aab

#26110
b100000 aaa
b1010010 aab

#26190
b100000 aab

#26250
b1010010 aaa
b1110111 aab

#26260
b100000 aaa
b1010010 aab

#26340
b100000 aab

#26400
b1010010 aaa
b1110111 aab

#26410
b100000 aaa
b1010010 aab

#26490
b100000 aab

#26550
b1010010 aaa
b1110111 aab

#26560
b100000 aaa
b1010010 aab

#26640
b100000 aab

#26700
b1010010 aaa
b1110111 aab

#26710
b100000 aaa
b1010010 aab

#26790
b100000 aab

#26850
b1010010 aaa
b1110111 aab

#26860
b100000 aaa
b1010010 aab

#26940
b100000 aab

#27000
b1010010 aaa
b1110111 aab

#27010
b100000 aaa
b1010010 aab

#27090
b100000 aab

#27150
b1010010 aaa
b1110111 aab

#27160
b100000 aaa
b1010010 aab

#27240
b100000 aab

#27300
b1010010 aaa
b1110111 aab

#27310
b100000 aaa
b1010010 aab

#27390
b100000 aab

#27450
b1010010 aaa
b1110111 aab

#27460
b100000 aaa
b1010010 aab

#27540
b100000 aab

#27600
b1010010 aaa
b1110111 aab

#27610
b100000 aaa
b1010010 aab

#27690
b100000 aab

#27750
b1010010 aaa
b1110111 aab

#27760
b100000 aaa
b1010010 aab

#27840
b100000 aab

#27900
b1010010 aaa
b1110111 aab

#27910
b100000 aaa
b1010010 aab

#27990
b100000 aab

#28050
b1010010 aaa
b1110111 aab

#28060
b100000 aaa
b1010010 aab

#28140
b100000 aab

#28200
b1010010 aaa
b1110111 aab

#28210
b100000 aaa
b1010010 aab

#28290
b100000 aab

#28350
b1010010 aaa
b1110111 aab

#28360
b100000 aaa
b1010010 aab

#28440
b100000 aab

#28500
b1010010 aaa
b1110111 aab

#28510
b100000 aaa
b1010010 aab

#28590
b100000 aab

#28650
b1010010 aaa
b1110111 aab

#28660
b100000 aaa
b1010010 aab

#28740
b100000 aab

#28790
b1010010 aab

#28870
b100000 aab

#28920
b1010010 aab

#29000
b100000 aab

#29050
b1010010 aab

#29130
b100000 aab

#29180
b1010010 aab

#29260
b100000 aab

#29310
b1010010 aab

#29390
b100000 aab

#29440
b1010010 aab

#29520
b100000 aab

#29570
b1010010 aab

#29650
b100000 aab

#29700
b1010010 aab

#29780
b100000 aab

#29830
b1010010 aab

#29910
b100000 aab

