testcases/src/test-src-snk-multicast/vpc/SPNOPRE-latency-CPU-golden.vcd
$date
     Jul 18, 2018       19:42:34
$end

$version
 SystemC 2.3.1-Accellera --- May  7 2018 11:30:25
$end

$timescale
     1 ns
$end

$scope module SystemC $end
$var wire    8  aaaaa  top.foo.snk1 [7:0]  $end
$var wire    8  aaaab  top.foo.snk2 [7:0]  $end
$var wire    8  aaaac  top.foo.src [7:0]  $end
$var wire    8  aaaad  top.snk3 [7:0]  $end
$var wire    8  aaaae  top.snk4 [7:0]  $end
$upscope $end
$enddefinitions  $end

$comment
All initial values are dumped below at time 0 sec = 0 timescale units.
$end

$dumpvars
b100000 aaaaa
b100000 aaaab
b1010010 aaaac
b100000 aaaad
b100000 aaaae
$end

#7500000
b100000 aaaac

#10000000
b1110111 aaaaa
b1110111 aaaab
b1010010 aaaad
b1110111 aaaae

#15500000
b1010010 aaaaa
b100000 aaaad

#25500000
b100000 aaaaa
b1010010 aaaab

#38000000
b100000 aaaab
b1010010 aaaae

#63000000
b1010010 aaaac
b100000 aaaae

#70500000
b100000 aaaac

#73000000
b1110111 aaaaa
b1110111 aaaab
b1010010 aaaad
b1110111 aaaae

#78500000
b1010010 aaaaa
b100000 aaaad

#88500000
b100000 aaaaa
b1010010 aaaab

#101000000
b100000 aaaab
b1010010 aaaae

#126000000
b1010010 aaaac
b100000 aaaae

#133500000
b100000 aaaac

#136000000
b1110111 aaaaa
b1110111 aaaab
b1010010 aaaad
b1110111 aaaae

#141500000
b1010010 aaaaa
b100000 aaaad

#151500000
b100000 aaaaa
b1010010 aaaab

#164000000
b100000 aaaab
b1010010 aaaae

#189000000
b1010010 aaaac
b100000 aaaae

#196500000
b100000 aaaac

#199000000
b1110111 aaaaa
b1110111 aaaab
b1010010 aaaad
b1110111 aaaae

#204500000
b1010010 aaaaa
b100000 aaaad

#214500000
b100000 aaaaa
b1010010 aaaab

#227000000
b100000 aaaab
b1010010 aaaae

#252000000
b1010010 aaaac
b100000 aaaae

#259500000
b100000 aaaac

#262000000
b1110111 aaaaa
b1110111 aaaab
b1010010 aaaad
b1110111 aaaae

#267500000
b1010010 aaaaa
b100000 aaaad

#277500000
b100000 aaaaa
b1010010 aaaab

#290000000
b100000 aaaab
b1010010 aaaae

#315000000
b1010010 aaaac
b100000 aaaae

#322500000
b100000 aaaac

#325000000
b1110111 aaaaa
b1110111 aaaab
b1010010 aaaad
b1110111 aaaae

#330500000
b1010010 aaaaa
b100000 aaaad

#340500000
b100000 aaaaa
b1010010 aaaab

#353000000
b100000 aaaab
b1010010 aaaae

#378000000
b1010010 aaaac
b100000 aaaae

#385500000
b100000 aaaac

#388000000
b1110111 aaaaa
b1110111 aaaab
b1010010 aaaad
b1110111 aaaae

#393500000
b1010010 aaaaa
b100000 aaaad

#403500000
b100000 aaaaa
b1010010 aaaab

#416000000
b100000 aaaab
b1010010 aaaae

#441000000
b1010010 aaaac
b100000 aaaae

#448500000
b100000 aaaac

#451000000
b1110111 aaaaa
b1110111 aaaab
b1010010 aaaad
b1110111 aaaae

#456500000
b1010010 aaaaa
b100000 aaaad

#466500000
b100000 aaaaa
b1010010 aaaab

#479000000
b100000 aaaab
b1010010 aaaae

#504000000
b1010010 aaaac
b100000 aaaae

#511500000
b100000 aaaac

#514000000
b1110111 aaaaa
b1110111 aaaab
b1010010 aaaad
b1110111 aaaae

#519500000
b1010010 aaaaa
b100000 aaaad

#529500000
b100000 aaaaa
b1010010 aaaab

#542000000
b100000 aaaab
b1010010 aaaae

#567000000
b1010010 aaaac
b100000 aaaae

#574500000
b100000 aaaac

#577000000
b1110111 aaaaa
b1110111 aaaab
b1010010 aaaad
b1110111 aaaae

#582500000
b1010010 aaaaa
b100000 aaaad

#592500000
b100000 aaaaa
b1010010 aaaab

#605000000
b100000 aaaab
b1010010 aaaae

#630000000
b1010010 aaaac
b100000 aaaae

#637500000
b100000 aaaac

#640000000
b1110111 aaaaa
b1110111 aaaab
b1010010 aaaad
b1110111 aaaae

#645500000
b1010010 aaaaa
b100000 aaaad

#655500000
b100000 aaaaa
b1010010 aaaab

#668000000
b100000 aaaab
b1010010 aaaae

#693000000
b1010010 aaaac
b100000 aaaae

#700500000
b100000 aaaac

#703000000
b1110111 aaaaa
b1110111 aaaab
b1010010 aaaad
b1110111 aaaae

#708500000
b1010010 aaaaa
b100000 aaaad

#718500000
b100000 aaaaa
b1010010 aaaab

#731000000
b100000 aaaab
b1010010 aaaae

#756000000
b1010010 aaaac
b100000 aaaae

#763500000
b100000 aaaac

#766000000
b1110111 aaaaa
b1110111 aaaab
b1010010 aaaad
b1110111 aaaae

#771500000
b1010010 aaaaa
b100000 aaaad

#781500000
b100000 aaaaa
b1010010 aaaab

#794000000
b100000 aaaab
b1010010 aaaae

#819000000
b1010010 aaaac
b100000 aaaae

#826500000
b100000 aaaac

#829000000
b1110111 aaaaa
b1110111 aaaab
b1010010 aaaad
b1110111 aaaae

#834500000
b1010010 aaaaa
b100000 aaaad

#844500000
b100000 aaaaa
b1010010 aaaab

#857000000
b100000 aaaab
b1010010 aaaae

#882000000
b1010010 aaaac
b100000 aaaae

#889500000
b100000 aaaac

#892000000
b1110111 aaaaa
b1110111 aaaab
b1010010 aaaad
b1110111 aaaae

#897500000
b1010010 aaaaa
b100000 aaaad

#907500000
b100000 aaaaa
b1010010 aaaab

#920000000
b100000 aaaab
b1010010 aaaae

#945000000
b1010010 aaaac
b100000 aaaae

#952500000
b100000 aaaac

#955000000
b1110111 aaaaa
b1110111 aaaab
b1010010 aaaad
b1110111 aaaae

#960500000
b1010010 aaaaa
b100000 aaaad

#970500000
b100000 aaaaa
b1010010 aaaab

#983000000
b100000 aaaab
b1010010 aaaae

#1008000000
b1010010 aaaac
b100000 aaaae

#1015500000
b100000 aaaac

#1018000000
b1110111 aaaaa
b1110111 aaaab
b1010010 aaaad
b1110111 aaaae

#1023500000
b1010010 aaaaa
b100000 aaaad

#1033500000
b100000 aaaaa
b1010010 aaaab

#1046000000
b100000 aaaab
b1010010 aaaae

#1071000000
b1010010 aaaac
b100000 aaaae

#1078500000
b100000 aaaac

#1081000000
b1110111 aaaaa
b1110111 aaaab
b1010010 aaaad
b1110111 aaaae

#1086500000
b1010010 aaaaa
b100000 aaaad

#1096500000
b100000 aaaaa
b1010010 aaaab

#1109000000
b100000 aaaab
b1010010 aaaae

#1134000000
b1010010 aaaac
b100000 aaaae

#1141500000
b100000 aaaac

#1144000000
b1110111 aaaaa
b1110111 aaaab
b1010010 aaaad
b1110111 aaaae

#1149500000
b1010010 aaaaa
b100000 aaaad

#1159500000
b100000 aaaaa
b1010010 aaaab

#1172000000
b100000 aaaab
b1010010 aaaae

#1197000000
b1010010 aaaac
b100000 aaaae

#1204500000
b100000 aaaac

#1207000000
b1110111 aaaaa
b1110111 aaaab
b1010010 aaaad
b1110111 aaaae

#1212500000
b1010010 aaaaa
b100000 aaaad

#1222500000
b100000 aaaaa
b1010010 aaaab

#1235000000
b100000 aaaab
b1010010 aaaae

#1260000000
b1010010 aaaac
b100000 aaaae

#1267500000
b100000 aaaac

#1270000000
b1110111 aaaaa
b1110111 aaaab
b1010010 aaaad
b1110111 aaaae

#1275500000
b1010010 aaaaa
b100000 aaaad

#1285500000
b100000 aaaaa
b1010010 aaaab

#1298000000
b100000 aaaab
b1010010 aaaae

#1323000000
b1010010 aaaac
b100000 aaaae

#1330500000
b100000 aaaac

#1333000000
b1110111 aaaaa
b1110111 aaaab
b1010010 aaaad
b1110111 aaaae

#1338500000
b1010010 aaaaa
b100000 aaaad

#1348500000
b100000 aaaaa
b1010010 aaaab

#1361000000
b100000 aaaab
b1010010 aaaae

#1386000000
b1010010 aaaac
b100000 aaaae

#1393500000
b100000 aaaac

#1396000000
b1110111 aaaaa
b1110111 aaaab
b1010010 aaaad
b1110111 aaaae

#1401500000
b1010010 aaaaa
b100000 aaaad

#1411500000
b100000 aaaaa
b1010010 aaaab

#1424000000
b100000 aaaab
b1010010 aaaae

#1449000000
b1010010 aaaac
b100000 aaaae

#1456500000
b100000 aaaac

#1459000000
b1110111 aaaaa
b1110111 aaaab
b1010010 aaaad
b1110111 aaaae

#1464500000
b1010010 aaaaa
b100000 aaaad

#1474500000
b100000 aaaaa
b1010010 aaaab

#1487000000
b100000 aaaab
b1010010 aaaae

#1512000000
b1010010 aaaac
b100000 aaaae

#1519500000
b100000 aaaac

#1522000000
b1110111 aaaaa
b1110111 aaaab
b1010010 aaaad
b1110111 aaaae

#1527500000
b1010010 aaaaa
b100000 aaaad

#1537500000
b100000 aaaaa
b1010010 aaaab

#1550000000
b100000 aaaab
b1010010 aaaae

#1575000000
b1010010 aaaac
b100000 aaaae

#1582500000
b100000 aaaac

#1585000000
b1110111 aaaaa
b1110111 aaaab
b1010010 aaaad
b1110111 aaaae

#1590500000
b1010010 aaaaa
b100000 aaaad

#1600500000
b100000 aaaaa
b1010010 aaaab

#1613000000
b100000 aaaab
b1010010 aaaae

#1638000000
b1010010 aaaac
b100000 aaaae

#1645500000
b100000 aaaac

#1648000000
b1110111 aaaaa
b1110111 aaaab
b1010010 aaaad
b1110111 aaaae

#1653500000
b1010010 aaaaa
b100000 aaaad

#1663500000
b100000 aaaaa
b1010010 aaaab

#1676000000
b100000 aaaab
b1010010 aaaae

#1701000000
b1010010 aaaac
b100000 aaaae

#1708500000
b100000 aaaac

#1711000000
b1110111 aaaaa
b1110111 aaaab
b1010010 aaaad
b1110111 aaaae

#1716500000
b1010010 aaaaa
b100000 aaaad

#1726500000
b100000 aaaaa
b1010010 aaaab

#1739000000
b100000 aaaab
b1010010 aaaae

#1764000000
b1010010 aaaac
b100000 aaaae

#1771500000
b100000 aaaac

#1774000000
b1110111 aaaaa
b1110111 aaaab
b1010010 aaaad
b1110111 aaaae

#1779500000
b1010010 aaaaa
b100000 aaaad

#1789500000
b100000 aaaaa
b1010010 aaaab

#1802000000
b100000 aaaab
b1010010 aaaae

#1827000000
b1010010 aaaac
b100000 aaaae

#1834500000
b100000 aaaac

#1837000000
b1110111 aaaaa
b1110111 aaaab
b1010010 aaaad
b1110111 aaaae

#1842500000
b1010010 aaaaa
b100000 aaaad

#1852500000
b100000 aaaaa
b1010010 aaaab

#1865000000
b100000 aaaab
b1010010 aaaae

#1890000000
b1010010 aaaac
b100000 aaaae

#1897500000
b100000 aaaac

#1900000000
b1110111 aaaaa
b1110111 aaaab
b1010010 aaaad
b1110111 aaaae

#1905500000
b1010010 aaaaa
b100000 aaaad

#1915500000
b100000 aaaaa
b1010010 aaaab

#1928000000
b100000 aaaab
b1010010 aaaae

#1953000000
b1010010 aaaac
b100000 aaaae

#1960500000
b100000 aaaac

#1963000000
b1110111 aaaaa
b1110111 aaaab
b1010010 aaaad
b1110111 aaaae

#1968500000
b1010010 aaaaa
b100000 aaaad

#1978500000
b100000 aaaaa
b1010010 aaaab

#1991000000
b100000 aaaab
b1010010 aaaae

#2016000000
b1010010 aaaac
b100000 aaaae

#2023500000
b100000 aaaac

#2026000000
b1110111 aaaaa
b1110111 aaaab
b1010010 aaaad
b1110111 aaaae

#2031500000
b1010010 aaaaa
b100000 aaaad

#2041500000
b100000 aaaaa
b1010010 aaaab

#2054000000
b100000 aaaab
b1010010 aaaae

#2079000000
b1010010 aaaac
b100000 aaaae

#2086500000
b100000 aaaac

#2089000000
b1110111 aaaaa
b1110111 aaaab
b1010010 aaaad
b1110111 aaaae

#2094500000
b1010010 aaaaa
b100000 aaaad

#2104500000
b100000 aaaaa
b1010010 aaaab

#2117000000
b100000 aaaab
b1010010 aaaae

#2142000000
b1010010 aaaac
b100000 aaaae

#2149500000
b100000 aaaac

#2152000000
b1110111 aaaaa
b1110111 aaaab
b1010010 aaaad
b1110111 aaaae

#2157500000
b1010010 aaaaa
b100000 aaaad

#2167500000
b100000 aaaaa
b1010010 aaaab

#2180000000
b100000 aaaab
b1010010 aaaae

#2205000000
b1010010 aaaac
b100000 aaaae

#2212500000
b100000 aaaac

#2215000000
b1110111 aaaaa
b1110111 aaaab
b1010010 aaaad
b1110111 aaaae

#2220500000
b1010010 aaaaa
b100000 aaaad

#2230500000
b100000 aaaaa
b1010010 aaaab

#2243000000
b100000 aaaab
b1010010 aaaae

#2268000000
b1010010 aaaac
b100000 aaaae

#2275500000
b100000 aaaac

#2278000000
b1110111 aaaaa
b1110111 aaaab
b1010010 aaaad
b1110111 aaaae

#2283500000
b1010010 aaaaa
b100000 aaaad

#2293500000
b100000 aaaaa
b1010010 aaaab

#2306000000
b100000 aaaab
b1010010 aaaae

#2331000000
b1010010 aaaac
b100000 aaaae

#2338500000
b100000 aaaac

#2341000000
b1110111 aaaaa
b1110111 aaaab
b1010010 aaaad
b1110111 aaaae

#2346500000
b1010010 aaaaa
b100000 aaaad

#2356500000
b100000 aaaaa
b1010010 aaaab

#2369000000
b100000 aaaab
b1010010 aaaae

#2394000000
b1010010 aaaac
b100000 aaaae

#2401500000
b100000 aaaac

#2404000000
b1110111 aaaaa
b1110111 aaaab
b1010010 aaaad
b1110111 aaaae

#2409500000
b1010010 aaaaa
b100000 aaaad

#2419500000
b100000 aaaaa
b1010010 aaaab

#2432000000
b100000 aaaab
b1010010 aaaae

#2457000000
b1010010 aaaac
b100000 aaaae

#2464500000
b100000 aaaac

#2467000000
b1110111 aaaaa
b1110111 aaaab
b1010010 aaaad
b1110111 aaaae

#2472500000
b1010010 aaaaa
b100000 aaaad

#2482500000
b100000 aaaaa
b1010010 aaaab

#2495000000
b100000 aaaab
b1010010 aaaae

#2520000000
b1010010 aaaac
b100000 aaaae

#2527500000
b100000 aaaac

#2530000000
b1110111 aaaaa
b1110111 aaaab
b1010010 aaaad
b1110111 aaaae

#2535500000
b1010010 aaaaa
b100000 aaaad

#2545500000
b100000 aaaaa
b1010010 aaaab

#2558000000
b100000 aaaab
b1010010 aaaae

#2583000000
b1010010 aaaac
b100000 aaaae

#2590500000
b100000 aaaac

#2593000000
b1110111 aaaaa
b1110111 aaaab
b1010010 aaaad
b1110111 aaaae

#2598500000
b1010010 aaaaa
b100000 aaaad

#2608500000
b100000 aaaaa
b1010010 aaaab

#2621000000
b100000 aaaab
b1010010 aaaae

#2646000000
b1010010 aaaac
b100000 aaaae

#2653500000
b100000 aaaac

#2656000000
b1110111 aaaaa
b1110111 aaaab
b1010010 aaaad
b1110111 aaaae

#2661500000
b1010010 aaaaa
b100000 aaaad

#2671500000
b100000 aaaaa
b1010010 aaaab

#2684000000
b100000 aaaab
b1010010 aaaae

#2709000000
b1010010 aaaac
b100000 aaaae

#2716500000
b100000 aaaac

#2719000000
b1110111 aaaaa
b1110111 aaaab
b1010010 aaaad
b1110111 aaaae

#2724500000
b1010010 aaaaa
b100000 aaaad

#2734500000
b100000 aaaaa
b1010010 aaaab

#2747000000
b100000 aaaab
b1010010 aaaae

#2772000000
b1010010 aaaac
b100000 aaaae

#2779500000
b100000 aaaac

#2782000000
b1110111 aaaaa
b1110111 aaaab
b1010010 aaaad
b1110111 aaaae

#2787500000
b1010010 aaaaa
b100000 aaaad

#2797500000
b100000 aaaaa
b1010010 aaaab

#2810000000
b100000 aaaab
b1010010 aaaae

#2835000000
b1010010 aaaac
b100000 aaaae

#2842500000
b100000 aaaac

#2845000000
b1110111 aaaaa
b1110111 aaaab
b1010010 aaaad
b1110111 aaaae

#2850500000
b1010010 aaaaa
b100000 aaaad

#2860500000
b100000 aaaaa
b1010010 aaaab

#2873000000
b100000 aaaab
b1010010 aaaae

#2898000000
b1010010 aaaac
b100000 aaaae

#2905500000
b100000 aaaac

#2908000000
b1110111 aaaaa
b1110111 aaaab
b1010010 aaaad
b1110111 aaaae

#2913500000
b1010010 aaaaa
b100000 aaaad

#2923500000
b100000 aaaaa
b1010010 aaaab

#2936000000
b100000 aaaab
b1010010 aaaae

#2961000000
b1010010 aaaac
b100000 aaaae

#2968500000
b100000 aaaac

#2971000000
b1110111 aaaaa
b1110111 aaaab
b1010010 aaaad
b1110111 aaaae

#2976500000
b1010010 aaaaa
b100000 aaaad

#2986500000
b100000 aaaaa
b1010010 aaaab

#2999000000
b100000 aaaab
b1010010 aaaae

#3024000000
b1010010 aaaac
b100000 aaaae

#3031500000
b100000 aaaac

#3034000000
b1110111 aaaaa
b1110111 aaaab
b1010010 aaaad
b1110111 aaaae

#3039500000
b1010010 aaaaa
b100000 aaaad

#3049500000
b100000 aaaaa
b1010010 aaaab

#3062000000
b100000 aaaab
b1010010 aaaae

#3087000000
b1010010 aaaac
b100000 aaaae

#3094500000
b100000 aaaac

#3097000000
b1110111 aaaaa
b1110111 aaaab
b1010010 aaaad
b1110111 aaaae

#3102500000
b1010010 aaaaa
b100000 aaaad

#3112500000
b100000 aaaaa
b1010010 aaaab

#3125000000
b100000 aaaab
b1010010 aaaae

#3150000000
b1010010 aaaac
b100000 aaaae

#3157500000
b100000 aaaac

#3160000000
b1110111 aaaaa
b1110111 aaaab
b1010010 aaaad
b1110111 aaaae

#3165500000
b1010010 aaaaa
b100000 aaaad

#3175500000
b100000 aaaaa
b1010010 aaaab

#3188000000
b100000 aaaab
b1010010 aaaae

#3213000000
b1010010 aaaac
b100000 aaaae

#3220500000
b100000 aaaac

#3223000000
b1110111 aaaaa
b1110111 aaaab
b1010010 aaaad
b1110111 aaaae

#3228500000
b1010010 aaaaa
b100000 aaaad

#3238500000
b100000 aaaaa
b1010010 aaaab

#3251000000
b100000 aaaab
b1010010 aaaae

#3276000000
b1010010 aaaac
b100000 aaaae

#3283500000
b100000 aaaac

#3286000000
b1110111 aaaaa
b1110111 aaaab
b1010010 aaaad
b1110111 aaaae

#3291500000
b1010010 aaaaa
b100000 aaaad

#3301500000
b100000 aaaaa
b1010010 aaaab

#3314000000
b100000 aaaab
b1010010 aaaae

#3339000000
b1010010 aaaac
b100000 aaaae

#3346500000
b100000 aaaac

#3349000000
b1110111 aaaaa
b1110111 aaaab
b1010010 aaaad
b1110111 aaaae

#3354500000
b1010010 aaaaa
b100000 aaaad

#3364500000
b100000 aaaaa
b1010010 aaaab

#3377000000
b100000 aaaab
b1010010 aaaae

#3402000000
b1010010 aaaac
b100000 aaaae

#3409500000
b100000 aaaac

#3412000000
b1110111 aaaaa
b1110111 aaaab
b1010010 aaaad
b1110111 aaaae

#3417500000
b1010010 aaaaa
b100000 aaaad

#3427500000
b100000 aaaaa
b1010010 aaaab

#3440000000
b100000 aaaab
b1010010 aaaae

#3465000000
b1010010 aaaac
b100000 aaaae

#3472500000
b100000 aaaac

#3475000000
b1110111 aaaaa
b1110111 aaaab
b1010010 aaaad
b1110111 aaaae

#3480500000
b1010010 aaaaa
b100000 aaaad

#3490500000
b100000 aaaaa
b1010010 aaaab

#3503000000
b100000 aaaab
b1010010 aaaae

#3528000000
b1010010 aaaac
b100000 aaaae

#3535500000
b100000 aaaac

#3538000000
b1110111 aaaaa
b1110111 aaaab
b1010010 aaaad
b1110111 aaaae

#3543500000
b1010010 aaaaa
b100000 aaaad

#3553500000
b100000 aaaaa
b1010010 aaaab

#3566000000
b100000 aaaab
b1010010 aaaae

#3591000000
b1010010 aaaac
b100000 aaaae

#3598500000
b100000 aaaac

#3601000000
b1110111 aaaaa
b1110111 aaaab
b1010010 aaaad
b1110111 aaaae

#3606500000
b1010010 aaaaa
b100000 aaaad

#3616500000
b100000 aaaaa
b1010010 aaaab

#3629000000
b100000 aaaab
b1010010 aaaae

#3654000000
b1010010 aaaac
b100000 aaaae

#3661500000
b100000 aaaac

#3664000000
b1110111 aaaaa
b1110111 aaaab
b1010010 aaaad
b1110111 aaaae

#3669500000
b1010010 aaaaa
b100000 aaaad

#3679500000
b100000 aaaaa
b1010010 aaaab

#3692000000
b100000 aaaab
b1010010 aaaae

#3717000000
b1010010 aaaac
b100000 aaaae

#3724500000
b100000 aaaac

#3727000000
b1110111 aaaaa
b1110111 aaaab
b1010010 aaaad
b1110111 aaaae

#3732500000
b1010010 aaaaa
b100000 aaaad

#3742500000
b100000 aaaaa
b1010010 aaaab

#3755000000
b100000 aaaab
b1010010 aaaae

#3780000000
b1010010 aaaac
b100000 aaaae

#3787500000
b100000 aaaac

#3790000000
b1110111 aaaaa
b1110111 aaaab
b1010010 aaaad
b1110111 aaaae

#3795500000
b1010010 aaaaa
b100000 aaaad

#3805500000
b100000 aaaaa
b1010010 aaaab

#3818000000
b100000 aaaab
b1010010 aaaae

#3843000000
b1010010 aaaac
b100000 aaaae

#3850500000
b100000 aaaac

#3853000000
b1110111 aaaaa
b1110111 aaaab
b1010010 aaaad
b1110111 aaaae

#3858500000
b1010010 aaaaa
b100000 aaaad

#3868500000
b100000 aaaaa
b1010010 aaaab

#3881000000
b100000 aaaab
b1010010 aaaae

#3906000000
b1010010 aaaac
b100000 aaaae

#3913500000
b100000 aaaac

#3916000000
b1110111 aaaaa
b1110111 aaaab
b1010010 aaaad
b1110111 aaaae

#3921500000
b1010010 aaaaa
b100000 aaaad

#3931500000
b100000 aaaaa
b1010010 aaaab

#3944000000
b100000 aaaab
b1010010 aaaae

#3969000000
b1010010 aaaac
b100000 aaaae

#3976500000
b100000 aaaac

#3979000000
b1110111 aaaaa
b1110111 aaaab
b1010010 aaaad
b1110111 aaaae

#3984500000
b1010010 aaaaa
b100000 aaaad

#3994500000
b100000 aaaaa
b1010010 aaaab

#4007000000
b100000 aaaab
b1010010 aaaae

#4032000000
b1010010 aaaac
b100000 aaaae

#4039500000
b100000 aaaac

#4042000000
b1110111 aaaaa
b1110111 aaaab
b1010010 aaaad
b1110111 aaaae

#4047500000
b1010010 aaaaa
b100000 aaaad

#4057500000
b100000 aaaaa
b1010010 aaaab

#4070000000
b100000 aaaab
b1010010 aaaae

#4095000000
b1010010 aaaac
b100000 aaaae

#4102500000
b100000 aaaac

#4105000000
b1110111 aaaaa
b1110111 aaaab
b1010010 aaaad
b1110111 aaaae

#4110500000
b1010010 aaaaa
b100000 aaaad

#4120500000
b100000 aaaaa
b1010010 aaaab

#4133000000
b100000 aaaab
b1010010 aaaae

#4158000000
b1010010 aaaac
b100000 aaaae

#4165500000
b100000 aaaac

#4168000000
b1110111 aaaaa
b1110111 aaaab
b1010010 aaaad
b1110111 aaaae

#4173500000
b1010010 aaaaa
b100000 aaaad

#4183500000
b100000 aaaaa
b1010010 aaaab

#4196000000
b100000 aaaab
b1010010 aaaae

#4221000000
b1010010 aaaac
b100000 aaaae

#4228500000
b100000 aaaac

#4231000000
b1110111 aaaaa
b1110111 aaaab
b1010010 aaaad
b1110111 aaaae

#4236500000
b1010010 aaaaa
b100000 aaaad

#4246500000
b100000 aaaaa
b1010010 aaaab

#4259000000
b100000 aaaab
b1010010 aaaae

#4284000000
b1010010 aaaac
b100000 aaaae

#4291500000
b100000 aaaac

#4294000000
b1110111 aaaaa
b1110111 aaaab
b1010010 aaaad
b1110111 aaaae

#4299500000
b1010010 aaaaa
b100000 aaaad

#4309500000
b100000 aaaaa
b1010010 aaaab

#4322000000
b100000 aaaab
b1010010 aaaae

#4347000000
b1010010 aaaac
b100000 aaaae

#4354500000
b100000 aaaac

#4357000000
b1110111 aaaaa
b1110111 aaaab
b1010010 aaaad
b1110111 aaaae

#4362500000
b1010010 aaaaa
b100000 aaaad

#4372500000
b100000 aaaaa
b1010010 aaaab

#4385000000
b100000 aaaab
b1010010 aaaae

#4410000000
b1010010 aaaac
b100000 aaaae

#4417500000
b100000 aaaac

#4420000000
b1110111 aaaaa
b1110111 aaaab
b1010010 aaaad
b1110111 aaaae

#4425500000
b1010010 aaaaa
b100000 aaaad

#4435500000
b100000 aaaaa
b1010010 aaaab

#4448000000
b100000 aaaab
b1010010 aaaae

#4473000000
b1010010 aaaac
b100000 aaaae

#4480500000
b100000 aaaac

#4483000000
b1110111 aaaaa
b1110111 aaaab
b1010010 aaaad
b1110111 aaaae

#4488500000
b1010010 aaaaa
b100000 aaaad

#4498500000
b100000 aaaaa
b1010010 aaaab

#4511000000
b100000 aaaab
b1010010 aaaae

#4536000000
b1010010 aaaac
b100000 aaaae

#4543500000
b100000 aaaac

#4546000000
b1110111 aaaaa
b1110111 aaaab
b1010010 aaaad
b1110111 aaaae

#4551500000
b1010010 aaaaa
b100000 aaaad

#4561500000
b100000 aaaaa
b1010010 aaaab

#4574000000
b100000 aaaab
b1010010 aaaae

#4599000000
b1010010 aaaac
b100000 aaaae

#4606500000
b100000 aaaac

#4609000000
b1110111 aaaaa
b1110111 aaaab
b1010010 aaaad
b1110111 aaaae

#4614500000
b1010010 aaaaa
b100000 aaaad

#4624500000
b100000 aaaaa
b1010010 aaaab

#4637000000
b100000 aaaab
b1010010 aaaae

#4662000000
b1010010 aaaac
b100000 aaaae

#4669500000
b100000 aaaac

#4672000000
b1110111 aaaaa
b1110111 aaaab
b1010010 aaaad
b1110111 aaaae

#4677500000
b1010010 aaaaa
b100000 aaaad

#4687500000
b100000 aaaaa
b1010010 aaaab

#4700000000
b100000 aaaab
b1010010 aaaae

#4725000000
b1010010 aaaac
b100000 aaaae

#4732500000
b100000 aaaac

#4735000000
b1110111 aaaaa
b1110111 aaaab
b1010010 aaaad
b1110111 aaaae

#4740500000
b1010010 aaaaa
b100000 aaaad

#4750500000
b100000 aaaaa
b1010010 aaaab

#4763000000
b100000 aaaab
b1010010 aaaae

#4788000000
b1010010 aaaac
b100000 aaaae

#4795500000
b100000 aaaac

#4798000000
b1110111 aaaaa
b1110111 aaaab
b1010010 aaaad
b1110111 aaaae

#4803500000
b1010010 aaaaa
b100000 aaaad

#4813500000
b100000 aaaaa
b1010010 aaaab

#4826000000
b100000 aaaab
b1010010 aaaae

#4851000000
b1010010 aaaac
b100000 aaaae

#4858500000
b100000 aaaac

#4861000000
b1110111 aaaaa
b1110111 aaaab
b1010010 aaaad
b1110111 aaaae

#4866500000
b1010010 aaaaa
b100000 aaaad

#4876500000
b100000 aaaaa
b1010010 aaaab

#4889000000
b100000 aaaab
b1010010 aaaae

#4914000000
b1010010 aaaac
b100000 aaaae

#4921500000
b100000 aaaac

#4924000000
b1110111 aaaaa
b1110111 aaaab
b1010010 aaaad
b1110111 aaaae

#4929500000
b1010010 aaaaa
b100000 aaaad

#4939500000
b100000 aaaaa
b1010010 aaaab

#4952000000
b100000 aaaab
b1010010 aaaae

#4977000000
b1010010 aaaac
b100000 aaaae

#4984500000
b100000 aaaac

#4987000000
b1110111 aaaaa
b1110111 aaaab
b1010010 aaaad
b1110111 aaaae

#4992500000
b1010010 aaaaa
b100000 aaaad

#5002500000
b100000 aaaaa
b1010010 aaaab

#5015000000
b100000 aaaab
b1010010 aaaae

#5040000000
b1010010 aaaac
b100000 aaaae

#5047500000
b100000 aaaac

#5050000000
b1110111 aaaaa
b1110111 aaaab
b1010010 aaaad
b1110111 aaaae

#5055500000
b1010010 aaaaa
b100000 aaaad

#5065500000
b100000 aaaaa
b1010010 aaaab

#5078000000
b100000 aaaab
b1010010 aaaae

#5103000000
b1010010 aaaac
b100000 aaaae

#5110500000
b100000 aaaac

#5113000000
b1110111 aaaaa
b1110111 aaaab
b1010010 aaaad
b1110111 aaaae

#5118500000
b1010010 aaaaa
b100000 aaaad

#5128500000
b100000 aaaaa
b1010010 aaaab

#5141000000
b100000 aaaab
b1010010 aaaae

#5166000000
b1010010 aaaac
b100000 aaaae

#5173500000
b100000 aaaac

#5176000000
b1110111 aaaaa
b1110111 aaaab
b1010010 aaaad
b1110111 aaaae

#5181500000
b1010010 aaaaa
b100000 aaaad

#5191500000
b100000 aaaaa
b1010010 aaaab

#5204000000
b100000 aaaab
b1010010 aaaae

#5229000000
b1010010 aaaac
b100000 aaaae

#5236500000
b100000 aaaac

#5239000000
b1110111 aaaaa
b1110111 aaaab
b1010010 aaaad
b1110111 aaaae

#5244500000
b1010010 aaaaa
b100000 aaaad

#5254500000
b100000 aaaaa
b1010010 aaaab

#5267000000
b100000 aaaab
b1010010 aaaae

#5292000000
b1010010 aaaac
b100000 aaaae

#5299500000
b100000 aaaac

#5302000000
b1110111 aaaaa
b1110111 aaaab
b1010010 aaaad
b1110111 aaaae

#5307500000
b1010010 aaaaa
b100000 aaaad

#5317500000
b100000 aaaaa
b1010010 aaaab

#5330000000
b100000 aaaab
b1010010 aaaae

#5355000000
b1010010 aaaac
b100000 aaaae

#5362500000
b100000 aaaac

#5365000000
b1110111 aaaaa
b1110111 aaaab
b1010010 aaaad
b1110111 aaaae

#5370500000
b1010010 aaaaa
b100000 aaaad

#5380500000
b100000 aaaaa
b1010010 aaaab

#5393000000
b100000 aaaab
b1010010 aaaae

#5418000000
b1010010 aaaac
b100000 aaaae

#5425500000
b100000 aaaac

#5428000000
b1110111 aaaaa
b1110111 aaaab
b1010010 aaaad
b1110111 aaaae

#5433500000
b1010010 aaaaa
b100000 aaaad

#5443500000
b100000 aaaaa
b1010010 aaaab

#5456000000
b100000 aaaab
b1010010 aaaae

#5481000000
b1010010 aaaac
b100000 aaaae

#5488500000
b100000 aaaac

#5491000000
b1110111 aaaaa
b1110111 aaaab
b1010010 aaaad
b1110111 aaaae

#5496500000
b1010010 aaaaa
b100000 aaaad

#5506500000
b100000 aaaaa
b1010010 aaaab

#5519000000
b100000 aaaab
b1010010 aaaae

#5544000000
b1010010 aaaac
b100000 aaaae

#5551500000
b100000 aaaac

#5554000000
b1110111 aaaaa
b1110111 aaaab
b1010010 aaaad
b1110111 aaaae

#5559500000
b1010010 aaaaa
b100000 aaaad

#5569500000
b100000 aaaaa
b1010010 aaaab

#5582000000
b100000 aaaab
b1010010 aaaae

#5607000000
b1010010 aaaac
b100000 aaaae

#5614500000
b100000 aaaac

#5617000000
b1110111 aaaaa
b1110111 aaaab
b1010010 aaaad
b1110111 aaaae

#5622500000
b1010010 aaaaa
b100000 aaaad

#5632500000
b100000 aaaaa
b1010010 aaaab

