testcases/src/test-src-snk-multicast/vpc/SPNOPRE-route-BUS-golden.vcd
$date
     Jul 24, 2018       16:17:13
$end

$version
 SystemC 2.3.1-Accellera --- May  7 2018 11:30:25
$end

$timescale
     1 ns
$end

$scope module SystemC $end
$var wire    8  aaaaa  top.foo.snk1.i_0 [7:0]  $end
$var wire    8  aaaab  top.foo.snk2.i_0 [7:0]  $end
$var wire    8  aaaac  top.foo.src.o_0 [7:0]  $end
$var wire    8  aaaad  top.snk3.i_0 [7:0]  $end
$var wire    8  aaaae  top.snk4.i_0 [7:0]  $end
$upscope $end
$enddefinitions  $end

$comment
All initial values are dumped below at time 0 sec = 0 timescale units.
$end

$dumpvars
b100000 aaaaa
b100000 aaaab
b100000 aaaac
b100000 aaaad
b100000 aaaae
$end

#7700000
b1010010 aaaac

#8000000
b100000 aaaac

#8800000
b1010010 aaaaa

#8900000
b1110111 aaaad

#9100000
b100000 aaaaa
b1010010 aaaad

#9200000
b1110111 aaaab

#9350000
b1110111 aaaae

#9400000
b1010010 aaaab
b100000 aaaad

#9700000
b100000 aaaab
b1010010 aaaae

#10000000
b100000 aaaae

#48100000
b1010010 aaaac

#48400000
b100000 aaaac

#49200000
b1010010 aaaaa

#49300000
b1110111 aaaad

#49500000
b100000 aaaaa
b1010010 aaaad

#49600000
b1110111 aaaab

#49750000
b1110111 aaaae

#49800000
b1010010 aaaab
b100000 aaaad

#50100000
b100000 aaaab
b1010010 aaaae

#50400000
b100000 aaaae

#88500000
b1010010 aaaac

#88800000
b100000 aaaac

#89600000
b1010010 aaaaa

#89700000
b1110111 aaaad

#89900000
b100000 aaaaa
b1010010 aaaad

#90000000
b1110111 aaaab

#90150000
b1110111 aaaae

#90200000
b1010010 aaaab
b100000 aaaad

#90500000
b100000 aaaab
b1010010 aaaae

#90800000
b100000 aaaae

#128900000
b1010010 aaaac

#129200000
b100000 aaaac

#130000000
b1010010 aaaaa

#130100000
b1110111 aaaad

#130300000
b100000 aaaaa
b1010010 aaaad

#130400000
b1110111 aaaab

#130550000
b1110111 aaaae

#130600000
b1010010 aaaab
b100000 aaaad

#130900000
b100000 aaaab
b1010010 aaaae

#131200000
b100000 aaaae

#169300000
b1010010 aaaac

#169600000
b100000 aaaac

#170400000
b1010010 aaaaa

#170500000
b1110111 aaaad

#170700000
b100000 aaaaa
b1010010 aaaad

#170800000
b1110111 aaaab

#170950000
b1110111 aaaae

#171000000
b1010010 aaaab
b100000 aaaad

#171300000
b100000 aaaab
b1010010 aaaae

#171600000
b100000 aaaae

#209700000
b1010010 aaaac

#210000000
b100000 aaaac

#210800000
b1010010 aaaaa

#210900000
b1110111 aaaad

#211100000
b100000 aaaaa
b1010010 aaaad

#211200000
b1110111 aaaab

#211350000
b1110111 aaaae

#211400000
b1010010 aaaab
b100000 aaaad

#211700000
b100000 aaaab
b1010010 aaaae

#212000000
b100000 aaaae

#250100000
b1010010 aaaac

#250400000
b100000 aaaac

#251200000
b1010010 aaaaa

#251300000
b1110111 aaaad

#251500000
b100000 aaaaa
b1010010 aaaad

#251600000
b1110111 aaaab

#251750000
b1110111 aaaae

#251800000
b1010010 aaaab
b100000 aaaad

#252100000
b100000 aaaab
b1010010 aaaae

#252400000
b100000 aaaae

#290500000
b1010010 aaaac

#290800000
b100000 aaaac

#291600000
b1010010 aaaaa

#291700000
b1110111 aaaad

#291900000
b100000 aaaaa
b1010010 aaaad

#292000000
b1110111 aaaab

#292150000
b1110111 aaaae

#292200000
b1010010 aaaab
b100000 aaaad

#292500000
b100000 aaaab
b1010010 aaaae

#292800000
b100000 aaaae

#330900000
b1010010 aaaac

#331200000
b100000 aaaac

#332000000
b1010010 aaaaa

#332100000
b1110111 aaaad

#332300000
b100000 aaaaa
b1010010 aaaad

#332400000
b1110111 aaaab

#332550000
b1110111 aaaae

#332600000
b1010010 aaaab
b100000 aaaad

#332900000
b100000 aaaab
b1010010 aaaae

#333200000
b100000 aaaae

#371300000
b1010010 aaaac

#371600000
b100000 aaaac

#372400000
b1010010 aaaaa

#372500000
b1110111 aaaad

#372700000
b100000 aaaaa
b1010010 aaaad

#372800000
b1110111 aaaab

#372950000
b1110111 aaaae

#373000000
b1010010 aaaab
b100000 aaaad

#373300000
b100000 aaaab
b1010010 aaaae

#373600000
b100000 aaaae

#411700000
b1010010 aaaac

#412000000
b100000 aaaac

#412800000
b1010010 aaaaa

#412900000
b1110111 aaaad

#413100000
b100000 aaaaa
b1010010 aaaad

#413200000
b1110111 aaaab

#413350000
b1110111 aaaae

#413400000
b1010010 aaaab
b100000 aaaad

#413700000
b100000 aaaab
b1010010 aaaae

#414000000
b100000 aaaae

#452100000
b1010010 aaaac

#452400000
b100000 aaaac

#453200000
b1010010 aaaaa

#453300000
b1110111 aaaad

#453500000
b100000 aaaaa
b1010010 aaaad

#453600000
b1110111 aaaab

#453750000
b1110111 aaaae

#453800000
b1010010 aaaab
b100000 aaaad

#454100000
b100000 aaaab
b1010010 aaaae

#454400000
b100000 aaaae

#492500000
b1010010 aaaac

#492800000
b100000 aaaac

#493600000
b1010010 aaaaa

#493700000
b1110111 aaaad

#493900000
b100000 aaaaa
b1010010 aaaad

#494000000
b1110111 aaaab

#494150000
b1110111 aaaae

#494200000
b1010010 aaaab
b100000 aaaad

#494500000
b100000 aaaab
b1010010 aaaae

#494800000
b100000 aaaae

#532900000
b1010010 aaaac

#533200000
b100000 aaaac

#534000000
b1010010 aaaaa

#534100000
b1110111 aaaad

#534300000
b100000 aaaaa
b1010010 aaaad

#534400000
b1110111 aaaab

#534550000
b1110111 aaaae

#534600000
b1010010 aaaab
b100000 aaaad

#534900000
b100000 aaaab
b1010010 aaaae

#535200000
b100000 aaaae

#573300000
b1010010 aaaac

#573600000
b100000 aaaac

#574400000
b1010010 aaaaa

#574500000
b1110111 aaaad

#574700000
b100000 aaaaa
b1010010 aaaad

#574800000
b1110111 aaaab

#574950000
b1110111 aaaae

#575000000
b1010010 aaaab
b100000 aaaad

#575300000
b100000 aaaab
b1010010 aaaae

#575600000
b100000 aaaae

#613700000
b1010010 aaaac

#614000000
b100000 aaaac

#614800000
b1010010 aaaaa

#614900000
b1110111 aaaad

#615100000
b100000 aaaaa
b1010010 aaaad

#615200000
b1110111 aaaab

#615350000
b1110111 aaaae

#615400000
b1010010 aaaab
b100000 aaaad

#615700000
b100000 aaaab
b1010010 aaaae

#616000000
b100000 aaaae

#654100000
b1010010 aaaac

#654400000
b100000 aaaac

#655200000
b1010010 aaaaa

#655300000
b1110111 aaaad

#655500000
b100000 aaaaa
b1010010 aaaad

#655600000
b1110111 aaaab

#655750000
b1110111 aaaae

#655800000
b1010010 aaaab
b100000 aaaad

#656100000
b100000 aaaab
b1010010 aaaae

#656400000
b100000 aaaae

#694500000
b1010010 aaaac

#694800000
b100000 aaaac

#695600000
b1010010 aaaaa

#695700000
b1110111 aaaad

#695900000
b100000 aaaaa
b1010010 aaaad

#696000000
b1110111 aaaab

#696150000
b1110111 aaaae

#696200000
b1010010 aaaab
b100000 aaaad

#696500000
b100000 aaaab
b1010010 aaaae

#696800000
b100000 aaaae

#734900000
b1010010 aaaac

#735200000
b100000 aaaac

#736000000
b1010010 aaaaa

#736100000
b1110111 aaaad

#736300000
b100000 aaaaa
b1010010 aaaad

#736400000
b1110111 aaaab

#736550000
b1110111 aaaae

#736600000
b1010010 aaaab
b100000 aaaad

#736900000
b100000 aaaab
b1010010 aaaae

#737200000
b100000 aaaae

#775300000
b1010010 aaaac

#775600000
b100000 aaaac

#776400000
b1010010 aaaaa

#776500000
b1110111 aaaad

#776700000
b100000 aaaaa
b1010010 aaaad

#776800000
b1110111 aaaab

#776950000
b1110111 aaaae

#777000000
b1010010 aaaab
b100000 aaaad

#777300000
b100000 aaaab
b1010010 aaaae

#777600000
b100000 aaaae

#815700000
b1010010 aaaac

#816000000
b100000 aaaac

#816800000
b1010010 aaaaa

#816900000
b1110111 aaaad

#817100000
b100000 aaaaa
b1010010 aaaad

#817200000
b1110111 aaaab

#817350000
b1110111 aaaae

#817400000
b1010010 aaaab
b100000 aaaad

#817700000
b100000 aaaab
b1010010 aaaae

#818000000
b100000 aaaae

#856100000
b1010010 aaaac

#856400000
b100000 aaaac

#857200000
b1010010 aaaaa

#857300000
b1110111 aaaad

#857500000
b100000 aaaaa
b1010010 aaaad

#857600000
b1110111 aaaab

#857750000
b1110111 aaaae

#857800000
b1010010 aaaab
b100000 aaaad

#858100000
b100000 aaaab
b1010010 aaaae

#858400000
b100000 aaaae

#896500000
b1010010 aaaac

#896800000
b100000 aaaac

#897600000
b1010010 aaaaa

#897700000
b1110111 aaaad

#897900000
b100000 aaaaa
b1010010 aaaad

#898000000
b1110111 aaaab

#898150000
b1110111 aaaae

#898200000
b1010010 aaaab
b100000 aaaad

#898500000
b100000 aaaab
b1010010 aaaae

#898800000
b100000 aaaae

#936900000
b1010010 aaaac

#937200000
b100000 aaaac

#938000000
b1010010 aaaaa

#938100000
b1110111 aaaad

#938300000
b100000 aaaaa
b1010010 aaaad

#938400000
b1110111 aaaab

#938550000
b1110111 aaaae

#938600000
b1010010 aaaab
b100000 aaaad

#938900000
b100000 aaaab
b1010010 aaaae

#939200000
b100000 aaaae

#977300000
b1010010 aaaac

#977600000
b100000 aaaac

#978400000
b1010010 aaaaa

#978500000
b1110111 aaaad

#978700000
b100000 aaaaa
b1010010 aaaad

#978800000
b1110111 aaaab

#978950000
b1110111 aaaae

#979000000
b1010010 aaaab
b100000 aaaad

#979300000
b100000 aaaab
b1010010 aaaae

#979600000
b100000 aaaae

#1017700000
b1010010 aaaac

#1018000000
b100000 aaaac

#1018800000
b1010010 aaaaa

#1018900000
b1110111 aaaad

#1019100000
b100000 aaaaa
b1010010 aaaad

#1019200000
b1110111 aaaab

#1019350000
b1110111 aaaae

#1019400000
b1010010 aaaab
b100000 aaaad

#1019700000
b100000 aaaab
b1010010 aaaae

#1020000000
b100000 aaaae

#1058100000
b1010010 aaaac

#1058400000
b100000 aaaac

#1059200000
b1010010 aaaaa

#1059300000
b1110111 aaaad

#1059500000
b100000 aaaaa
b1010010 aaaad

#1059600000
b1110111 aaaab

#1059750000
b1110111 aaaae

#1059800000
b1010010 aaaab
b100000 aaaad

#1060100000
b100000 aaaab
b1010010 aaaae

#1060400000
b100000 aaaae

#1098500000
b1010010 aaaac

#1098800000
b100000 aaaac

#1099600000
b1010010 aaaaa

#1099700000
b1110111 aaaad

#1099900000
b100000 aaaaa
b1010010 aaaad

#1100000000
b1110111 aaaab

#1100150000
b1110111 aaaae

#1100200000
b1010010 aaaab
b100000 aaaad

#1100500000
b100000 aaaab
b1010010 aaaae

#1100800000
b100000 aaaae

#1138900000
b1010010 aaaac

#1139200000
b100000 aaaac

#1140000000
b1010010 aaaaa

#1140100000
b1110111 aaaad

#1140300000
b100000 aaaaa
b1010010 aaaad

#1140400000
b1110111 aaaab

#1140550000
b1110111 aaaae

#1140600000
b1010010 aaaab
b100000 aaaad

#1140900000
b100000 aaaab
b1010010 aaaae

#1141200000
b100000 aaaae

#1179300000
b1010010 aaaac

#1179600000
b100000 aaaac

#1180400000
b1010010 aaaaa

#1180500000
b1110111 aaaad

#1180700000
b100000 aaaaa
b1010010 aaaad

#1180800000
b1110111 aaaab

#1180950000
b1110111 aaaae

#1181000000
b1010010 aaaab
b100000 aaaad

#1181300000
b100000 aaaab
b1010010 aaaae

#1181600000
b100000 aaaae

#1219700000
b1010010 aaaac

#1220000000
b100000 aaaac

#1220800000
b1010010 aaaaa

#1220900000
b1110111 aaaad

#1221100000
b100000 aaaaa
b1010010 aaaad

#1221200000
b1110111 aaaab

#1221350000
b1110111 aaaae

#1221400000
b1010010 aaaab
b100000 aaaad

#1221700000
b100000 aaaab
b1010010 aaaae

#1222000000
b100000 aaaae

#1260100000
b1010010 aaaac

#1260400000
b100000 aaaac

#1261200000
b1010010 aaaaa

#1261300000
b1110111 aaaad

#1261500000
b100000 aaaaa
b1010010 aaaad

#1261600000
b1110111 aaaab

#1261750000
b1110111 aaaae

#1261800000
b1010010 aaaab
b100000 aaaad

#1262100000
b100000 aaaab
b1010010 aaaae

#1262400000
b100000 aaaae

#1300500000
b1010010 aaaac

#1300800000
b100000 aaaac

#1301600000
b1010010 aaaaa

#1301700000
b1110111 aaaad

#1301900000
b100000 aaaaa
b1010010 aaaad

#1302000000
b1110111 aaaab

#1302150000
b1110111 aaaae

#1302200000
b1010010 aaaab
b100000 aaaad

#1302500000
b100000 aaaab
b1010010 aaaae

#1302800000
b100000 aaaae

#1340900000
b1010010 aaaac

#1341200000
b100000 aaaac

#1342000000
b1010010 aaaaa

#1342100000
b1110111 aaaad

#1342300000
b100000 aaaaa
b1010010 aaaad

#1342400000
b1110111 aaaab

#1342550000
b1110111 aaaae

#1342600000
b1010010 aaaab
b100000 aaaad

#1342900000
b100000 aaaab
b1010010 aaaae

#1343200000
b100000 aaaae

#1381300000
b1010010 aaaac

#1381600000
b100000 aaaac

#1382400000
b1010010 aaaaa

#1382500000
b1110111 aaaad

#1382700000
b100000 aaaaa
b1010010 aaaad

#1382800000
b1110111 aaaab

#1382950000
b1110111 aaaae

#1383000000
b1010010 aaaab
b100000 aaaad

#1383300000
b100000 aaaab
b1010010 aaaae

#1383600000
b100000 aaaae

#1421700000
b1010010 aaaac

#1422000000
b100000 aaaac

#1422800000
b1010010 aaaaa

#1422900000
b1110111 aaaad

#1423100000
b100000 aaaaa
b1010010 aaaad

#1423200000
b1110111 aaaab

#1423350000
b1110111 aaaae

#1423400000
b1010010 aaaab
b100000 aaaad

#1423700000
b100000 aaaab
b1010010 aaaae

#1424000000
b100000 aaaae

#1462100000
b1010010 aaaac

#1462400000
b100000 aaaac

#1463200000
b1010010 aaaaa

#1463300000
b1110111 aaaad

#1463500000
b100000 aaaaa
b1010010 aaaad

#1463600000
b1110111 aaaab

#1463750000
b1110111 aaaae

#1463800000
b1010010 aaaab
b100000 aaaad

#1464100000
b100000 aaaab
b1010010 aaaae

#1464400000
b100000 aaaae

#1502500000
b1010010 aaaac

#1502800000
b100000 aaaac

#1503600000
b1010010 aaaaa

#1503700000
b1110111 aaaad

#1503900000
b100000 aaaaa
b1010010 aaaad

#1504000000
b1110111 aaaab

#1504150000
b1110111 aaaae

#1504200000
b1010010 aaaab
b100000 aaaad

#1504500000
b100000 aaaab
b1010010 aaaae

#1504800000
b100000 aaaae

#1542900000
b1010010 aaaac

#1543200000
b100000 aaaac

#1544000000
b1010010 aaaaa

#1544100000
b1110111 aaaad

#1544300000
b100000 aaaaa
b1010010 aaaad

#1544400000
b1110111 aaaab

#1544550000
b1110111 aaaae

#1544600000
b1010010 aaaab
b100000 aaaad

#1544900000
b100000 aaaab
b1010010 aaaae

#1545200000
b100000 aaaae

#1583300000
b1010010 aaaac

#1583600000
b100000 aaaac

#1584400000
b1010010 aaaaa

#1584500000
b1110111 aaaad

#1584700000
b100000 aaaaa
b1010010 aaaad

#1584800000
b1110111 aaaab

#1584950000
b1110111 aaaae

#1585000000
b1010010 aaaab
b100000 aaaad

#1585300000
b100000 aaaab
b1010010 aaaae

#1585600000
b100000 aaaae

#1623700000
b1010010 aaaac

#1624000000
b100000 aaaac

#1624800000
b1010010 aaaaa

#1624900000
b1110111 aaaad

#1625100000
b100000 aaaaa
b1010010 aaaad

#1625200000
b1110111 aaaab

#1625350000
b1110111 aaaae

#1625400000
b1010010 aaaab
b100000 aaaad

#1625700000
b100000 aaaab
b1010010 aaaae

#1626000000
b100000 aaaae

#1664100000
b1010010 aaaac

#1664400000
b100000 aaaac

#1665200000
b1010010 aaaaa

#1665300000
b1110111 aaaad

#1665500000
b100000 aaaaa
b1010010 aaaad

#1665600000
b1110111 aaaab

#1665750000
b1110111 aaaae

#1665800000
b1010010 aaaab
b100000 aaaad

#1666100000
b100000 aaaab
b1010010 aaaae

#1666400000
b100000 aaaae

#1704500000
b1010010 aaaac

#1704800000
b100000 aaaac

#1705600000
b1010010 aaaaa

#1705700000
b1110111 aaaad

#1705900000
b100000 aaaaa
b1010010 aaaad

#1706000000
b1110111 aaaab

#1706150000
b1110111 aaaae

#1706200000
b1010010 aaaab
b100000 aaaad

#1706500000
b100000 aaaab
b1010010 aaaae

#1706800000
b100000 aaaae

#1744900000
b1010010 aaaac

#1745200000
b100000 aaaac

#1746000000
b1010010 aaaaa

#1746100000
b1110111 aaaad

#1746300000
b100000 aaaaa
b1010010 aaaad

#1746400000
b1110111 aaaab

#1746550000
b1110111 aaaae

#1746600000
b1010010 aaaab
b100000 aaaad

#1746900000
b100000 aaaab
b1010010 aaaae

#1747200000
b100000 aaaae

#1785300000
b1010010 aaaac

#1785600000
b100000 aaaac

#1786400000
b1010010 aaaaa

#1786500000
b1110111 aaaad

#1786700000
b100000 aaaaa
b1010010 aaaad

#1786800000
b1110111 aaaab

#1786950000
b1110111 aaaae

#1787000000
b1010010 aaaab
b100000 aaaad

#1787300000
b100000 aaaab
b1010010 aaaae

#1787600000
b100000 aaaae

#1825700000
b1010010 aaaac

#1826000000
b100000 aaaac

#1826800000
b1010010 aaaaa

#1826900000
b1110111 aaaad

#1827100000
b100000 aaaaa
b1010010 aaaad

#1827200000
b1110111 aaaab

#1827350000
b1110111 aaaae

#1827400000
b1010010 aaaab
b100000 aaaad

#1827700000
b100000 aaaab
b1010010 aaaae

#1828000000
b100000 aaaae

#1866100000
b1010010 aaaac

#1866400000
b100000 aaaac

#1867200000
b1010010 aaaaa

#1867300000
b1110111 aaaad

#1867500000
b100000 aaaaa
b1010010 aaaad

#1867600000
b1110111 aaaab

#1867750000
b1110111 aaaae

#1867800000
b1010010 aaaab
b100000 aaaad

#1868100000
b100000 aaaab
b1010010 aaaae

#1868400000
b100000 aaaae

#1906500000
b1010010 aaaac

#1906800000
b100000 aaaac

#1907600000
b1010010 aaaaa

#1907700000
b1110111 aaaad

#1907900000
b100000 aaaaa
b1010010 aaaad

#1908000000
b1110111 aaaab

#1908150000
b1110111 aaaae

#1908200000
b1010010 aaaab
b100000 aaaad

#1908500000
b100000 aaaab
b1010010 aaaae

#1908800000
b100000 aaaae

#1946900000
b1010010 aaaac

#1947200000
b100000 aaaac

#1948000000
b1010010 aaaaa

#1948100000
b1110111 aaaad

#1948300000
b100000 aaaaa
b1010010 aaaad

#1948400000
b1110111 aaaab

#1948550000
b1110111 aaaae

#1948600000
b1010010 aaaab
b100000 aaaad

#1948900000
b100000 aaaab
b1010010 aaaae

#1949200000
b100000 aaaae

#1987300000
b1010010 aaaac

#1987600000
b100000 aaaac

#1988400000
b1010010 aaaaa

#1988500000
b1110111 aaaad

#1988700000
b100000 aaaaa
b1010010 aaaad

#1988800000
b1110111 aaaab

#1988950000
b1110111 aaaae

#1989000000
b1010010 aaaab
b100000 aaaad

#1989300000
b100000 aaaab
b1010010 aaaae

#1989600000
b100000 aaaae

#2027700000
b1010010 aaaac

#2028000000
b100000 aaaac

#2028800000
b1010010 aaaaa

#2028900000
b1110111 aaaad

#2029100000
b100000 aaaaa
b1010010 aaaad

#2029200000
b1110111 aaaab

#2029350000
b1110111 aaaae

#2029400000
b1010010 aaaab
b100000 aaaad

#2029700000
b100000 aaaab
b1010010 aaaae

#2030000000
b100000 aaaae

#2068100000
b1010010 aaaac

#2068400000
b100000 aaaac

#2069200000
b1010010 aaaaa

#2069300000
b1110111 aaaad

#2069500000
b100000 aaaaa
b1010010 aaaad

#2069600000
b1110111 aaaab

#2069750000
b1110111 aaaae

#2069800000
b1010010 aaaab
b100000 aaaad

#2070100000
b100000 aaaab
b1010010 aaaae

#2070400000
b100000 aaaae

#2108500000
b1010010 aaaac

#2108800000
b100000 aaaac

#2109600000
b1010010 aaaaa

#2109700000
b1110111 aaaad

#2109900000
b100000 aaaaa
b1010010 aaaad

#2110000000
b1110111 aaaab

#2110150000
b1110111 aaaae

#2110200000
b1010010 aaaab
b100000 aaaad

#2110500000
b100000 aaaab
b1010010 aaaae

#2110800000
b100000 aaaae

#2148900000
b1010010 aaaac

#2149200000
b100000 aaaac

#2150000000
b1010010 aaaaa

#2150100000
b1110111 aaaad

#2150300000
b100000 aaaaa
b1010010 aaaad

#2150400000
b1110111 aaaab

#2150550000
b1110111 aaaae

#2150600000
b1010010 aaaab
b100000 aaaad

#2150900000
b100000 aaaab
b1010010 aaaae

#2151200000
b100000 aaaae

#2189300000
b1010010 aaaac

#2189600000
b100000 aaaac

#2190400000
b1010010 aaaaa

#2190500000
b1110111 aaaad

#2190700000
b100000 aaaaa
b1010010 aaaad

#2190800000
b1110111 aaaab

#2190950000
b1110111 aaaae

#2191000000
b1010010 aaaab
b100000 aaaad

#2191300000
b100000 aaaab
b1010010 aaaae

#2191600000
b100000 aaaae

#2229700000
b1010010 aaaac

#2230000000
b100000 aaaac

#2230800000
b1010010 aaaaa

#2230900000
b1110111 aaaad

#2231100000
b100000 aaaaa
b1010010 aaaad

#2231200000
b1110111 aaaab

#2231350000
b1110111 aaaae

#2231400000
b1010010 aaaab
b100000 aaaad

#2231700000
b100000 aaaab
b1010010 aaaae

#2232000000
b100000 aaaae

#2270100000
b1010010 aaaac

#2270400000
b100000 aaaac

#2271200000
b1010010 aaaaa

#2271300000
b1110111 aaaad

#2271500000
b100000 aaaaa
b1010010 aaaad

#2271600000
b1110111 aaaab

#2271750000
b1110111 aaaae

#2271800000
b1010010 aaaab
b100000 aaaad

#2272100000
b100000 aaaab
b1010010 aaaae

#2272400000
b100000 aaaae

#2310500000
b1010010 aaaac

#2310800000
b100000 aaaac

#2311600000
b1010010 aaaaa

#2311700000
b1110111 aaaad

#2311900000
b100000 aaaaa
b1010010 aaaad

#2312000000
b1110111 aaaab

#2312150000
b1110111 aaaae

#2312200000
b1010010 aaaab
b100000 aaaad

#2312500000
b100000 aaaab
b1010010 aaaae

#2312800000
b100000 aaaae

#2350900000
b1010010 aaaac

#2351200000
b100000 aaaac

#2352000000
b1010010 aaaaa

#2352100000
b1110111 aaaad

#2352300000
b100000 aaaaa
b1010010 aaaad

#2352400000
b1110111 aaaab

#2352550000
b1110111 aaaae

#2352600000
b1010010 aaaab
b100000 aaaad

#2352900000
b100000 aaaab
b1010010 aaaae

#2353200000
b100000 aaaae

#2391300000
b1010010 aaaac

#2391600000
b100000 aaaac

#2392400000
b1010010 aaaaa

#2392500000
b1110111 aaaad

#2392700000
b100000 aaaaa
b1010010 aaaad

#2392800000
b1110111 aaaab

#2392950000
b1110111 aaaae

#2393000000
b1010010 aaaab
b100000 aaaad

#2393300000
b100000 aaaab
b1010010 aaaae

#2393600000
b100000 aaaae

#2431700000
b1010010 aaaac

#2432000000
b100000 aaaac

#2432800000
b1010010 aaaaa

#2432900000
b1110111 aaaad

#2433100000
b100000 aaaaa
b1010010 aaaad

#2433200000
b1110111 aaaab

#2433350000
b1110111 aaaae

#2433400000
b1010010 aaaab
b100000 aaaad

#2433700000
b100000 aaaab
b1010010 aaaae

#2434000000
b100000 aaaae

#2472100000
b1010010 aaaac

#2472400000
b100000 aaaac

#2473200000
b1010010 aaaaa

#2473300000
b1110111 aaaad

#2473500000
b100000 aaaaa
b1010010 aaaad

#2473600000
b1110111 aaaab

#2473750000
b1110111 aaaae

#2473800000
b1010010 aaaab
b100000 aaaad

#2474100000
b100000 aaaab
b1010010 aaaae

#2474400000
b100000 aaaae

#2512500000
b1010010 aaaac

#2512800000
b100000 aaaac

#2513600000
b1010010 aaaaa

#2513700000
b1110111 aaaad

#2513900000
b100000 aaaaa
b1010010 aaaad

#2514000000
b1110111 aaaab

#2514150000
b1110111 aaaae

#2514200000
b1010010 aaaab
b100000 aaaad

#2514500000
b100000 aaaab
b1010010 aaaae

#2514800000
b100000 aaaae

#2552900000
b1010010 aaaac

#2553200000
b100000 aaaac

#2554000000
b1010010 aaaaa

#2554100000
b1110111 aaaad

#2554300000
b100000 aaaaa
b1010010 aaaad

#2554400000
b1110111 aaaab

#2554550000
b1110111 aaaae

#2554600000
b1010010 aaaab
b100000 aaaad

#2554900000
b100000 aaaab
b1010010 aaaae

#2555200000
b100000 aaaae

#2593300000
b1010010 aaaac

#2593600000
b100000 aaaac

#2594400000
b1010010 aaaaa

#2594500000
b1110111 aaaad

#2594700000
b100000 aaaaa
b1010010 aaaad

#2594800000
b1110111 aaaab

#2594950000
b1110111 aaaae

#2595000000
b1010010 aaaab
b100000 aaaad

#2595300000
b100000 aaaab
b1010010 aaaae

#2595600000
b100000 aaaae

#2633700000
b1010010 aaaac

#2634000000
b100000 aaaac

#2634800000
b1010010 aaaaa

#2634900000
b1110111 aaaad

#2635100000
b100000 aaaaa
b1010010 aaaad

#2635200000
b1110111 aaaab

#2635350000
b1110111 aaaae

#2635400000
b1010010 aaaab
b100000 aaaad

#2635700000
b100000 aaaab
b1010010 aaaae

#2636000000
b100000 aaaae

#2674100000
b1010010 aaaac

#2674400000
b100000 aaaac

#2675200000
b1010010 aaaaa

#2675300000
b1110111 aaaad

#2675500000
b100000 aaaaa
b1010010 aaaad

#2675600000
b1110111 aaaab

#2675750000
b1110111 aaaae

#2675800000
b1010010 aaaab
b100000 aaaad

#2676100000
b100000 aaaab
b1010010 aaaae

#2676400000
b100000 aaaae

#2714500000
b1010010 aaaac

#2714800000
b100000 aaaac

#2715600000
b1010010 aaaaa

#2715700000
b1110111 aaaad

#2715900000
b100000 aaaaa
b1010010 aaaad

#2716000000
b1110111 aaaab

#2716150000
b1110111 aaaae

#2716200000
b1010010 aaaab
b100000 aaaad

#2716500000
b100000 aaaab
b1010010 aaaae

#2716800000
b100000 aaaae

#2754900000
b1010010 aaaac

#2755200000
b100000 aaaac

#2756000000
b1010010 aaaaa

#2756100000
b1110111 aaaad

#2756300000
b100000 aaaaa
b1010010 aaaad

#2756400000
b1110111 aaaab

#2756550000
b1110111 aaaae

#2756600000
b1010010 aaaab
b100000 aaaad

#2756900000
b100000 aaaab
b1010010 aaaae

#2757200000
b100000 aaaae

#2795300000
b1010010 aaaac

#2795600000
b100000 aaaac

#2796400000
b1010010 aaaaa

#2796500000
b1110111 aaaad

#2796700000
b100000 aaaaa
b1010010 aaaad

#2796800000
b1110111 aaaab

#2796950000
b1110111 aaaae

#2797000000
b1010010 aaaab
b100000 aaaad

#2797300000
b100000 aaaab
b1010010 aaaae

#2797600000
b100000 aaaae

#2835700000
b1010010 aaaac

#2836000000
b100000 aaaac

#2836800000
b1010010 aaaaa

#2836900000
b1110111 aaaad

#2837100000
b100000 aaaaa
b1010010 aaaad

#2837200000
b1110111 aaaab

#2837350000
b1110111 aaaae

#2837400000
b1010010 aaaab
b100000 aaaad

#2837700000
b100000 aaaab
b1010010 aaaae

#2838000000
b100000 aaaae

#2876100000
b1010010 aaaac

#2876400000
b100000 aaaac

#2877200000
b1010010 aaaaa

#2877300000
b1110111 aaaad

#2877500000
b100000 aaaaa
b1010010 aaaad

#2877600000
b1110111 aaaab

#2877750000
b1110111 aaaae

#2877800000
b1010010 aaaab
b100000 aaaad

#2878100000
b100000 aaaab
b1010010 aaaae

#2878400000
b100000 aaaae

#2916500000
b1010010 aaaac

#2916800000
b100000 aaaac

#2917600000
b1010010 aaaaa

#2917700000
b1110111 aaaad

#2917900000
b100000 aaaaa
b1010010 aaaad

#2918000000
b1110111 aaaab

#2918150000
b1110111 aaaae

#2918200000
b1010010 aaaab
b100000 aaaad

#2918500000
b100000 aaaab
b1010010 aaaae

#2918800000
b100000 aaaae

#2956900000
b1010010 aaaac

#2957200000
b100000 aaaac

#2958000000
b1010010 aaaaa

#2958100000
b1110111 aaaad

#2958300000
b100000 aaaaa
b1010010 aaaad

#2958400000
b1110111 aaaab

#2958550000
b1110111 aaaae

#2958600000
b1010010 aaaab
b100000 aaaad

#2958900000
b100000 aaaab
b1010010 aaaae

#2959200000
b100000 aaaae

#2997300000
b1010010 aaaac

#2997600000
b100000 aaaac

#2998400000
b1010010 aaaaa

#2998500000
b1110111 aaaad

#2998700000
b100000 aaaaa
b1010010 aaaad

#2998800000
b1110111 aaaab

#2998950000
b1110111 aaaae

#2999000000
b1010010 aaaab
b100000 aaaad

#2999300000
b100000 aaaab
b1010010 aaaae

#2999600000
b100000 aaaae

#3037700000
b1010010 aaaac

#3038000000
b100000 aaaac

#3038800000
b1010010 aaaaa

#3038900000
b1110111 aaaad

#3039100000
b100000 aaaaa
b1010010 aaaad

#3039200000
b1110111 aaaab

#3039350000
b1110111 aaaae

#3039400000
b1010010 aaaab
b100000 aaaad

#3039700000
b100000 aaaab
b1010010 aaaae

#3040000000
b100000 aaaae

#3078100000
b1010010 aaaac

#3078400000
b100000 aaaac

#3079200000
b1010010 aaaaa

#3079300000
b1110111 aaaad

#3079500000
b100000 aaaaa
b1010010 aaaad

#3079600000
b1110111 aaaab

#3079750000
b1110111 aaaae

#3079800000
b1010010 aaaab
b100000 aaaad

#3080100000
b100000 aaaab
b1010010 aaaae

#3080400000
b100000 aaaae

#3118500000
b1010010 aaaac

#3118800000
b100000 aaaac

#3119600000
b1010010 aaaaa

#3119700000
b1110111 aaaad

#3119900000
b100000 aaaaa
b1010010 aaaad

#3120000000
b1110111 aaaab

#3120150000
b1110111 aaaae

#3120200000
b1010010 aaaab
b100000 aaaad

#3120500000
b100000 aaaab
b1010010 aaaae

#3120800000
b100000 aaaae

#3158900000
b1010010 aaaac

#3159200000
b100000 aaaac

#3160000000
b1010010 aaaaa

#3160100000
b1110111 aaaad

#3160300000
b100000 aaaaa
b1010010 aaaad

#3160400000
b1110111 aaaab

#3160550000
b1110111 aaaae

#3160600000
b1010010 aaaab
b100000 aaaad

#3160900000
b100000 aaaab
b1010010 aaaae

#3161200000
b100000 aaaae

#3199300000
b1010010 aaaac

#3199600000
b100000 aaaac

#3200400000
b1010010 aaaaa

#3200500000
b1110111 aaaad

