testcases/src/test-src-snk-multicast/vpc/SPNOPRE-simple-CPU-golden.vcd
$date
     Jul 18, 2018       19:42:34
$end

$version
 SystemC 2.3.1-Accellera --- May  7 2018 11:30:25
$end

$timescale
     1 ns
$end

$scope module SystemC $end
$var wire    8  aaaaa  top.foo.snk1 [7:0]  $end
$var wire    8  aaaab  top.foo.snk2 [7:0]  $end
$var wire    8  aaaac  top.foo.src [7:0]  $end
$var wire    8  aaaad  top.snk3 [7:0]  $end
$var wire    8  aaaae  top.snk4 [7:0]  $end
$upscope $end
$enddefinitions  $end

$comment
All initial values are dumped below at time 0 sec = 0 timescale units.
$end

$dumpvars
b100000 aaaaa
b100000 aaaab
b1010010 aaaac
b100000 aaaad
b100000 aaaae
$end

#7500000
b1110111 aaaaa
b1110111 aaaab
b100000 aaaac
b1010010 aaaad
b1110111 aaaae

#13000000
b1010010 aaaaa
b100000 aaaad

#23000000
b100000 aaaaa
b1010010 aaaab

#35500000
b100000 aaaab
b1010010 aaaae

#60500000
b1010010 aaaac
b100000 aaaae

#68000000
b1110111 aaaaa
b1110111 aaaab
b100000 aaaac
b1010010 aaaad
b1110111 aaaae

#73500000
b1010010 aaaaa
b100000 aaaad

#83500000
b100000 aaaaa
b1010010 aaaab

#96000000
b100000 aaaab
b1010010 aaaae

#121000000
b1010010 aaaac
b100000 aaaae

#128500000
b1110111 aaaaa
b1110111 aaaab
b100000 aaaac
b1010010 aaaad
b1110111 aaaae

#134000000
b1010010 aaaaa
b100000 aaaad

#144000000
b100000 aaaaa
b1010010 aaaab

#156500000
b100000 aaaab
b1010010 aaaae

#181500000
b1010010 aaaac
b100000 aaaae

#189000000
b1110111 aaaaa
b1110111 aaaab
b100000 aaaac
b1010010 aaaad
b1110111 aaaae

#194500000
b1010010 aaaaa
b100000 aaaad

#204500000
b100000 aaaaa
b1010010 aaaab

#217000000
b100000 aaaab
b1010010 aaaae

#242000000
b1010010 aaaac
b100000 aaaae

#249500000
b1110111 aaaaa
b1110111 aaaab
b100000 aaaac
b1010010 aaaad
b1110111 aaaae

#255000000
b1010010 aaaaa
b100000 aaaad

#265000000
b100000 aaaaa
b1010010 aaaab

#277500000
b100000 aaaab
b1010010 aaaae

#302500000
b1010010 aaaac
b100000 aaaae

#310000000
b1110111 aaaaa
b1110111 aaaab
b100000 aaaac
b1010010 aaaad
b1110111 aaaae

#315500000
b1010010 aaaaa
b100000 aaaad

#325500000
b100000 aaaaa
b1010010 aaaab

#338000000
b100000 aaaab
b1010010 aaaae

#363000000
b1010010 aaaac
b100000 aaaae

#370500000
b1110111 aaaaa
b1110111 aaaab
b100000 aaaac
b1010010 aaaad
b1110111 aaaae

#376000000
b1010010 aaaaa
b100000 aaaad

#386000000
b100000 aaaaa
b1010010 aaaab

#398500000
b100000 aaaab
b1010010 aaaae

#423500000
b1010010 aaaac
b100000 aaaae

#431000000
b1110111 aaaaa
b1110111 aaaab
b100000 aaaac
b1010010 aaaad
b1110111 aaaae

#436500000
b1010010 aaaaa
b100000 aaaad

#446500000
b100000 aaaaa
b1010010 aaaab

#459000000
b100000 aaaab
b1010010 aaaae

#484000000
b1010010 aaaac
b100000 aaaae

#491500000
b1110111 aaaaa
b1110111 aaaab
b100000 aaaac
b1010010 aaaad
b1110111 aaaae

#497000000
b1010010 aaaaa
b100000 aaaad

#507000000
b100000 aaaaa
b1010010 aaaab

#519500000
b100000 aaaab
b1010010 aaaae

#544500000
b1010010 aaaac
b100000 aaaae

#552000000
b1110111 aaaaa
b1110111 aaaab
b100000 aaaac
b1010010 aaaad
b1110111 aaaae

#557500000
b1010010 aaaaa
b100000 aaaad

#567500000
b100000 aaaaa
b1010010 aaaab

#580000000
b100000 aaaab
b1010010 aaaae

#605000000
b1010010 aaaac
b100000 aaaae

#612500000
b1110111 aaaaa
b1110111 aaaab
b100000 aaaac
b1010010 aaaad
b1110111 aaaae

#618000000
b1010010 aaaaa
b100000 aaaad

#628000000
b100000 aaaaa
b1010010 aaaab

#640500000
b100000 aaaab
b1010010 aaaae

#665500000
b1010010 aaaac
b100000 aaaae

#673000000
b1110111 aaaaa
b1110111 aaaab
b100000 aaaac
b1010010 aaaad
b1110111 aaaae

#678500000
b1010010 aaaaa
b100000 aaaad

#688500000
b100000 aaaaa
b1010010 aaaab

#701000000
b100000 aaaab
b1010010 aaaae

#726000000
b1010010 aaaac
b100000 aaaae

#733500000
b1110111 aaaaa
b1110111 aaaab
b100000 aaaac
b1010010 aaaad
b1110111 aaaae

#739000000
b1010010 aaaaa
b100000 aaaad

#749000000
b100000 aaaaa
b1010010 aaaab

#761500000
b100000 aaaab
b1010010 aaaae

#786500000
b1010010 aaaac
b100000 aaaae

#794000000
b1110111 aaaaa
b1110111 aaaab
b100000 aaaac
b1010010 aaaad
b1110111 aaaae

#799500000
b1010010 aaaaa
b100000 aaaad

#809500000
b100000 aaaaa
b1010010 aaaab

#822000000
b100000 aaaab
b1010010 aaaae

#847000000
b1010010 aaaac
b100000 aaaae

#854500000
b1110111 aaaaa
b1110111 aaaab
b100000 aaaac
b1010010 aaaad
b1110111 aaaae

#860000000
b1010010 aaaaa
b100000 aaaad

#870000000
b100000 aaaaa
b1010010 aaaab

#882500000
b100000 aaaab
b1010010 aaaae

#907500000
b1010010 aaaac
b100000 aaaae

#915000000
b1110111 aaaaa
b1110111 aaaab
b100000 aaaac
b1010010 aaaad
b1110111 aaaae

#920500000
b1010010 aaaaa
b100000 aaaad

#930500000
b100000 aaaaa
b1010010 aaaab

#943000000
b100000 aaaab
b1010010 aaaae

#968000000
b1010010 aaaac
b100000 aaaae

#975500000
b1110111 aaaaa
b1110111 aaaab
b100000 aaaac
b1010010 aaaad
b1110111 aaaae

#981000000
b1010010 aaaaa
b100000 aaaad

#991000000
b100000 aaaaa
b1010010 aaaab

#1003500000
b100000 aaaab
b1010010 aaaae

#1028500000
b1010010 aaaac
b100000 aaaae

#1036000000
b1110111 aaaaa
b1110111 aaaab
b100000 aaaac
b1010010 aaaad
b1110111 aaaae

#1041500000
b1010010 aaaaa
b100000 aaaad

#1051500000
b100000 aaaaa
b1010010 aaaab

#1064000000
b100000 aaaab
b1010010 aaaae

#1089000000
b1010010 aaaac
b100000 aaaae

#1096500000
b1110111 aaaaa
b1110111 aaaab
b100000 aaaac
b1010010 aaaad
b1110111 aaaae

#1102000000
b1010010 aaaaa
b100000 aaaad

#1112000000
b100000 aaaaa
b1010010 aaaab

#1124500000
b100000 aaaab
b1010010 aaaae

#1149500000
b1010010 aaaac
b100000 aaaae

#1157000000
b1110111 aaaaa
b1110111 aaaab
b100000 aaaac
b1010010 aaaad
b1110111 aaaae

#1162500000
b1010010 aaaaa
b100000 aaaad

#1172500000
b100000 aaaaa
b1010010 aaaab

#1185000000
b100000 aaaab
b1010010 aaaae

#1210000000
b1010010 aaaac
b100000 aaaae

#1217500000
b1110111 aaaaa
b1110111 aaaab
b100000 aaaac
b1010010 aaaad
b1110111 aaaae

#1223000000
b1010010 aaaaa
b100000 aaaad

#1233000000
b100000 aaaaa
b1010010 aaaab

#1245500000
b100000 aaaab
b1010010 aaaae

#1270500000
b1010010 aaaac
b100000 aaaae

#1278000000
b1110111 aaaaa
b1110111 aaaab
b100000 aaaac
b1010010 aaaad
b1110111 aaaae

#1283500000
b1010010 aaaaa
b100000 aaaad

#1293500000
b100000 aaaaa
b1010010 aaaab

#1306000000
b100000 aaaab
b1010010 aaaae

#1331000000
b1010010 aaaac
b100000 aaaae

#1338500000
b1110111 aaaaa
b1110111 aaaab
b100000 aaaac
b1010010 aaaad
b1110111 aaaae

#1344000000
b1010010 aaaaa
b100000 aaaad

#1354000000
b100000 aaaaa
b1010010 aaaab

#1366500000
b100000 aaaab
b1010010 aaaae

#1391500000
b1010010 aaaac
b100000 aaaae

#1399000000
b1110111 aaaaa
b1110111 aaaab
b100000 aaaac
b1010010 aaaad
b1110111 aaaae

#1404500000
b1010010 aaaaa
b100000 aaaad

#1414500000
b100000 aaaaa
b1010010 aaaab

#1427000000
b100000 aaaab
b1010010 aaaae

#1452000000
b1010010 aaaac
b100000 aaaae

#1459500000
b1110111 aaaaa
b1110111 aaaab
b100000 aaaac
b1010010 aaaad
b1110111 aaaae

#1465000000
b1010010 aaaaa
b100000 aaaad

#1475000000
b100000 aaaaa
b1010010 aaaab

#1487500000
b100000 aaaab
b1010010 aaaae

#1512500000
b1010010 aaaac
b100000 aaaae

#1520000000
b1110111 aaaaa
b1110111 aaaab
b100000 aaaac
b1010010 aaaad
b1110111 aaaae

#1525500000
b1010010 aaaaa
b100000 aaaad

#1535500000
b100000 aaaaa
b1010010 aaaab

#1548000000
b100000 aaaab
b1010010 aaaae

#1573000000
b1010010 aaaac
b100000 aaaae

#1580500000
b1110111 aaaaa
b1110111 aaaab
b100000 aaaac
b1010010 aaaad
b1110111 aaaae

#1586000000
b1010010 aaaaa
b100000 aaaad

#1596000000
b100000 aaaaa
b1010010 aaaab

#1608500000
b100000 aaaab
b1010010 aaaae

#1633500000
b1010010 aaaac
b100000 aaaae

#1641000000
b1110111 aaaaa
b1110111 aaaab
b100000 aaaac
b1010010 aaaad
b1110111 aaaae

#1646500000
b1010010 aaaaa
b100000 aaaad

#1656500000
b100000 aaaaa
b1010010 aaaab

#1669000000
b100000 aaaab
b1010010 aaaae

#1694000000
b1010010 aaaac
b100000 aaaae

#1701500000
b1110111 aaaaa
b1110111 aaaab
b100000 aaaac
b1010010 aaaad
b1110111 aaaae

#1707000000
b1010010 aaaaa
b100000 aaaad

#1717000000
b100000 aaaaa
b1010010 aaaab

#1729500000
b100000 aaaab
b1010010 aaaae

#1754500000
b1010010 aaaac
b100000 aaaae

#1762000000
b1110111 aaaaa
b1110111 aaaab
b100000 aaaac
b1010010 aaaad
b1110111 aaaae

#1767500000
b1010010 aaaaa
b100000 aaaad

#1777500000
b100000 aaaaa
b1010010 aaaab

#1790000000
b100000 aaaab
b1010010 aaaae

#1815000000
b1010010 aaaac
b100000 aaaae

#1822500000
b1110111 aaaaa
b1110111 aaaab
b100000 aaaac
b1010010 aaaad
b1110111 aaaae

#1828000000
b1010010 aaaaa
b100000 aaaad

#1838000000
b100000 aaaaa
b1010010 aaaab

#1850500000
b100000 aaaab
b1010010 aaaae

#1875500000
b1010010 aaaac
b100000 aaaae

#1883000000
b1110111 aaaaa
b1110111 aaaab
b100000 aaaac
b1010010 aaaad
b1110111 aaaae

#1888500000
b1010010 aaaaa
b100000 aaaad

#1898500000
b100000 aaaaa
b1010010 aaaab

#1911000000
b100000 aaaab
b1010010 aaaae

#1936000000
b1010010 aaaac
b100000 aaaae

#1943500000
b1110111 aaaaa
b1110111 aaaab
b100000 aaaac
b1010010 aaaad
b1110111 aaaae

#1949000000
b1010010 aaaaa
b100000 aaaad

#1959000000
b100000 aaaaa
b1010010 aaaab

#1971500000
b100000 aaaab
b1010010 aaaae

#1996500000
b1010010 aaaac
b100000 aaaae

#2004000000
b1110111 aaaaa
b1110111 aaaab
b100000 aaaac
b1010010 aaaad
b1110111 aaaae

#2009500000
b1010010 aaaaa
b100000 aaaad

#2019500000
b100000 aaaaa
b1010010 aaaab

#2032000000
b100000 aaaab
b1010010 aaaae

#2057000000
b1010010 aaaac
b100000 aaaae

#2064500000
b1110111 aaaaa
b1110111 aaaab
b100000 aaaac
b1010010 aaaad
b1110111 aaaae

#2070000000
b1010010 aaaaa
b100000 aaaad

#2080000000
b100000 aaaaa
b1010010 aaaab

#2092500000
b100000 aaaab
b1010010 aaaae

#2117500000
b1010010 aaaac
b100000 aaaae

#2125000000
b1110111 aaaaa
b1110111 aaaab
b100000 aaaac
b1010010 aaaad
b1110111 aaaae

#2130500000
b1010010 aaaaa
b100000 aaaad

#2140500000
b100000 aaaaa
b1010010 aaaab

#2153000000
b100000 aaaab
b1010010 aaaae

#2178000000
b1010010 aaaac
b100000 aaaae

#2185500000
b1110111 aaaaa
b1110111 aaaab
b100000 aaaac
b1010010 aaaad
b1110111 aaaae

#2191000000
b1010010 aaaaa
b100000 aaaad

#2201000000
b100000 aaaaa
b1010010 aaaab

#2213500000
b100000 aaaab
b1010010 aaaae

#2238500000
b1010010 aaaac
b100000 aaaae

#2246000000
b1110111 aaaaa
b1110111 aaaab
b100000 aaaac
b1010010 aaaad
b1110111 aaaae

#2251500000
b1010010 aaaaa
b100000 aaaad

#2261500000
b100000 aaaaa
b1010010 aaaab

#2274000000
b100000 aaaab
b1010010 aaaae

#2299000000
b1010010 aaaac
b100000 aaaae

#2306500000
b1110111 aaaaa
b1110111 aaaab
b100000 aaaac
b1010010 aaaad
b1110111 aaaae

#2312000000
b1010010 aaaaa
b100000 aaaad

#2322000000
b100000 aaaaa
b1010010 aaaab

#2334500000
b100000 aaaab
b1010010 aaaae

#2359500000
b1010010 aaaac
b100000 aaaae

#2367000000
b1110111 aaaaa
b1110111 aaaab
b100000 aaaac
b1010010 aaaad
b1110111 aaaae

#2372500000
b1010010 aaaaa
b100000 aaaad

#2382500000
b100000 aaaaa
b1010010 aaaab

#2395000000
b100000 aaaab
b1010010 aaaae

#2420000000
b1010010 aaaac
b100000 aaaae

#2427500000
b1110111 aaaaa
b1110111 aaaab
b100000 aaaac
b1010010 aaaad
b1110111 aaaae

#2433000000
b1010010 aaaaa
b100000 aaaad

#2443000000
b100000 aaaaa
b1010010 aaaab

#2455500000
b100000 aaaab
b1010010 aaaae

#2480500000
b1010010 aaaac
b100000 aaaae

#2488000000
b1110111 aaaaa
b1110111 aaaab
b100000 aaaac
b1010010 aaaad
b1110111 aaaae

#2493500000
b1010010 aaaaa
b100000 aaaad

#2503500000
b100000 aaaaa
b1010010 aaaab

#2516000000
b100000 aaaab
b1010010 aaaae

#2541000000
b1010010 aaaac
b100000 aaaae

#2548500000
b1110111 aaaaa
b1110111 aaaab
b100000 aaaac
b1010010 aaaad
b1110111 aaaae

#2554000000
b1010010 aaaaa
b100000 aaaad

#2564000000
b100000 aaaaa
b1010010 aaaab

#2576500000
b100000 aaaab
b1010010 aaaae

#2601500000
b1010010 aaaac
b100000 aaaae

#2609000000
b1110111 aaaaa
b1110111 aaaab
b100000 aaaac
b1010010 aaaad
b1110111 aaaae

#2614500000
b1010010 aaaaa
b100000 aaaad

#2624500000
b100000 aaaaa
b1010010 aaaab

#2637000000
b100000 aaaab
b1010010 aaaae

#2662000000
b1010010 aaaac
b100000 aaaae

#2669500000
b1110111 aaaaa
b1110111 aaaab
b100000 aaaac
b1010010 aaaad
b1110111 aaaae

#2675000000
b1010010 aaaaa
b100000 aaaad

#2685000000
b100000 aaaaa
b1010010 aaaab

#2697500000
b100000 aaaab
b1010010 aaaae

#2722500000
b1010010 aaaac
b100000 aaaae

#2730000000
b1110111 aaaaa
b1110111 aaaab
b100000 aaaac
b1010010 aaaad
b1110111 aaaae

#2735500000
b1010010 aaaaa
b100000 aaaad

#2745500000
b100000 aaaaa
b1010010 aaaab

#2758000000
b100000 aaaab
b1010010 aaaae

#2783000000
b1010010 aaaac
b100000 aaaae

#2790500000
b1110111 aaaaa
b1110111 aaaab
b100000 aaaac
b1010010 aaaad
b1110111 aaaae

#2796000000
b1010010 aaaaa
b100000 aaaad

#2806000000
b100000 aaaaa
b1010010 aaaab

#2818500000
b100000 aaaab
b1010010 aaaae

#2843500000
b1010010 aaaac
b100000 aaaae

#2851000000
b1110111 aaaaa
b1110111 aaaab
b100000 aaaac
b1010010 aaaad
b1110111 aaaae

#2856500000
b1010010 aaaaa
b100000 aaaad

#2866500000
b100000 aaaaa
b1010010 aaaab

#2879000000
b100000 aaaab
b1010010 aaaae

#2904000000
b1010010 aaaac
b100000 aaaae

#2911500000
b1110111 aaaaa
b1110111 aaaab
b100000 aaaac
b1010010 aaaad
b1110111 aaaae

#2917000000
b1010010 aaaaa
b100000 aaaad

#2927000000
b100000 aaaaa
b1010010 aaaab

#2939500000
b100000 aaaab
b1010010 aaaae

#2964500000
b1010010 aaaac
b100000 aaaae

#2972000000
b1110111 aaaaa
b1110111 aaaab
b100000 aaaac
b1010010 aaaad
b1110111 aaaae

#2977500000
b1010010 aaaaa
b100000 aaaad

#2987500000
b100000 aaaaa
b1010010 aaaab

#3000000000
b100000 aaaab
b1010010 aaaae

#3025000000
b1010010 aaaac
b100000 aaaae

#3032500000
b1110111 aaaaa
b1110111 aaaab
b100000 aaaac
b1010010 aaaad
b1110111 aaaae

#3038000000
b1010010 aaaaa
b100000 aaaad

#3048000000
b100000 aaaaa
b1010010 aaaab

#3060500000
b100000 aaaab
b1010010 aaaae

#3085500000
b1010010 aaaac
b100000 aaaae

#3093000000
b1110111 aaaaa
b1110111 aaaab
b100000 aaaac
b1010010 aaaad
b1110111 aaaae

#3098500000
b1010010 aaaaa
b100000 aaaad

#3108500000
b100000 aaaaa
b1010010 aaaab

#3121000000
b100000 aaaab
b1010010 aaaae

#3146000000
b1010010 aaaac
b100000 aaaae

#3153500000
b1110111 aaaaa
b1110111 aaaab
b100000 aaaac
b1010010 aaaad
b1110111 aaaae

#3159000000
b1010010 aaaaa
b100000 aaaad

#3169000000
b100000 aaaaa
b1010010 aaaab

#3181500000
b100000 aaaab
b1010010 aaaae

#3206500000
b1010010 aaaac
b100000 aaaae

#3214000000
b1110111 aaaaa
b1110111 aaaab
b100000 aaaac
b1010010 aaaad
b1110111 aaaae

#3219500000
b1010010 aaaaa
b100000 aaaad

#3229500000
b100000 aaaaa
b1010010 aaaab

#3242000000
b100000 aaaab
b1010010 aaaae

#3267000000
b1010010 aaaac
b100000 aaaae

#3274500000
b1110111 aaaaa
b1110111 aaaab
b100000 aaaac
b1010010 aaaad
b1110111 aaaae

#3280000000
b1010010 aaaaa
b100000 aaaad

#3290000000
b100000 aaaaa
b1010010 aaaab

#3302500000
b100000 aaaab
b1010010 aaaae

#3327500000
b1010010 aaaac
b100000 aaaae

#3335000000
b1110111 aaaaa
b1110111 aaaab
b100000 aaaac
b1010010 aaaad
b1110111 aaaae

#3340500000
b1010010 aaaaa
b100000 aaaad

#3350500000
b100000 aaaaa
b1010010 aaaab

#3363000000
b100000 aaaab
b1010010 aaaae

#3388000000
b1010010 aaaac
b100000 aaaae

#3395500000
b1110111 aaaaa
b1110111 aaaab
b100000 aaaac
b1010010 aaaad
b1110111 aaaae

#3401000000
b1010010 aaaaa
b100000 aaaad

#3411000000
b100000 aaaaa
b1010010 aaaab

#3423500000
b100000 aaaab
b1010010 aaaae

#3448500000
b1010010 aaaac
b100000 aaaae

#3456000000
b1110111 aaaaa
b1110111 aaaab
b100000 aaaac
b1010010 aaaad
b1110111 aaaae

#3461500000
b1010010 aaaaa
b100000 aaaad

#3471500000
b100000 aaaaa
b1010010 aaaab

#3484000000
b100000 aaaab
b1010010 aaaae

#3509000000
b1010010 aaaac
b100000 aaaae

#3516500000
b1110111 aaaaa
b1110111 aaaab
b100000 aaaac
b1010010 aaaad
b1110111 aaaae

#3522000000
b1010010 aaaaa
b100000 aaaad

#3532000000
b100000 aaaaa
b1010010 aaaab

#3544500000
b100000 aaaab
b1010010 aaaae

#3569500000
b1010010 aaaac
b100000 aaaae

#3577000000
b1110111 aaaaa
b1110111 aaaab
b100000 aaaac
b1010010 aaaad
b1110111 aaaae

#3582500000
b1010010 aaaaa
b100000 aaaad

#3592500000
b100000 aaaaa
b1010010 aaaab

#3605000000
b100000 aaaab
b1010010 aaaae

#3630000000
b1010010 aaaac
b100000 aaaae

#3637500000
b1110111 aaaaa
b1110111 aaaab
b100000 aaaac
b1010010 aaaad
b1110111 aaaae

#3643000000
b1010010 aaaaa
b100000 aaaad

#3653000000
b100000 aaaaa
b1010010 aaaab

#3665500000
b100000 aaaab
b1010010 aaaae

#3690500000
b1010010 aaaac
b100000 aaaae

#3698000000
b1110111 aaaaa
b1110111 aaaab
b100000 aaaac
b1010010 aaaad
b1110111 aaaae

#3703500000
b1010010 aaaaa
b100000 aaaad

#3713500000
b100000 aaaaa
b1010010 aaaab

#3726000000
b100000 aaaab
b1010010 aaaae

#3751000000
b1010010 aaaac
b100000 aaaae

#3758500000
b1110111 aaaaa
b1110111 aaaab
b100000 aaaac
b1010010 aaaad
b1110111 aaaae

#3764000000
b1010010 aaaaa
b100000 aaaad

#3774000000
b100000 aaaaa
b1010010 aaaab

#3786500000
b100000 aaaab
b1010010 aaaae

#3811500000
b1010010 aaaac
b100000 aaaae

#3819000000
b1110111 aaaaa
b1110111 aaaab
b100000 aaaac
b1010010 aaaad
b1110111 aaaae

#3824500000
b1010010 aaaaa
b100000 aaaad

#3834500000
b100000 aaaaa
b1010010 aaaab

#3847000000
b100000 aaaab
b1010010 aaaae

#3872000000
b1010010 aaaac
b100000 aaaae

#3879500000
b1110111 aaaaa
b1110111 aaaab
b100000 aaaac
b1010010 aaaad
b1110111 aaaae

#3885000000
b1010010 aaaaa
b100000 aaaad

#3895000000
b100000 aaaaa
b1010010 aaaab

#3907500000
b100000 aaaab
b1010010 aaaae

#3932500000
b1010010 aaaac
b100000 aaaae

#3940000000
b1110111 aaaaa
b1110111 aaaab
b100000 aaaac
b1010010 aaaad
b1110111 aaaae

#3945500000
b1010010 aaaaa
b100000 aaaad

#3955500000
b100000 aaaaa
b1010010 aaaab

#3968000000
b100000 aaaab
b1010010 aaaae

#3993000000
b1010010 aaaac
b100000 aaaae

#4000500000
b1110111 aaaaa
b1110111 aaaab
b100000 aaaac
b1010010 aaaad
b1110111 aaaae

#4006000000
b1010010 aaaaa
b100000 aaaad

#4016000000
b100000 aaaaa
b1010010 aaaab

#4028500000
b100000 aaaab
b1010010 aaaae

#4053500000
b1010010 aaaac
b100000 aaaae

#4061000000
b1110111 aaaaa
b1110111 aaaab
b100000 aaaac
b1010010 aaaad
b1110111 aaaae

#4066500000
b1010010 aaaaa
b100000 aaaad

#4076500000
b100000 aaaaa
b1010010 aaaab

#4089000000
b100000 aaaab
b1010010 aaaae

#4114000000
b1010010 aaaac
b100000 aaaae

#4121500000
b1110111 aaaaa
b1110111 aaaab
b100000 aaaac
b1010010 aaaad
b1110111 aaaae

#4127000000
b1010010 aaaaa
b100000 aaaad

#4137000000
b100000 aaaaa
b1010010 aaaab

#4149500000
b100000 aaaab
b1010010 aaaae

#4174500000
b1010010 aaaac
b100000 aaaae

#4182000000
b1110111 aaaaa
b1110111 aaaab
b100000 aaaac
b1010010 aaaad
b1110111 aaaae

#4187500000
b1010010 aaaaa
b100000 aaaad

#4197500000
b100000 aaaaa
b1010010 aaaab

#4210000000
b100000 aaaab
b1010010 aaaae

#4235000000
b1010010 aaaac
b100000 aaaae

#4242500000
b1110111 aaaaa
b1110111 aaaab
b100000 aaaac
b1010010 aaaad
b1110111 aaaae

#4248000000
b1010010 aaaaa
b100000 aaaad

#4258000000
b100000 aaaaa
b1010010 aaaab

#4270500000
b100000 aaaab
b1010010 aaaae

#4295500000
b1010010 aaaac
b100000 aaaae

#4303000000
b1110111 aaaaa
b1110111 aaaab
b100000 aaaac
b1010010 aaaad
b1110111 aaaae

#4308500000
b1010010 aaaaa
b100000 aaaad

#4318500000
b100000 aaaaa
b1010010 aaaab

#4331000000
b100000 aaaab
b1010010 aaaae

#4356000000
b1010010 aaaac
b100000 aaaae

#4363500000
b1110111 aaaaa
b1110111 aaaab
b100000 aaaac
b1010010 aaaad
b1110111 aaaae

#4369000000
b1010010 aaaaa
b100000 aaaad

#4379000000
b100000 aaaaa
b1010010 aaaab

#4391500000
b100000 aaaab
b1010010 aaaae

#4416500000
b1010010 aaaac
b100000 aaaae

#4424000000
b1110111 aaaaa
b1110111 aaaab
b100000 aaaac
b1010010 aaaad
b1110111 aaaae

#4429500000
b1010010 aaaaa
b100000 aaaad

#4439500000
b100000 aaaaa
b1010010 aaaab

#4452000000
b100000 aaaab
b1010010 aaaae

#4477000000
b1010010 aaaac
b100000 aaaae

#4484500000
b1110111 aaaaa
b1110111 aaaab
b100000 aaaac
b1010010 aaaad
b1110111 aaaae

#4490000000
b1010010 aaaaa
b100000 aaaad

#4500000000
b100000 aaaaa
b1010010 aaaab

#4512500000
b100000 aaaab
b1010010 aaaae

#4537500000
b1010010 aaaac
b100000 aaaae

#4545000000
b1110111 aaaaa
b1110111 aaaab
b100000 aaaac
b1010010 aaaad
b1110111 aaaae

#4550500000
b1010010 aaaaa
b100000 aaaad

#4560500000
b100000 aaaaa
b1010010 aaaab

#4573000000
b100000 aaaab
b1010010 aaaae

#4598000000
b1010010 aaaac
b100000 aaaae

#4605500000
b1110111 aaaaa
b1110111 aaaab
b100000 aaaac
b1010010 aaaad
b1110111 aaaae

#4611000000
b1010010 aaaaa
b100000 aaaad

#4621000000
b100000 aaaaa
b1010010 aaaab

#4633500000
b100000 aaaab
b1010010 aaaae

#4658500000
b1010010 aaaac
b100000 aaaae

#4666000000
b1110111 aaaaa
b1110111 aaaab
b100000 aaaac
b1010010 aaaad
b1110111 aaaae

#4671500000
b1010010 aaaaa
b100000 aaaad

#4681500000
b100000 aaaaa
b1010010 aaaab

#4694000000
b100000 aaaab
b1010010 aaaae

#4719000000
b1010010 aaaac
b100000 aaaae

#4726500000
b1110111 aaaaa
b1110111 aaaab
b100000 aaaac
b1010010 aaaad
b1110111 aaaae

#4732000000
b1010010 aaaaa
b100000 aaaad

#4742000000
b100000 aaaaa
b1010010 aaaab

#4754500000
b100000 aaaab
b1010010 aaaae

#4779500000
b1010010 aaaac
b100000 aaaae

#4787000000
b1110111 aaaaa
b1110111 aaaab
b100000 aaaac
b1010010 aaaad
b1110111 aaaae

#4792500000
b1010010 aaaaa
b100000 aaaad

#4802500000
b100000 aaaaa
b1010010 aaaab

#4815000000
b100000 aaaab
b1010010 aaaae

#4840000000
b1010010 aaaac
b100000 aaaae

#4847500000
b1110111 aaaaa
b1110111 aaaab
b100000 aaaac
b1010010 aaaad
b1110111 aaaae

#4853000000
b1010010 aaaaa
b100000 aaaad

#4863000000
b100000 aaaaa
b1010010 aaaab

#4875500000
b100000 aaaab
b1010010 aaaae

#4900500000
b1010010 aaaac
b100000 aaaae

#4908000000
b1110111 aaaaa
b1110111 aaaab
b100000 aaaac
b1010010 aaaad
b1110111 aaaae

#4913500000
b1010010 aaaaa
b100000 aaaad

#4923500000
b100000 aaaaa
b1010010 aaaab

#4936000000
b100000 aaaab
b1010010 aaaae

#4961000000
b1010010 aaaac
b100000 aaaae

#4968500000
b1110111 aaaaa
b1110111 aaaab
b100000 aaaac
b1010010 aaaad
b1110111 aaaae

#4974000000
b1010010 aaaaa
b100000 aaaad

#4984000000
b100000 aaaaa
b1010010 aaaab

#4996500000
b100000 aaaab
b1010010 aaaae

#5021500000
b1010010 aaaac
b100000 aaaae

#5029000000
b1110111 aaaaa
b1110111 aaaab
b100000 aaaac
b1010010 aaaad
b1110111 aaaae

#5034500000
b1010010 aaaaa
b100000 aaaad

#5044500000
b100000 aaaaa
b1010010 aaaab

#5057000000
b100000 aaaab
b1010010 aaaae

#5082000000
b1010010 aaaac
b100000 aaaae

#5089500000
b1110111 aaaaa
b1110111 aaaab
b100000 aaaac
b1010010 aaaad
b1110111 aaaae

#5095000000
b1010010 aaaaa
b100000 aaaad

#5105000000
b100000 aaaaa
b1010010 aaaab

#5117500000
b100000 aaaab
b1010010 aaaae

#5142500000
b1010010 aaaac
b100000 aaaae

#5150000000
b1110111 aaaaa
b1110111 aaaab
b100000 aaaac
b1010010 aaaad
b1110111 aaaae

#5155500000
b1010010 aaaaa
b100000 aaaad

#5165500000
b100000 aaaaa
b1010010 aaaab

#5178000000
b100000 aaaab
b1010010 aaaae

#5203000000
b1010010 aaaac
b100000 aaaae

#5210500000
b1110111 aaaaa
b1110111 aaaab
b100000 aaaac
b1010010 aaaad
b1110111 aaaae

#5216000000
b1010010 aaaaa
b100000 aaaad

#5226000000
b100000 aaaaa
b1010010 aaaab

#5238500000
b100000 aaaab
b1010010 aaaae

#5263500000
b1010010 aaaac
b100000 aaaae

#5271000000
b1110111 aaaaa
b1110111 aaaab
b100000 aaaac
b1010010 aaaad
b1110111 aaaae

#5276500000
b1010010 aaaaa
b100000 aaaad

#5286500000
b100000 aaaaa
b1010010 aaaab

#5299000000
b100000 aaaab
b1010010 aaaae

#5324000000
b1010010 aaaac
b100000 aaaae

#5331500000
b1110111 aaaaa
b1110111 aaaab
b100000 aaaac
b1010010 aaaad
b1110111 aaaae

#5337000000
b1010010 aaaaa
b100000 aaaad

#5347000000
b100000 aaaaa
b1010010 aaaab

#5359500000
b100000 aaaab
b1010010 aaaae

#5384500000
b1010010 aaaac
b100000 aaaae

#5392000000
b1110111 aaaaa
b1110111 aaaab
b100000 aaaac
b1010010 aaaad
b1110111 aaaae

#5397500000
b1010010 aaaaa
b100000 aaaad

#5407500000
b100000 aaaaa
b1010010 aaaab

#5420000000
b100000 aaaab
b1010010 aaaae

#5445000000
b1010010 aaaac
b100000 aaaae

#5452500000
b1110111 aaaaa
b1110111 aaaab
b100000 aaaac
b1010010 aaaad
b1110111 aaaae

#5458000000
b1010010 aaaaa
b100000 aaaad

#5468000000
b100000 aaaaa
b1010010 aaaab

#5480500000
b100000 aaaab
b1010010 aaaae

#5505500000
b1010010 aaaac
b100000 aaaae

#5513000000
b1110111 aaaaa
b1110111 aaaab
b100000 aaaac
b1010010 aaaad
b1110111 aaaae

#5518500000
b1010010 aaaaa
b100000 aaaad

#5528500000
b100000 aaaaa
b1010010 aaaab

#5541000000
b100000 aaaab
b1010010 aaaae

#5566000000
b1010010 aaaac
b100000 aaaae

#5573500000
b1110111 aaaaa
b1110111 aaaab
b100000 aaaac
b1010010 aaaad
b1110111 aaaae

#5579000000
b1010010 aaaaa
b100000 aaaad

#5589000000
b100000 aaaaa
b1010010 aaaab

#5601500000
b100000 aaaab
b1010010 aaaae

#5626500000
b1010010 aaaac
b100000 aaaae

