vpc/src-snk/testlogs/FCFS.vpc.xml/Bus.vcd
$date
     Aug 02, 2011       08:02:03
$end

$version
              SystemC 2.2.0 --- Jan 16 2009 10:08:32
$end

$timescale
     1 ns
$end

$scope module SystemC $end
$var wire    8  aaa  msg_top.src_2_queue [7:0]  $end
$var wire    8  aab  msg_queue_2_top.snk [7:0]  $end
$upscope $end
$enddefinitions  $end

$comment
All initial values are dumped below at time 0 sec = 0 timescale units.
$end

$dumpvars
b100000 aaa
b100000 aab
$end

#20
b1010010 aaa

#30
b100000 aaa

#40
b1010010 aaa

#50
b100000 aaa

#60
b1010010 aaa

#70
b100000 aaa

#80
b1010010 aaa

#90
b100000 aaa
b1010010 aab

#100
b1110111 aaa

#120
b1010111 aaa

#140
b1110111 aaa

#160
b1010111 aaa

#170
b1010010 aaa
b100000 aab

#180
b1110010 aaa

#190
b1010010 aaa

#200
b1110010 aaa

#210
b1010010 aaa

#220
b1110010 aaa

#230
b100000 aaa

#240
b1010010 aaa

#250
b100000 aaa

#300
b1010010 aab

#380
b100000 aab

#420
b1010010 aaa
b1110111 aab

#430
b100000 aaa
b1010010 aab

#510
b100000 aab

#550
b1010010 aaa
b1110111 aab

#560
b100000 aaa
b1010010 aab

#640
b100000 aab

#680
b1010010 aaa
b1110111 aab

#690
b100000 aaa
b1010010 aab

#770
b100000 aab

#810
b1010010 aaa
b1110111 aab

#820
b100000 aaa
b1010010 aab

#900
b100000 aab

#940
b1010010 aaa
b1110111 aab

#950
b100000 aaa
b1010010 aab

#1030
b100000 aab

#1070
b1010010 aaa
b1110111 aab

#1080
b100000 aaa
b1010010 aab

#1160
b100000 aab

#1200
b1010010 aaa
b1110111 aab

#1210
b100000 aaa
b1010010 aab

#1290
b100000 aab

#1330
b1010010 aaa
b1110111 aab

#1340
b100000 aaa
b1010010 aab

#1420
b100000 aab

#1460
b1010010 aaa
b1110111 aab

#1470
b100000 aaa
b1010010 aab

#1550
b100000 aab

#1590
b1010010 aaa
b1110111 aab

#1600
b100000 aaa
b1010010 aab

#1680
b100000 aab

#1720
b1010010 aaa
b1110111 aab

#1730
b100000 aaa
b1010010 aab

#1810
b100000 aab

#1850
b1010010 aaa
b1110111 aab

#1860
b100000 aaa
b1010010 aab

#1940
b100000 aab

#1980
b1010010 aaa
b1110111 aab

#1990
b100000 aaa
b1010010 aab

#2070
b100000 aab

#2110
b1010010 aaa
b1110111 aab

#2120
b100000 aaa
b1010010 aab

#2200
b100000 aab

#2240
b1010010 aaa
b1110111 aab

#2250
b100000 aaa
b1010010 aab

#2330
b100000 aab

#2370
b1010010 aaa
b1110111 aab

#2380
b100000 aaa
b1010010 aab

#2460
b100000 aab

#2500
b1010010 aaa
b1110111 aab

#2510
b100000 aaa
b1010010 aab

#2590
b100000 aab

#2630
b1010010 aaa
b1110111 aab

#2640
b100000 aaa
b1010010 aab

#2720
b100000 aab

#2760
b1010010 aaa
b1110111 aab

#2770
b100000 aaa
b1010010 aab

#2850
b100000 aab

#2890
b1010010 aaa
b1110111 aab

#2900
b100000 aaa
b1010010 aab

#2980
b100000 aab

#3020
b1010010 aaa
b1110111 aab

#3030
b100000 aaa
b1010010 aab

#3110
b100000 aab

#3150
b1010010 aaa
b1110111 aab

#3160
b100000 aaa
b1010010 aab

#3240
b100000 aab

#3280
b1010010 aaa
b1110111 aab

#3290
b100000 aaa
b1010010 aab

#3370
b100000 aab

#3410
b1010010 aaa
b1110111 aab

#3420
b100000 aaa
b1010010 aab

#3500
b100000 aab

#3540
b1010010 aaa
b1110111 aab

#3550
b100000 aaa
b1010010 aab

#3630
b100000 aab

#3670
b1010010 aaa
b1110111 aab

#3680
b100000 aaa
b1010010 aab

#3760
b100000 aab

#3800
b1010010 aaa
b1110111 aab

#3810
b100000 aaa
b1010010 aab

#3890
b100000 aab

#3930
b1010010 aaa
b1110111 aab

#3940
b100000 aaa
b1010010 aab

#4020
b100000 aab

#4060
b1010010 aaa
b1110111 aab

#4070
b100000 aaa
b1010010 aab

#4150
b100000 aab

#4190
b1010010 aaa
b1110111 aab

#4200
b100000 aaa
b1010010 aab

#4280
b100000 aab

#4320
b1010010 aaa
b1110111 aab

#4330
b100000 aaa
b1010010 aab

#4410
b100000 aab

#4450
b1010010 aaa
b1110111 aab

#4460
b100000 aaa
b1010010 aab

#4540
b100000 aab

#4580
b1010010 aaa
b1110111 aab

#4590
b100000 aaa
b1010010 aab

#4670
b100000 aab

#4710
b1010010 aaa
b1110111 aab

#4720
b100000 aaa
b1010010 aab

#4800
b100000 aab

#4840
b1010010 aaa
b1110111 aab

#4850
b100000 aaa
b1010010 aab

#4930
b100000 aab

#4970
b1010010 aaa
b1110111 aab

#4980
b100000 aaa
b1010010 aab

#5060
b100000 aab

#5100
b1010010 aaa
b1110111 aab

#5110
b100000 aaa
b1010010 aab

#5190
b100000 aab

#5230
b1010010 aaa
b1110111 aab

#5240
b100000 aaa
b1010010 aab

#5320
b100000 aab

#5360
b1010010 aaa
b1110111 aab

#5370
b100000 aaa
b1010010 aab

#5450
b100000 aab

#5490
b1010010 aaa
b1110111 aab

#5500
b100000 aaa
b1010010 aab

#5580
b100000 aab

#5620
b1010010 aaa
b1110111 aab

#5630
b100000 aaa
b1010010 aab

#5710
b100000 aab

#5750
b1010010 aaa
b1110111 aab

#5760
b100000 aaa
b1010010 aab

#5840
b100000 aab

#5880
b1010010 aaa
b1110111 aab

#5890
b100000 aaa
b1010010 aab

#5970
b100000 aab

#6010
b1010010 aaa
b1110111 aab

#6020
b100000 aaa
b1010010 aab

#6100
b100000 aab

#6140
b1010010 aaa
b1110111 aab

#6150
b100000 aaa
b1010010 aab

#6230
b100000 aab

#6270
b1010010 aaa
b1110111 aab

#6280
b100000 aaa
b1010010 aab

#6360
b100000 aab

#6400
b1010010 aaa
b1110111 aab

#6410
b100000 aaa
b1010010 aab

#6490
b100000 aab

#6530
b1010010 aaa
b1110111 aab

#6540
b100000 aaa
b1010010 aab

#6620
b100000 aab

#6660
b1010010 aaa
b1110111 aab

#6670
b100000 aaa
b1010010 aab

#6750
b100000 aab

#6790
b1010010 aaa
b1110111 aab

#6800
b100000 aaa
b1010010 aab

#6880
b100000 aab

#6920
b1010010 aaa
b1110111 aab

#6930
b100000 aaa
b1010010 aab

#7010
b100000 aab

#7050
b1010010 aaa
b1110111 aab

#7060
b100000 aaa
b1010010 aab

#7140
b100000 aab

#7180
b1010010 aaa
b1110111 aab

#7190
b100000 aaa
b1010010 aab

#7270
b100000 aab

#7310
b1010010 aaa
b1110111 aab

#7320
b100000 aaa
b1010010 aab

#7400
b100000 aab

#7440
b1010010 aaa
b1110111 aab

#7450
b100000 aaa
b1010010 aab

#7530
b100000 aab

#7570
b1010010 aaa
b1110111 aab

#7580
b100000 aaa
b1010010 aab

#7660
b100000 aab

#7700
b1010010 aaa
b1110111 aab

#7710
b100000 aaa
b1010010 aab

#7790
b100000 aab

#7830
b1010010 aaa
b1110111 aab

#7840
b100000 aaa
b1010010 aab

#7920
b100000 aab

#7960
b1010010 aaa
b1110111 aab

#7970
b100000 aaa
b1010010 aab

#8050
b100000 aab

#8090
b1010010 aaa
b1110111 aab

#8100
b100000 aaa
b1010010 aab

#8180
b100000 aab

#8220
b1010010 aaa
b1110111 aab

#8230
b100000 aaa
b1010010 aab

#8310
b100000 aab

#8350
b1010010 aaa
b1110111 aab

#8360
b100000 aaa
b1010010 aab

#8440
b100000 aab

#8480
b1010010 aaa
b1110111 aab

#8490
b100000 aaa
b1010010 aab

#8570
b100000 aab

#8610
b1010010 aaa
b1110111 aab

#8620
b100000 aaa
b1010010 aab

#8700
b100000 aab

#8740
b1010010 aaa
b1110111 aab

#8750
b100000 aaa
b1010010 aab

#8830
b100000 aab

#8870
b1010010 aaa
b1110111 aab

#8880
b100000 aaa
b1010010 aab

#8960
b100000 aab

#9000
b1010010 aaa
b1110111 aab

#9010
b100000 aaa
b1010010 aab

#9090
b100000 aab

#9130
b1010010 aaa
b1110111 aab

#9140
b100000 aaa
b1010010 aab

#9220
b100000 aab

#9260
b1010010 aaa
b1110111 aab

#9270
b100000 aaa
b1010010 aab

#9350
b100000 aab

#9390
b1010010 aaa
b1110111 aab

#9400
b100000 aaa
b1010010 aab

#9480
b100000 aab

#9520
b1010010 aaa
b1110111 aab

#9530
b100000 aaa
b1010010 aab

#9610
b100000 aab

#9650
b1010010 aaa
b1110111 aab

#9660
b100000 aaa
b1010010 aab

#9740
b100000 aab

#9780
b1010010 aaa
b1110111 aab

#9790
b100000 aaa
b1010010 aab

#9870
b100000 aab

#9910
b1010010 aaa
b1110111 aab

#9920
b100000 aaa
b1010010 aab

#10000
b100000 aab

#10040
b1010010 aaa
b1110111 aab

#10050
b100000 aaa
b1010010 aab

#10130
b100000 aab

#10170
b1010010 aaa
b1110111 aab

#10180
b100000 aaa
b1010010 aab

#10260
b100000 aab

#10300
b1010010 aaa
b1110111 aab

#10310
b100000 aaa
b1010010 aab

#10390
b100000 aab

#10430
b1010010 aaa
b1110111 aab

#10440
b100000 aaa
b1010010 aab

#10520
b100000 aab

#10560
b1010010 aaa
b1110111 aab

#10570
b100000 aaa
b1010010 aab

#10650
b100000 aab

#10690
b1010010 aaa
b1110111 aab

#10700
b100000 aaa
b1010010 aab

#10780
b100000 aab

#10820
b1010010 aaa
b1110111 aab

#10830
b100000 aaa
b1010010 aab

#10910
b100000 aab

#10950
b1010010 aaa
b1110111 aab

#10960
b100000 aaa
b1010010 aab

#11040
b100000 aab

#11080
b1010010 aaa
b1110111 aab

#11090
b100000 aaa
b1010010 aab

#11170
b100000 aab

#11210
b1010010 aaa
b1110111 aab

#11220
b100000 aaa
b1010010 aab

#11300
b100000 aab

#11340
b1010010 aaa
b1110111 aab

#11350
b100000 aaa
b1010010 aab

#11430
b100000 aab

#11470
b1010010 aaa
b1110111 aab

#11480
b100000 aaa
b1010010 aab

#11560
b100000 aab

#11600
b1010010 aaa
b1110111 aab

#11610
b100000 aaa
b1010010 aab

#11690
b100000 aab

#11730
b1010010 aaa
b1110111 aab

#11740
b100000 aaa
b1010010 aab

#11820
b100000 aab

#11860
b1010010 aaa
b1110111 aab

#11870
b100000 aaa
b1010010 aab

#11950
b100000 aab

#11990
b1010010 aaa
b1110111 aab

#12000
b100000 aaa
b1010010 aab

#12080
b100000 aab

#12120
b1010010 aaa
b1110111 aab

#12130
b100000 aaa
b1010010 aab

#12210
b100000 aab

#12250
b1010010 aaa
b1110111 aab

#12260
b100000 aaa
b1010010 aab

#12340
b100000 aab

#12380
b1010010 aaa
b1110111 aab

#12390
b100000 aaa
b1010010 aab

#12470
b100000 aab

#12510
b1010010 aaa
b1110111 aab

#12520
b100000 aaa
b1010010 aab

#12600
b100000 aab

#12640
b1010010 aaa
b1110111 aab

#12650
b100000 aaa
b1010010 aab

#12730
b100000 aab

#12770
b1010010 aaa
b1110111 aab

#12780
b100000 aaa
b1010010 aab

#12860
b100000 aab

#12900
b1010010 aaa
b1110111 aab

#12910
b100000 aaa
b1010010 aab

#12990
b100000 aab

#13030
b1010010 aaa
b1110111 aab

#13040
b100000 aaa
b1010010 aab

#13120
b100000 aab

#13160
b1010010 aaa
b1110111 aab

#13170
b100000 aaa
b1010010 aab

#13250
b100000 aab

#13290
b1010010 aaa
b1110111 aab

#13300
b100000 aaa
b1010010 aab

#13380
b100000 aab

#13420
b1010010 aaa
b1110111 aab

#13430
b100000 aaa
b1010010 aab

#13510
b100000 aab

#13550
b1010010 aaa
b1110111 aab

#13560
b100000 aaa
b1010010 aab

#13640
b100000 aab

#13680
b1010010 aaa
b1110111 aab

#13690
b100000 aaa
b1010010 aab

#13770
b100000 aab

#13810
b1010010 aaa
b1110111 aab

#13820
b100000 aaa
b1010010 aab

#13900
b100000 aab

#13940
b1010010 aaa
b1110111 aab

#13950
b100000 aaa
b1010010 aab

#14030
b100000 aab

#14070
b1010010 aaa
b1110111 aab

#14080
b100000 aaa
b1010010 aab

#14160
b100000 aab

#14200
b1010010 aaa
b1110111 aab

#14210
b100000 aaa
b1010010 aab

#14290
b100000 aab

#14330
b1010010 aaa
b1110111 aab

#14340
b100000 aaa
b1010010 aab

#14420
b100000 aab

#14460
b1010010 aaa
b1110111 aab

#14470
b100000 aaa
b1010010 aab

#14550
b100000 aab

#14590
b1010010 aaa
b1110111 aab

#14600
b100000 aaa
b1010010 aab

#14680
b100000 aab

#14720
b1010010 aaa
b1110111 aab

#14730
b100000 aaa
b1010010 aab

#14810
b100000 aab

#14850
b1010010 aaa
b1110111 aab

#14860
b100000 aaa
b1010010 aab

#14940
b100000 aab

#14980
b1010010 aaa
b1110111 aab

#14990
b100000 aaa
b1010010 aab

#15070
b100000 aab

#15110
b1010010 aaa
b1110111 aab

#15120
b100000 aaa
b1010010 aab

#15200
b100000 aab

#15240
b1010010 aaa
b1110111 aab

#15250
b100000 aaa
b1010010 aab

#15330
b100000 aab

#15370
b1010010 aaa
b1110111 aab

#15380
b100000 aaa
b1010010 aab

#15460
b100000 aab

#15500
b1010010 aaa
b1110111 aab

#15510
b100000 aaa
b1010010 aab

#15590
b100000 aab

#15630
b1010010 aaa
b1110111 aab

#15640
b100000 aaa
b1010010 aab

#15720
b100000 aab

#15760
b1010010 aaa
b1110111 aab

#15770
b100000 aaa
b1010010 aab

#15850
b100000 aab

#15890
b1010010 aaa
b1110111 aab

#15900
b100000 aaa
b1010010 aab

#15980
b100000 aab

#16020
b1010010 aaa
b1110111 aab

#16030
b100000 aaa
b1010010 aab

#16110
b100000 aab

#16150
b1010010 aaa
b1110111 aab

#16160
b100000 aaa
b1010010 aab

#16240
b100000 aab

#16280
b1010010 aaa
b1110111 aab

#16290
b100000 aaa
b1010010 aab

#16370
b100000 aab

#16410
b1010010 aaa
b1110111 aab

#16420
b100000 aaa
b1010010 aab

#16500
b100000 aab

#16540
b1010010 aaa
b1110111 aab

#16550
b100000 aaa
b1010010 aab

#16630
b100000 aab

#16670
b1010010 aaa
b1110111 aab

#16680
b100000 aaa
b1010010 aab

#16760
b100000 aab

#16800
b1010010 aaa
b1110111 aab

#16810
b100000 aaa
b1010010 aab

#16890
b100000 aab

#16930
b1010010 aaa
b1110111 aab

#16940
b100000 aaa
b1010010 aab

#17020
b100000 aab

#17060
b1010010 aaa
b1110111 aab

#17070
b100000 aaa
b1010010 aab

#17150
b100000 aab

#17190
b1010010 aaa
b1110111 aab

#17200
b100000 aaa
b1010010 aab

#17280
b100000 aab

#17320
b1010010 aaa
b1110111 aab

#17330
b100000 aaa
b1010010 aab

#17410
b100000 aab

#17450
b1010010 aaa
b1110111 aab

#17460
b100000 aaa
b1010010 aab

#17540
b100000 aab

#17580
b1010010 aaa
b1110111 aab

#17590
b100000 aaa
b1010010 aab

#17670
b100000 aab

#17710
b1010010 aaa
b1110111 aab

#17720
b100000 aaa
b1010010 aab

#17800
b100000 aab

#17840
b1010010 aaa
b1110111 aab

#17850
b100000 aaa
b1010010 aab

#17930
b100000 aab

#17970
b1010010 aaa
b1110111 aab

#17980
b100000 aaa
b1010010 aab

#18060
b100000 aab

#18100
b1010010 aaa
b1110111 aab

#18110
b100000 aaa
b1010010 aab

#18190
b100000 aab

#18230
b1010010 aaa
b1110111 aab

#18240
b100000 aaa
b1010010 aab

#18320
b100000 aab

#18360
b1010010 aaa
b1110111 aab

#18370
b100000 aaa
b1010010 aab

#18450
b100000 aab

#18490
b1010010 aaa
b1110111 aab

#18500
b100000 aaa
b1010010 aab

#18580
b100000 aab

#18620
b1010010 aaa
b1110111 aab

#18630
b100000 aaa
b1010010 aab

#18710
b100000 aab

#18750
b1010010 aaa
b1110111 aab

#18760
b100000 aaa
b1010010 aab

#18840
b100000 aab

#18880
b1010010 aaa
b1110111 aab

#18890
b100000 aaa
b1010010 aab

#18970
b100000 aab

#19010
b1010010 aaa
b1110111 aab

#19020
b100000 aaa
b1010010 aab

#19100
b100000 aab

#19140
b1010010 aaa
b1110111 aab

#19150
b100000 aaa
b1010010 aab

#19230
b100000 aab

#19270
b1010010 aaa
b1110111 aab

#19280
b100000 aaa
b1010010 aab

#19360
b100000 aab

#19400
b1010010 aaa
b1110111 aab

#19410
b100000 aaa
b1010010 aab

#19490
b100000 aab

#19530
b1010010 aaa
b1110111 aab

#19540
b100000 aaa
b1010010 aab

#19620
b100000 aab

#19660
b1010010 aaa
b1110111 aab

#19670
b100000 aaa
b1010010 aab

#19750
b100000 aab

#19790
b1010010 aaa
b1110111 aab

#19800
b100000 aaa
b1010010 aab

#19880
b100000 aab

#19920
b1010010 aaa
b1110111 aab

#19930
b100000 aaa
b1010010 aab

#20010
b100000 aab

#20050
b1010010 aaa
b1110111 aab

#20060
b100000 aaa
b1010010 aab

#20140
b100000 aab

#20180
b1010010 aaa
b1110111 aab

#20190
b100000 aaa
b1010010 aab

#20270
b100000 aab

#20310
b1010010 aaa
b1110111 aab

#20320
b100000 aaa
b1010010 aab

#20400
b100000 aab

#20440
b1010010 aaa
b1110111 aab

#20450
b100000 aaa
b1010010 aab

#20530
b100000 aab

#20570
b1010010 aaa
b1110111 aab

#20580
b100000 aaa
b1010010 aab

#20660
b100000 aab

#20700
b1010010 aaa
b1110111 aab

#20710
b100000 aaa
b1010010 aab

#20790
b100000 aab

#20830
b1010010 aaa
b1110111 aab

#20840
b100000 aaa
b1010010 aab

#20920
b100000 aab

#20960
b1010010 aaa
b1110111 aab

#20970
b100000 aaa
b1010010 aab

#21050
b100000 aab

#21090
b1010010 aaa
b1110111 aab

#21100
b100000 aaa
b1010010 aab

#21180
b100000 aab

#21220
b1010010 aaa
b1110111 aab

#21230
b100000 aaa
b1010010 aab

#21310
b100000 aab

#21350
b1010010 aaa
b1110111 aab

#21360
b100000 aaa
b1010010 aab

#21440
b100000 aab

#21480
b1010010 aaa
b1110111 aab

#21490
b100000 aaa
b1010010 aab

#21570
b100000 aab

#21610
b1010010 aaa
b1110111 aab

#21620
b100000 aaa
b1010010 aab

#21700
b100000 aab

#21740
b1010010 aaa
b1110111 aab

#21750
b100000 aaa
b1010010 aab

#21830
b100000 aab

#21870
b1010010 aaa
b1110111 aab

#21880
b100000 aaa
b1010010 aab

#21960
b100000 aab

#22000
b1010010 aaa
b1110111 aab

#22010
b100000 aaa
b1010010 aab

#22090
b100000 aab

#22130
b1010010 aaa
b1110111 aab

#22140
b100000 aaa
b1010010 aab

#22220
b100000 aab

#22260
b1010010 aaa
b1110111 aab

#22270
b100000 aaa
b1010010 aab

#22350
b100000 aab

#22390
b1010010 aaa
b1110111 aab

#22400
b100000 aaa
b1010010 aab

#22480
b100000 aab

#22520
b1010010 aaa
b1110111 aab

#22530
b100000 aaa
b1010010 aab

#22610
b100000 aab

#22650
b1010010 aaa
b1110111 aab

#22660
b100000 aaa
b1010010 aab

#22740
b100000 aab

#22780
b1010010 aaa
b1110111 aab

#22790
b100000 aaa
b1010010 aab

#22870
b100000 aab

#22910
b1010010 aaa
b1110111 aab

#22920
b100000 aaa
b1010010 aab

#23000
b100000 aab

#23040
b1010010 aaa
b1110111 aab

#23050
b100000 aaa
b1010010 aab

#23130
b100000 aab

#23170
b1010010 aaa
b1110111 aab

#23180
b100000 aaa
b1010010 aab

#23260
b100000 aab

#23300
b1010010 aaa
b1110111 aab

#23310
b100000 aaa
b1010010 aab

#23390
b100000 aab

#23430
b1010010 aaa
b1110111 aab

#23440
b100000 aaa
b1010010 aab

#23520
b100000 aab

#23560
b1010010 aaa
b1110111 aab

#23570
b100000 aaa
b1010010 aab

#23650
b100000 aab

#23690
b1010010 aaa
b1110111 aab

#23700
b100000 aaa
b1010010 aab

#23780
b100000 aab

#23820
b1010010 aaa
b1110111 aab

#23830
b100000 aaa
b1010010 aab

#23910
b100000 aab

#23950
b1010010 aaa
b1110111 aab

#23960
b100000 aaa
b1010010 aab

#24040
b100000 aab

#24080
b1010010 aaa
b1110111 aab

#24090
b100000 aaa
b1010010 aab

#24170
b100000 aab

#24210
b1010010 aaa
b1110111 aab

#24220
b100000 aaa
b1010010 aab

#24300
b100000 aab

#24340
b1010010 aaa
b1110111 aab

#24350
b100000 aaa
b1010010 aab

#24430
b100000 aab

#24470
b1010010 aaa
b1110111 aab

#24480
b100000 aaa
b1010010 aab

#24560
b100000 aab

#24600
b1010010 aaa
b1110111 aab

#24610
b100000 aaa
b1010010 aab

#24690
b100000 aab

#24730
b1010010 aaa
b1110111 aab

#24740
b100000 aaa
b1010010 aab

#24820
b100000 aab

#24860
b1010010 aaa
b1110111 aab

#24870
b100000 aaa
b1010010 aab

#24950
b100000 aab

#24990
b1010010 aab

#25070
b100000 aab

#25110
b1010010 aab

#25190
b100000 aab

#25230
b1010010 aab

#25310
b100000 aab

#25350
b1010010 aab

#25430
b100000 aab

#25470
b1010010 aab

#25550
b100000 aab

#25590
b1010010 aab

#25670
b100000 aab

#25710
b1010010 aab

#25790
b100000 aab

#25830
b1010010 aab

#25910
b100000 aab

#25950
b1010010 aab

#26030
b100000 aab

