vpc/src-snk/testlogs/FCFS.vpc.xml/CPU.vcd
$date
     Oct 06, 2011       13:16:23
$end

$version
              SystemC 2.2.0 --- Aug 31 2011 16:07:50
$end

$timescale
     1 ns
$end

$scope module SystemC $end
$var wire    8  aaa  top.src [7:0]  $end
$var wire    8  aab  top.snk [7:0]  $end
$var wire    8  aac  msg_top.src_2_queue [7:0]  $end
$var wire    8  aad  msg_queue_2_top.snk [7:0]  $end
$upscope $end
$enddefinitions  $end

$comment
All initial values are dumped below at time 0 sec = 0 timescale units.
$end

$dumpvars
b1010010 aaa
b100000 aab
b100000 aac
b100000 aad
$end

#10
b1110111 aaa
b1010010 aac

#30
b1010010 aaa
b100000 aac

#40
b1110111 aaa
b1010010 aac

#60
b1010010 aaa
b100000 aac

#70
b1110111 aaa
b1010010 aac

#90
b1010010 aaa
b100000 aac

#100
b1110111 aaa
b1010010 aac

#120
b1010010 aaa
b100000 aac

#130
b1110111 aaa
b1010010 aac

#150
b1010010 aaa
b100000 aac

#160
b1110111 aaa
b1010010 aac

#180
b1010010 aaa
b100000 aac
b1110111 aad

#190
b1110111 aaa
b1110111 aac
b1010010 aad

#210
b1110111 aab
b1010010 aac
b100000 aad

#230
b1010010 aaa
b100000 aac

#240
b1110111 aaa
b1010010 aab
b1110111 aac

#250
b100000 aab
b1010010 aac

#270
b1010010 aaa
b100000 aac

#280
b1110111 aaa
b1010010 aac

#300
b1010010 aaa
b100000 aac

#310
b1110111 aaa
b1010010 aac

#330
b1010010 aaa
b100000 aac

#340
b100000 aaa
b1010010 aac

#360
b100000 aac

#370
b1010010 aad

#390
b1010010 aab
b100000 aad

#400
b1010010 aaa
b100000 aab

#410
b100000 aaa
b1010010 aac

#430
b100000 aac

#540
b1010010 aad

#560
b1010010 aab
b100000 aad

#570
b1010010 aaa
b100000 aab

#580
b100000 aaa
b1010010 aac

#600
b100000 aac

#670
b1010010 aad

#690
b1010010 aab
b100000 aad

#700
b1010010 aaa
b100000 aab

#710
b100000 aaa
b1010010 aac

#730
b100000 aac

#800
b1010010 aad

#820
b1010010 aab
b100000 aad

#830
b1010010 aaa
b100000 aab

#840
b100000 aaa
b1010010 aac

#860
b100000 aac

#930
b1010010 aad

#950
b1010010 aab
b100000 aad

#960
b1010010 aaa
b100000 aab

#970
b100000 aaa
b1010010 aac

#990
b100000 aac

#1060
b1010010 aad

#1080
b1010010 aab
b100000 aad

#1090
b1010010 aaa
b100000 aab

#1100
b100000 aaa
b1010010 aac

#1120
b100000 aac

#1190
b1010010 aad

#1210
b1010010 aab
b100000 aad

#1220
b1010010 aaa
b100000 aab

#1230
b100000 aaa
b1010010 aac

#1250
b100000 aac

#1320
b1010010 aad

#1340
b1010010 aab
b100000 aad

#1350
b1010010 aaa
b100000 aab

#1360
b100000 aaa
b1010010 aac

#1380
b100000 aac

#1450
b1010010 aad

#1470
b1010010 aab
b100000 aad

#1480
b1010010 aaa
b100000 aab

#1490
b100000 aaa
b1010010 aac

#1510
b100000 aac

#1580
b1010010 aad

#1600
b1010010 aab
b100000 aad

#1610
b1010010 aaa
b100000 aab

#1620
b100000 aaa
b1010010 aac

#1640
b100000 aac

#1710
b1010010 aad

#1730
b1010010 aab
b100000 aad

#1740
b1010010 aaa
b100000 aab

#1750
b100000 aaa
b1010010 aac

#1770
b100000 aac

#1840
b1010010 aad

#1860
b1010010 aab
b100000 aad

#1870
b1010010 aaa
b100000 aab

#1880
b100000 aaa
b1010010 aac

#1900
b100000 aac

#1970
b1010010 aad

#1990
b1010010 aab
b100000 aad

#2000
b1010010 aaa
b100000 aab

#2010
b100000 aaa
b1010010 aac

#2030
b100000 aac

#2100
b1010010 aad

#2120
b1010010 aab
b100000 aad

#2130
b1010010 aaa
b100000 aab

#2140
b100000 aaa
b1010010 aac

#2160
b100000 aac

#2230
b1010010 aad

#2250
b1010010 aab
b100000 aad

#2260
b1010010 aaa
b100000 aab

#2270
b100000 aaa
b1010010 aac

#2290
b100000 aac

#2360
b1010010 aad

#2380
b1010010 aab
b100000 aad

#2390
b1010010 aaa
b100000 aab

#2400
b100000 aaa
b1010010 aac

#2420
b100000 aac

#2490
b1010010 aad

#2510
b1010010 aab
b100000 aad

#2520
b1010010 aaa
b100000 aab

#2530
b100000 aaa
b1010010 aac

#2550
b100000 aac

#2620
b1010010 aad

#2640
b1010010 aab
b100000 aad

#2650
b1010010 aaa
b100000 aab

#2660
b100000 aaa
b1010010 aac

#2680
b100000 aac

#2750
b1010010 aad

#2770
b1010010 aab
b100000 aad

#2780
b1010010 aaa
b100000 aab

#2790
b100000 aaa
b1010010 aac

#2810
b100000 aac

#2880
b1010010 aad

#2900
b1010010 aab
b100000 aad

#2910
b1010010 aaa
b100000 aab

#2920
b100000 aaa
b1010010 aac

#2940
b100000 aac

#3010
b1010010 aad

#3030
b1010010 aab
b100000 aad

#3040
b1010010 aaa
b100000 aab

#3050
b100000 aaa
b1010010 aac

#3070
b100000 aac

#3140
b1010010 aad

#3160
b1010010 aab
b100000 aad

#3170
b1010010 aaa
b100000 aab

#3180
b100000 aaa
b1010010 aac

#3200
b100000 aac

#3270
b1010010 aad

#3290
b1010010 aab
b100000 aad

#3300
b1010010 aaa
b100000 aab

#3310
b100000 aaa
b1010010 aac

#3330
b100000 aac

#3400
b1010010 aad

#3420
b1010010 aab
b100000 aad

#3430
b1010010 aaa
b100000 aab

#3440
b100000 aaa
b1010010 aac

#3460
b100000 aac

#3530
b1010010 aad

#3550
b1010010 aab
b100000 aad

#3560
b1010010 aaa
b100000 aab

#3570
b100000 aaa
b1010010 aac

#3590
b100000 aac

#3660
b1010010 aad

#3680
b1010010 aab
b100000 aad

#3690
b1010010 aaa
b100000 aab

#3700
b100000 aaa
b1010010 aac

#3720
b100000 aac

#3790
b1010010 aad

#3810
b1010010 aab
b100000 aad

#3820
b1010010 aaa
b100000 aab

#3830
b100000 aaa
b1010010 aac

#3850
b100000 aac

#3920
b1010010 aad

#3940
b1010010 aab
b100000 aad

#3950
b1010010 aaa
b100000 aab

#3960
b100000 aaa
b1010010 aac

#3980
b100000 aac

#4050
b1010010 aad

#4070
b1010010 aab
b100000 aad

#4080
b1010010 aaa
b100000 aab

#4090
b100000 aaa
b1010010 aac

#4110
b100000 aac

#4180
b1010010 aad

#4200
b1010010 aab
b100000 aad

#4210
b1010010 aaa
b100000 aab

#4220
b100000 aaa
b1010010 aac

#4240
b100000 aac

#4310
b1010010 aad

#4330
b1010010 aab
b100000 aad

#4340
b1010010 aaa
b100000 aab

#4350
b100000 aaa
b1010010 aac

#4370
b100000 aac

#4440
b1010010 aad

#4460
b1010010 aab
b100000 aad

#4470
b1010010 aaa
b100000 aab

#4480
b100000 aaa
b1010010 aac

#4500
b100000 aac

#4570
b1010010 aad

#4590
b1010010 aab
b100000 aad

#4600
b1010010 aaa
b100000 aab

#4610
b100000 aaa
b1010010 aac

#4630
b100000 aac

#4700
b1010010 aad

#4720
b1010010 aab
b100000 aad

#4730
b1010010 aaa
b100000 aab

#4740
b100000 aaa
b1010010 aac

#4760
b100000 aac

#4830
b1010010 aad

#4850
b1010010 aab
b100000 aad

#4860
b1010010 aaa
b100000 aab

#4870
b100000 aaa
b1010010 aac

#4890
b100000 aac

#4960
b1010010 aad

#4980
b1010010 aab
b100000 aad

#4990
b1010010 aaa
b100000 aab

#5000
b100000 aaa
b1010010 aac

#5020
b100000 aac

#5090
b1010010 aad

#5110
b1010010 aab
b100000 aad

#5120
b1010010 aaa
b100000 aab

#5130
b100000 aaa
b1010010 aac

#5150
b100000 aac

#5220
b1010010 aad

#5240
b1010010 aab
b100000 aad

#5250
b1010010 aaa
b100000 aab

#5260
b100000 aaa
b1010010 aac

#5280
b100000 aac

#5350
b1010010 aad

#5370
b1010010 aab
b100000 aad

#5380
b1010010 aaa
b100000 aab

#5390
b100000 aaa
b1010010 aac

#5410
b100000 aac

#5480
b1010010 aad

#5500
b1010010 aab
b100000 aad

#5510
b1010010 aaa
b100000 aab

#5520
b100000 aaa
b1010010 aac

#5540
b100000 aac

#5610
b1010010 aad

#5630
b1010010 aab
b100000 aad

#5640
b1010010 aaa
b100000 aab

#5650
b100000 aaa
b1010010 aac

#5670
b100000 aac

#5740
b1010010 aad

#5760
b1010010 aab
b100000 aad

#5770
b1010010 aaa
b100000 aab

#5780
b100000 aaa
b1010010 aac

#5800
b100000 aac

#5870
b1010010 aad

#5890
b1010010 aab
b100000 aad

#5900
b1010010 aaa
b100000 aab

#5910
b100000 aaa
b1010010 aac

#5930
b100000 aac

#6000
b1010010 aad

#6020
b1010010 aab
b100000 aad

#6030
b1010010 aaa
b100000 aab

#6040
b100000 aaa
b1010010 aac

#6060
b100000 aac

#6130
b1010010 aad

#6150
b1010010 aab
b100000 aad

#6160
b1010010 aaa
b100000 aab

#6170
b100000 aaa
b1010010 aac

#6190
b100000 aac

#6260
b1010010 aad

#6280
b1010010 aab
b100000 aad

#6290
b1010010 aaa
b100000 aab

#6300
b100000 aaa
b1010010 aac

#6320
b100000 aac

#6390
b1010010 aad

#6410
b1010010 aab
b100000 aad

#6420
b1010010 aaa
b100000 aab

#6430
b100000 aaa
b1010010 aac

#6450
b100000 aac

#6520
b1010010 aad

#6540
b1010010 aab
b100000 aad

#6550
b1010010 aaa
b100000 aab

#6560
b100000 aaa
b1010010 aac

#6580
b100000 aac

#6650
b1010010 aad

#6670
b1010010 aab
b100000 aad

#6680
b1010010 aaa
b100000 aab

#6690
b100000 aaa
b1010010 aac

#6710
b100000 aac

#6780
b1010010 aad

#6800
b1010010 aab
b100000 aad

#6810
b1010010 aaa
b100000 aab

#6820
b100000 aaa
b1010010 aac

#6840
b100000 aac

#6910
b1010010 aad

#6930
b1010010 aab
b100000 aad

#6940
b1010010 aaa
b100000 aab

#6950
b100000 aaa
b1010010 aac

#6970
b100000 aac

#7040
b1010010 aad

#7060
b1010010 aab
b100000 aad

#7070
b1010010 aaa
b100000 aab

#7080
b100000 aaa
b1010010 aac

#7100
b100000 aac

#7170
b1010010 aad

#7190
b1010010 aab
b100000 aad

#7200
b1010010 aaa
b100000 aab

#7210
b100000 aaa
b1010010 aac

#7230
b100000 aac

#7300
b1010010 aad

#7320
b1010010 aab
b100000 aad

#7330
b1010010 aaa
b100000 aab

#7340
b100000 aaa
b1010010 aac

#7360
b100000 aac

#7430
b1010010 aad

#7450
b1010010 aab
b100000 aad

#7460
b1010010 aaa
b100000 aab

#7470
b100000 aaa
b1010010 aac

#7490
b100000 aac

#7560
b1010010 aad

#7580
b1010010 aab
b100000 aad

#7590
b1010010 aaa
b100000 aab

#7600
b100000 aaa
b1010010 aac

#7620
b100000 aac

#7690
b1010010 aad

#7710
b1010010 aab
b100000 aad

#7720
b1010010 aaa
b100000 aab

#7730
b100000 aaa
b1010010 aac

#7750
b100000 aac

#7820
b1010010 aad

#7840
b1010010 aab
b100000 aad

#7850
b1010010 aaa
b100000 aab

#7860
b100000 aaa
b1010010 aac

#7880
b100000 aac

#7950
b1010010 aad

#7970
b1010010 aab
b100000 aad

#7980
b1010010 aaa
b100000 aab

#7990
b100000 aaa
b1010010 aac

#8010
b100000 aac

#8080
b1010010 aad

#8100
b1010010 aab
b100000 aad

#8110
b1010010 aaa
b100000 aab

#8120
b100000 aaa
b1010010 aac

#8140
b100000 aac

#8210
b1010010 aad

#8230
b1010010 aab
b100000 aad

#8240
b1010010 aaa
b100000 aab

#8250
b100000 aaa
b1010010 aac

#8270
b100000 aac

#8340
b1010010 aad

#8360
b1010010 aab
b100000 aad

#8370
b1010010 aaa
b100000 aab

#8380
b100000 aaa
b1010010 aac

#8400
b100000 aac

#8470
b1010010 aad

#8490
b1010010 aab
b100000 aad

#8500
b1010010 aaa
b100000 aab

#8510
b100000 aaa
b1010010 aac

#8530
b100000 aac

#8600
b1010010 aad

#8620
b1010010 aab
b100000 aad

#8630
b1010010 aaa
b100000 aab

#8640
b100000 aaa
b1010010 aac

#8660
b100000 aac

#8730
b1010010 aad

#8750
b1010010 aab
b100000 aad

#8760
b1010010 aaa
b100000 aab

#8770
b100000 aaa
b1010010 aac

#8790
b100000 aac

#8860
b1010010 aad

#8880
b1010010 aab
b100000 aad

#8890
b1010010 aaa
b100000 aab

#8900
b100000 aaa
b1010010 aac

#8920
b100000 aac

#8990
b1010010 aad

#9010
b1010010 aab
b100000 aad

#9020
b1010010 aaa
b100000 aab

#9030
b100000 aaa
b1010010 aac

#9050
b100000 aac

#9120
b1010010 aad

#9140
b1010010 aab
b100000 aad

#9150
b1010010 aaa
b100000 aab

#9160
b100000 aaa
b1010010 aac

#9180
b100000 aac

#9250
b1010010 aad

#9270
b1010010 aab
b100000 aad

#9280
b1010010 aaa
b100000 aab

#9290
b100000 aaa
b1010010 aac

#9310
b100000 aac

#9380
b1010010 aad

#9400
b1010010 aab
b100000 aad

#9410
b1010010 aaa
b100000 aab

#9420
b100000 aaa
b1010010 aac

#9440
b100000 aac

#9510
b1010010 aad

#9530
b1010010 aab
b100000 aad

#9540
b1010010 aaa
b100000 aab

#9550
b100000 aaa
b1010010 aac

#9570
b100000 aac

#9640
b1010010 aad

#9660
b1010010 aab
b100000 aad

#9670
b1010010 aaa
b100000 aab

#9680
b100000 aaa
b1010010 aac

#9700
b100000 aac

#9770
b1010010 aad

#9790
b1010010 aab
b100000 aad

#9800
b1010010 aaa
b100000 aab

#9810
b100000 aaa
b1010010 aac

#9830
b100000 aac

#9900
b1010010 aad

#9920
b1010010 aab
b100000 aad

#9930
b1010010 aaa
b100000 aab

#9940
b100000 aaa
b1010010 aac

#9960
b100000 aac

#10030
b1010010 aad

#10050
b1010010 aab
b100000 aad

#10060
b1010010 aaa
b100000 aab

#10070
b100000 aaa
b1010010 aac

#10090
b100000 aac

#10160
b1010010 aad

#10180
b1010010 aab
b100000 aad

#10190
b1010010 aaa
b100000 aab

#10200
b100000 aaa
b1010010 aac

#10220
b100000 aac

#10290
b1010010 aad

#10310
b1010010 aab
b100000 aad

#10320
b1010010 aaa
b100000 aab

#10330
b100000 aaa
b1010010 aac

#10350
b100000 aac

#10420
b1010010 aad

#10440
b1010010 aab
b100000 aad

#10450
b1010010 aaa
b100000 aab

#10460
b100000 aaa
b1010010 aac

#10480
b100000 aac

#10550
b1010010 aad

#10570
b1010010 aab
b100000 aad

#10580
b1010010 aaa
b100000 aab

#10590
b100000 aaa
b1010010 aac

#10610
b100000 aac

#10680
b1010010 aad

#10700
b1010010 aab
b100000 aad

#10710
b1010010 aaa
b100000 aab

#10720
b100000 aaa
b1010010 aac

#10740
b100000 aac

#10810
b1010010 aad

#10830
b1010010 aab
b100000 aad

#10840
b1010010 aaa
b100000 aab

#10850
b100000 aaa
b1010010 aac

#10870
b100000 aac

#10940
b1010010 aad

#10960
b1010010 aab
b100000 aad

#10970
b1010010 aaa
b100000 aab

#10980
b100000 aaa
b1010010 aac

#11000
b100000 aac

#11070
b1010010 aad

#11090
b1010010 aab
b100000 aad

#11100
b1010010 aaa
b100000 aab

#11110
b100000 aaa
b1010010 aac

#11130
b100000 aac

#11200
b1010010 aad

#11220
b1010010 aab
b100000 aad

#11230
b1010010 aaa
b100000 aab

#11240
b100000 aaa
b1010010 aac

#11260
b100000 aac

#11330
b1010010 aad

#11350
b1010010 aab
b100000 aad

#11360
b1010010 aaa
b100000 aab

#11370
b100000 aaa
b1010010 aac

#11390
b100000 aac

#11460
b1010010 aad

#11480
b1010010 aab
b100000 aad

#11490
b1010010 aaa
b100000 aab

#11500
b100000 aaa
b1010010 aac

#11520
b100000 aac

#11590
b1010010 aad

#11610
b1010010 aab
b100000 aad

#11620
b1010010 aaa
b100000 aab

#11630
b100000 aaa
b1010010 aac

#11650
b100000 aac

#11720
b1010010 aad

#11740
b1010010 aab
b100000 aad

#11750
b1010010 aaa
b100000 aab

#11760
b100000 aaa
b1010010 aac

#11780
b100000 aac

#11850
b1010010 aad

#11870
b1010010 aab
b100000 aad

#11880
b1010010 aaa
b100000 aab

#11890
b100000 aaa
b1010010 aac

#11910
b100000 aac

#11980
b1010010 aad

#12000
b1010010 aab
b100000 aad

#12010
b1010010 aaa
b100000 aab

#12020
b100000 aaa
b1010010 aac

#12040
b100000 aac

#12110
b1010010 aad

#12130
b1010010 aab
b100000 aad

#12140
b1010010 aaa
b100000 aab

#12150
b100000 aaa
b1010010 aac

#12170
b100000 aac

#12240
b1010010 aad

#12260
b1010010 aab
b100000 aad

#12270
b1010010 aaa
b100000 aab

#12280
b100000 aaa
b1010010 aac

#12300
b100000 aac

#12370
b1010010 aad

#12390
b1010010 aab
b100000 aad

#12400
b1010010 aaa
b100000 aab

#12410
b100000 aaa
b1010010 aac

#12430
b100000 aac

#12500
b1010010 aad

#12520
b1010010 aab
b100000 aad

#12530
b1010010 aaa
b100000 aab

#12540
b100000 aaa
b1010010 aac

#12560
b100000 aac

#12630
b1010010 aad

#12650
b1010010 aab
b100000 aad

#12660
b1010010 aaa
b100000 aab

#12670
b100000 aaa
b1010010 aac

#12690
b100000 aac

#12760
b1010010 aad

#12780
b1010010 aab
b100000 aad

#12790
b1010010 aaa
b100000 aab

#12800
b100000 aaa
b1010010 aac

#12820
b100000 aac

#12890
b1010010 aad

#12910
b1010010 aab
b100000 aad

#12920
b1010010 aaa
b100000 aab

#12930
b100000 aaa
b1010010 aac

#12950
b100000 aac

#13020
b1010010 aad

#13040
b1010010 aab
b100000 aad

#13050
b1010010 aaa
b100000 aab

#13060
b100000 aaa
b1010010 aac

#13080
b100000 aac

#13150
b1010010 aad

#13170
b1010010 aab
b100000 aad

#13180
b1010010 aaa
b100000 aab

#13190
b100000 aaa
b1010010 aac

#13210
b100000 aac

#13280
b1010010 aad

#13300
b1010010 aab
b100000 aad

#13310
b1010010 aaa
b100000 aab

#13320
b100000 aaa
b1010010 aac

#13340
b100000 aac

#13410
b1010010 aad

#13430
b1010010 aab
b100000 aad

#13440
b1010010 aaa
b100000 aab

#13450
b100000 aaa
b1010010 aac

#13470
b100000 aac

#13540
b1010010 aad

#13560
b1010010 aab
b100000 aad

#13570
b1010010 aaa
b100000 aab

#13580
b100000 aaa
b1010010 aac

#13600
b100000 aac

#13670
b1010010 aad

#13690
b1010010 aab
b100000 aad

#13700
b1010010 aaa
b100000 aab

#13710
b100000 aaa
b1010010 aac

#13730
b100000 aac

#13800
b1010010 aad

#13820
b1010010 aab
b100000 aad

#13830
b1010010 aaa
b100000 aab

#13840
b100000 aaa
b1010010 aac

#13860
b100000 aac

#13930
b1010010 aad

#13950
b1010010 aab
b100000 aad

#13960
b1010010 aaa
b100000 aab

#13970
b100000 aaa
b1010010 aac

#13990
b100000 aac

#14060
b1010010 aad

#14080
b1010010 aab
b100000 aad

#14090
b1010010 aaa
b100000 aab

#14100
b100000 aaa
b1010010 aac

#14120
b100000 aac

#14190
b1010010 aad

#14210
b1010010 aab
b100000 aad

#14220
b1010010 aaa
b100000 aab

#14230
b100000 aaa
b1010010 aac

#14250
b100000 aac

#14320
b1010010 aad

#14340
b1010010 aab
b100000 aad

#14350
b1010010 aaa
b100000 aab

#14360
b100000 aaa
b1010010 aac

#14380
b100000 aac

#14450
b1010010 aad

#14470
b1010010 aab
b100000 aad

#14480
b1010010 aaa
b100000 aab

#14490
b100000 aaa
b1010010 aac

#14510
b100000 aac

#14580
b1010010 aad

#14600
b1010010 aab
b100000 aad

#14610
b1010010 aaa
b100000 aab

#14620
b100000 aaa
b1010010 aac

#14640
b100000 aac

#14710
b1010010 aad

#14730
b1010010 aab
b100000 aad

#14740
b1010010 aaa
b100000 aab

#14750
b100000 aaa
b1010010 aac

#14770
b100000 aac

#14840
b1010010 aad

#14860
b1010010 aab
b100000 aad

#14870
b1010010 aaa
b100000 aab

#14880
b100000 aaa
b1010010 aac

#14900
b100000 aac

#14970
b1010010 aad

#14990
b1010010 aab
b100000 aad

#15000
b1010010 aaa
b100000 aab

#15010
b100000 aaa
b1010010 aac

#15030
b100000 aac

#15100
b1010010 aad

#15120
b1010010 aab
b100000 aad

#15130
b1010010 aaa
b100000 aab

#15140
b100000 aaa
b1010010 aac

#15160
b100000 aac

#15230
b1010010 aad

#15250
b1010010 aab
b100000 aad

#15260
b1010010 aaa
b100000 aab

#15270
b100000 aaa
b1010010 aac

#15290
b100000 aac

#15360
b1010010 aad

#15380
b1010010 aab
b100000 aad

#15390
b1010010 aaa
b100000 aab

#15400
b100000 aaa
b1010010 aac

#15420
b100000 aac

#15490
b1010010 aad

#15510
b1010010 aab
b100000 aad

#15520
b1010010 aaa
b100000 aab

#15530
b100000 aaa
b1010010 aac

#15550
b100000 aac

#15620
b1010010 aad

#15640
b1010010 aab
b100000 aad

#15650
b1010010 aaa
b100000 aab

#15660
b100000 aaa
b1010010 aac

#15680
b100000 aac

#15750
b1010010 aad

#15770
b1010010 aab
b100000 aad

#15780
b1010010 aaa
b100000 aab

#15790
b100000 aaa
b1010010 aac

#15810
b100000 aac

#15880
b1010010 aad

#15900
b1010010 aab
b100000 aad

#15910
b1010010 aaa
b100000 aab

#15920
b100000 aaa
b1010010 aac

#15940
b100000 aac

#16010
b1010010 aad

#16030
b1010010 aab
b100000 aad

#16040
b1010010 aaa
b100000 aab

#16050
b100000 aaa
b1010010 aac

#16070
b100000 aac

#16140
b1010010 aad

#16160
b1010010 aab
b100000 aad

#16170
b1010010 aaa
b100000 aab

#16180
b100000 aaa
b1010010 aac

#16200
b100000 aac

#16270
b1010010 aad

#16290
b1010010 aab
b100000 aad

#16300
b1010010 aaa
b100000 aab

#16310
b100000 aaa
b1010010 aac

#16330
b100000 aac

#16400
b1010010 aad

#16420
b1010010 aab
b100000 aad

#16430
b1010010 aaa
b100000 aab

#16440
b100000 aaa
b1010010 aac

#16460
b100000 aac

#16530
b1010010 aad

#16550
b1010010 aab
b100000 aad

#16560
b1010010 aaa
b100000 aab

#16570
b100000 aaa
b1010010 aac

#16590
b100000 aac

#16660
b1010010 aad

#16680
b1010010 aab
b100000 aad

#16690
b1010010 aaa
b100000 aab

#16700
b100000 aaa
b1010010 aac

#16720
b100000 aac

#16790
b1010010 aad

#16810
b1010010 aab
b100000 aad

#16820
b1010010 aaa
b100000 aab

#16830
b100000 aaa
b1010010 aac

#16850
b100000 aac

#16920
b1010010 aad

#16940
b1010010 aab
b100000 aad

#16950
b1010010 aaa
b100000 aab

#16960
b100000 aaa
b1010010 aac

#16980
b100000 aac

#17050
b1010010 aad

#17070
b1010010 aab
b100000 aad

#17080
b1010010 aaa
b100000 aab

#17090
b100000 aaa
b1010010 aac

#17110
b100000 aac

#17180
b1010010 aad

#17200
b1010010 aab
b100000 aad

#17210
b1010010 aaa
b100000 aab

#17220
b100000 aaa
b1010010 aac

#17240
b100000 aac

#17310
b1010010 aad

#17330
b1010010 aab
b100000 aad

#17340
b1010010 aaa
b100000 aab

#17350
b100000 aaa
b1010010 aac

#17370
b100000 aac

#17440
b1010010 aad

#17460
b1010010 aab
b100000 aad

#17470
b1010010 aaa
b100000 aab

#17480
b100000 aaa
b1010010 aac

#17500
b100000 aac

#17570
b1010010 aad

#17590
b1010010 aab
b100000 aad

#17600
b1010010 aaa
b100000 aab

#17610
b100000 aaa
b1010010 aac

#17630
b100000 aac

#17700
b1010010 aad

#17720
b1010010 aab
b100000 aad

#17730
b1010010 aaa
b100000 aab

#17740
b100000 aaa
b1010010 aac

#17760
b100000 aac

#17830
b1010010 aad

#17850
b1010010 aab
b100000 aad

#17860
b1010010 aaa
b100000 aab

#17870
b100000 aaa
b1010010 aac

#17890
b100000 aac

#17960
b1010010 aad

#17980
b1010010 aab
b100000 aad

#17990
b1010010 aaa
b100000 aab

#18000
b100000 aaa
b1010010 aac

#18020
b100000 aac

#18090
b1010010 aad

#18110
b1010010 aab
b100000 aad

#18120
b1010010 aaa
b100000 aab

#18130
b100000 aaa
b1010010 aac

#18150
b100000 aac

#18220
b1010010 aad

#18240
b1010010 aab
b100000 aad

#18250
b1010010 aaa
b100000 aab

#18260
b100000 aaa
b1010010 aac

#18280
b100000 aac

#18350
b1010010 aad

#18370
b1010010 aab
b100000 aad

#18380
b1010010 aaa
b100000 aab

#18390
b100000 aaa
b1010010 aac

#18410
b100000 aac

#18480
b1010010 aad

#18500
b1010010 aab
b100000 aad

#18510
b1010010 aaa
b100000 aab

#18520
b100000 aaa
b1010010 aac

#18540
b100000 aac

#18610
b1010010 aad

#18630
b1010010 aab
b100000 aad

#18640
b1010010 aaa
b100000 aab

#18650
b100000 aaa
b1010010 aac

#18670
b100000 aac

#18740
b1010010 aad

#18760
b1010010 aab
b100000 aad

#18770
b1010010 aaa
b100000 aab

#18780
b100000 aaa
b1010010 aac

#18800
b100000 aac

#18870
b1010010 aad

#18890
b1010010 aab
b100000 aad

#18900
b1010010 aaa
b100000 aab

#18910
b100000 aaa
b1010010 aac

#18930
b100000 aac

#19000
b1010010 aad

#19020
b1010010 aab
b100000 aad

#19030
b1010010 aaa
b100000 aab

#19040
b100000 aaa
b1010010 aac

#19060
b100000 aac

#19130
b1010010 aad

#19150
b1010010 aab
b100000 aad

#19160
b1010010 aaa
b100000 aab

#19170
b100000 aaa
b1010010 aac

#19190
b100000 aac

#19260
b1010010 aad

#19280
b1010010 aab
b100000 aad

#19290
b1010010 aaa
b100000 aab

#19300
b100000 aaa
b1010010 aac

#19320
b100000 aac

#19390
b1010010 aad

#19410
b1010010 aab
b100000 aad

#19420
b1010010 aaa
b100000 aab

#19430
b100000 aaa
b1010010 aac

#19450
b100000 aac

#19520
b1010010 aad

#19540
b1010010 aab
b100000 aad

#19550
b1010010 aaa
b100000 aab

#19560
b100000 aaa
b1010010 aac

#19580
b100000 aac

#19650
b1010010 aad

#19670
b1010010 aab
b100000 aad

#19680
b1010010 aaa
b100000 aab

#19690
b100000 aaa
b1010010 aac

#19710
b100000 aac

#19780
b1010010 aad

#19800
b1010010 aab
b100000 aad

#19810
b1010010 aaa
b100000 aab

#19820
b100000 aaa
b1010010 aac

#19840
b100000 aac

#19910
b1010010 aad

#19930
b1010010 aab
b100000 aad

#19940
b1010010 aaa
b100000 aab

#19950
b100000 aaa
b1010010 aac

#19970
b100000 aac

#20040
b1010010 aad

#20060
b1010010 aab
b100000 aad

#20070
b1010010 aaa
b100000 aab

#20080
b100000 aaa
b1010010 aac

#20100
b100000 aac

#20170
b1010010 aad

#20190
b1010010 aab
b100000 aad

#20200
b1010010 aaa
b100000 aab

#20210
b100000 aaa
b1010010 aac

#20230
b100000 aac

#20300
b1010010 aad

#20320
b1010010 aab
b100000 aad

#20330
b1010010 aaa
b100000 aab

#20340
b100000 aaa
b1010010 aac

#20360
b100000 aac

#20430
b1010010 aad

#20450
b1010010 aab
b100000 aad

#20460
b1010010 aaa
b100000 aab

#20470
b100000 aaa
b1010010 aac

#20490
b100000 aac

#20560
b1010010 aad

#20580
b1010010 aab
b100000 aad

#20590
b1010010 aaa
b100000 aab

#20600
b100000 aaa
b1010010 aac

#20620
b100000 aac

#20690
b1010010 aad

#20710
b1010010 aab
b100000 aad

#20720
b1010010 aaa
b100000 aab

#20730
b100000 aaa
b1010010 aac

#20750
b100000 aac

#20820
b1010010 aad

#20840
b1010010 aab
b100000 aad

#20850
b1010010 aaa
b100000 aab

#20860
b100000 aaa
b1010010 aac

#20880
b100000 aac

#20950
b1010010 aad

#20970
b1010010 aab
b100000 aad

#20980
b1010010 aaa
b100000 aab

#20990
b100000 aaa
b1010010 aac

#21010
b100000 aac

#21080
b1010010 aad

#21100
b1010010 aab
b100000 aad

#21110
b1010010 aaa
b100000 aab

#21120
b100000 aaa
b1010010 aac

#21140
b100000 aac

#21210
b1010010 aad

#21230
b1010010 aab
b100000 aad

#21240
b1010010 aaa
b100000 aab

#21250
b100000 aaa
b1010010 aac

#21270
b100000 aac

#21340
b1010010 aad

#21360
b1010010 aab
b100000 aad

#21370
b1010010 aaa
b100000 aab

#21380
b100000 aaa
b1010010 aac

#21400
b100000 aac

#21470
b1010010 aad

#21490
b1010010 aab
b100000 aad

#21500
b1010010 aaa
b100000 aab

#21510
b100000 aaa
b1010010 aac

#21530
b100000 aac

#21600
b1010010 aad

#21620
b1010010 aab
b100000 aad

#21630
b1010010 aaa
b100000 aab

#21640
b100000 aaa
b1010010 aac

#21660
b100000 aac

#21730
b1010010 aad

#21750
b1010010 aab
b100000 aad

#21760
b1010010 aaa
b100000 aab

#21770
b100000 aaa
b1010010 aac

#21790
b100000 aac

#21860
b1010010 aad

#21880
b1010010 aab
b100000 aad

#21890
b1010010 aaa
b100000 aab

#21900
b100000 aaa
b1010010 aac

#21920
b100000 aac

#21990
b1010010 aad

#22010
b1010010 aab
b100000 aad

#22020
b1010010 aaa
b100000 aab

#22030
b100000 aaa
b1010010 aac

#22050
b100000 aac

#22120
b1010010 aad

#22140
b1010010 aab
b100000 aad

#22150
b1010010 aaa
b100000 aab

#22160
b100000 aaa
b1010010 aac

#22180
b100000 aac

#22250
b1010010 aad

#22270
b1010010 aab
b100000 aad

#22280
b1010010 aaa
b100000 aab

#22290
b100000 aaa
b1010010 aac

#22310
b100000 aac

#22380
b1010010 aad

#22400
b1010010 aab
b100000 aad

#22410
b1010010 aaa
b100000 aab

#22420
b100000 aaa
b1010010 aac

#22440
b100000 aac

#22510
b1010010 aad

#22530
b1010010 aab
b100000 aad

#22540
b1010010 aaa
b100000 aab

#22550
b100000 aaa
b1010010 aac

#22570
b100000 aac

#22640
b1010010 aad

#22660
b1010010 aab
b100000 aad

#22670
b1010010 aaa
b100000 aab

#22680
b100000 aaa
b1010010 aac

#22700
b100000 aac

#22770
b1010010 aad

#22790
b1010010 aab
b100000 aad

#22800
b1010010 aaa
b100000 aab

#22810
b100000 aaa
b1010010 aac

#22830
b100000 aac

#22900
b1010010 aad

#22920
b1010010 aab
b100000 aad

