vpc/src-snk/testlogs/FCFS.vpc.xml/Mem.vcd
$date
     Aug 02, 2011       08:02:03
$end

$version
              SystemC 2.2.0 --- Jan 16 2009 10:08:32
$end

$timescale
     1 ns
$end

$scope module SystemC $end
$var wire    8  aaa  msg_top.src_2_queue [7:0]  $end
$var wire    8  aab  msg_queue_2_top.snk [7:0]  $end
$upscope $end
$enddefinitions  $end

$comment
All initial values are dumped below at time 0 sec = 0 timescale units.
$end

$dumpvars
b100000 aaa
b100000 aab
$end

#30
b1010010 aaa

#50
b1110010 aaa

#60
b1110111 aab

#70
b1110111 aaa
b1010010 aab

#90
b1010111 aaa
b100000 aab

#110
b1010010 aaa

#130
b100000 aaa

#180
b1010010 aaa

#190
b1110111 aaa

#200
b1010010 aaa

#210
b1110111 aaa

#220
b1010111 aaa
b1110111 aab

#230
b1110111 aaa

#240
b1010010 aaa

#250
b1110111 aaa

#260
b1010010 aaa

#280
b100000 aaa
b1010010 aab

#300
b1010010 aaa
b100000 aab

#320
b1110010 aaa

#340
b100000 aaa

#400
b1010010 aab

#420
b100000 aab

#430
b1010010 aaa

#450
b100000 aaa

#530
b1010010 aab

#550
b100000 aab

#560
b1010010 aaa

#580
b100000 aaa

#660
b1010010 aab

#680
b100000 aab

#690
b1010010 aaa

#710
b100000 aaa

#790
b1010010 aab

#810
b100000 aab

#820
b1010010 aaa

#840
b100000 aaa

#920
b1010010 aab

#940
b100000 aab

#950
b1010010 aaa

#970
b100000 aaa

#1050
b1010010 aab

#1070
b100000 aab

#1080
b1010010 aaa

#1100
b100000 aaa

#1180
b1010010 aab

#1200
b100000 aab

#1210
b1010010 aaa

#1230
b100000 aaa

#1310
b1010010 aab

#1330
b100000 aab

#1340
b1010010 aaa

#1360
b100000 aaa

#1440
b1010010 aab

#1460
b100000 aab

#1470
b1010010 aaa

#1490
b100000 aaa

#1570
b1010010 aab

#1590
b100000 aab

#1600
b1010010 aaa

#1620
b100000 aaa

#1700
b1010010 aab

#1720
b100000 aab

#1730
b1010010 aaa

#1750
b100000 aaa

#1830
b1010010 aab

#1850
b100000 aab

#1860
b1010010 aaa

#1880
b100000 aaa

#1960
b1010010 aab

#1980
b100000 aab

#1990
b1010010 aaa

#2010
b100000 aaa

#2090
b1010010 aab

#2110
b100000 aab

#2120
b1010010 aaa

#2140
b100000 aaa

#2220
b1010010 aab

#2240
b100000 aab

#2250
b1010010 aaa

#2270
b100000 aaa

#2350
b1010010 aab

#2370
b100000 aab

#2380
b1010010 aaa

#2400
b100000 aaa

#2480
b1010010 aab

#2500
b100000 aab

#2510
b1010010 aaa

#2530
b100000 aaa

#2610
b1010010 aab

#2630
b100000 aab

#2640
b1010010 aaa

#2660
b100000 aaa

#2740
b1010010 aab

#2760
b100000 aab

#2770
b1010010 aaa

#2790
b100000 aaa

#2870
b1010010 aab

#2890
b100000 aab

#2900
b1010010 aaa

#2920
b100000 aaa

#3000
b1010010 aab

#3020
b100000 aab

#3030
b1010010 aaa

#3050
b100000 aaa

#3130
b1010010 aab

#3150
b100000 aab

#3160
b1010010 aaa

#3180
b100000 aaa

#3260
b1010010 aab

#3280
b100000 aab

#3290
b1010010 aaa

#3310
b100000 aaa

#3390
b1010010 aab

#3410
b100000 aab

#3420
b1010010 aaa

#3440
b100000 aaa

#3520
b1010010 aab

#3540
b100000 aab

#3550
b1010010 aaa

#3570
b100000 aaa

#3650
b1010010 aab

#3670
b100000 aab

#3680
b1010010 aaa

#3700
b100000 aaa

#3780
b1010010 aab

#3800
b100000 aab

#3810
b1010010 aaa

#3830
b100000 aaa

#3910
b1010010 aab

#3930
b100000 aab

#3940
b1010010 aaa

#3960
b100000 aaa

#4040
b1010010 aab

#4060
b100000 aab

#4070
b1010010 aaa

#4090
b100000 aaa

#4170
b1010010 aab

#4190
b100000 aab

#4200
b1010010 aaa

#4220
b100000 aaa

#4300
b1010010 aab

#4320
b100000 aab

#4330
b1010010 aaa

#4350
b100000 aaa

#4430
b1010010 aab

#4450
b100000 aab

#4460
b1010010 aaa

#4480
b100000 aaa

#4560
b1010010 aab

#4580
b100000 aab

#4590
b1010010 aaa

#4610
b100000 aaa

#4690
b1010010 aab

#4710
b100000 aab

#4720
b1010010 aaa

#4740
b100000 aaa

#4820
b1010010 aab

#4840
b100000 aab

#4850
b1010010 aaa

#4870
b100000 aaa

#4950
b1010010 aab

#4970
b100000 aab

#4980
b1010010 aaa

#5000
b100000 aaa

#5080
b1010010 aab

#5100
b100000 aab

#5110
b1010010 aaa

#5130
b100000 aaa

#5210
b1010010 aab

#5230
b100000 aab

#5240
b1010010 aaa

#5260
b100000 aaa

#5340
b1010010 aab

#5360
b100000 aab

#5370
b1010010 aaa

#5390
b100000 aaa

#5470
b1010010 aab

#5490
b100000 aab

#5500
b1010010 aaa

#5520
b100000 aaa

#5600
b1010010 aab

#5620
b100000 aab

#5630
b1010010 aaa

#5650
b100000 aaa

#5730
b1010010 aab

#5750
b100000 aab

#5760
b1010010 aaa

#5780
b100000 aaa

#5860
b1010010 aab

#5880
b100000 aab

#5890
b1010010 aaa

#5910
b100000 aaa

#5990
b1010010 aab

#6010
b100000 aab

#6020
b1010010 aaa

#6040
b100000 aaa

#6120
b1010010 aab

#6140
b100000 aab

#6150
b1010010 aaa

#6170
b100000 aaa

#6250
b1010010 aab

#6270
b100000 aab

#6280
b1010010 aaa

#6300
b100000 aaa

#6380
b1010010 aab

#6400
b100000 aab

#6410
b1010010 aaa

#6430
b100000 aaa

#6510
b1010010 aab

#6530
b100000 aab

#6540
b1010010 aaa

#6560
b100000 aaa

#6640
b1010010 aab

#6660
b100000 aab

#6670
b1010010 aaa

#6690
b100000 aaa

#6770
b1010010 aab

#6790
b100000 aab

#6800
b1010010 aaa

#6820
b100000 aaa

#6900
b1010010 aab

#6920
b100000 aab

#6930
b1010010 aaa

#6950
b100000 aaa

#7030
b1010010 aab

#7050
b100000 aab

#7060
b1010010 aaa

#7080
b100000 aaa

#7160
b1010010 aab

#7180
b100000 aab

#7190
b1010010 aaa

#7210
b100000 aaa

#7290
b1010010 aab

#7310
b100000 aab

#7320
b1010010 aaa

#7340
b100000 aaa

#7420
b1010010 aab

#7440
b100000 aab

#7450
b1010010 aaa

#7470
b100000 aaa

#7550
b1010010 aab

#7570
b100000 aab

#7580
b1010010 aaa

#7600
b100000 aaa

#7680
b1010010 aab

#7700
b100000 aab

#7710
b1010010 aaa

#7730
b100000 aaa

#7810
b1010010 aab

#7830
b100000 aab

#7840
b1010010 aaa

#7860
b100000 aaa

#7940
b1010010 aab

#7960
b100000 aab

#7970
b1010010 aaa

#7990
b100000 aaa

#8070
b1010010 aab

#8090
b100000 aab

#8100
b1010010 aaa

#8120
b100000 aaa

#8200
b1010010 aab

#8220
b100000 aab

#8230
b1010010 aaa

#8250
b100000 aaa

#8330
b1010010 aab

#8350
b100000 aab

#8360
b1010010 aaa

#8380
b100000 aaa

#8460
b1010010 aab

#8480
b100000 aab

#8490
b1010010 aaa

#8510
b100000 aaa

#8590
b1010010 aab

#8610
b100000 aab

#8620
b1010010 aaa

#8640
b100000 aaa

#8720
b1010010 aab

#8740
b100000 aab

#8750
b1010010 aaa

#8770
b100000 aaa

#8850
b1010010 aab

#8870
b100000 aab

#8880
b1010010 aaa

#8900
b100000 aaa

#8980
b1010010 aab

#9000
b100000 aab

#9010
b1010010 aaa

#9030
b100000 aaa

#9110
b1010010 aab

#9130
b100000 aab

#9140
b1010010 aaa

#9160
b100000 aaa

#9240
b1010010 aab

#9260
b100000 aab

#9270
b1010010 aaa

#9290
b100000 aaa

#9370
b1010010 aab

#9390
b100000 aab

#9400
b1010010 aaa

#9420
b100000 aaa

#9500
b1010010 aab

#9520
b100000 aab

#9530
b1010010 aaa

#9550
b100000 aaa

#9630
b1010010 aab

#9650
b100000 aab

#9660
b1010010 aaa

#9680
b100000 aaa

#9760
b1010010 aab

#9780
b100000 aab

#9790
b1010010 aaa

#9810
b100000 aaa

#9890
b1010010 aab

#9910
b100000 aab

#9920
b1010010 aaa

#9940
b100000 aaa

#10020
b1010010 aab

#10040
b100000 aab

#10050
b1010010 aaa

#10070
b100000 aaa

#10150
b1010010 aab

#10170
b100000 aab

#10180
b1010010 aaa

#10200
b100000 aaa

#10280
b1010010 aab

#10300
b100000 aab

#10310
b1010010 aaa

#10330
b100000 aaa

#10410
b1010010 aab

#10430
b100000 aab

#10440
b1010010 aaa

#10460
b100000 aaa

#10540
b1010010 aab

#10560
b100000 aab

#10570
b1010010 aaa

#10590
b100000 aaa

#10670
b1010010 aab

#10690
b100000 aab

#10700
b1010010 aaa

#10720
b100000 aaa

#10800
b1010010 aab

#10820
b100000 aab

#10830
b1010010 aaa

#10850
b100000 aaa

#10930
b1010010 aab

#10950
b100000 aab

#10960
b1010010 aaa

#10980
b100000 aaa

#11060
b1010010 aab

#11080
b100000 aab

#11090
b1010010 aaa

#11110
b100000 aaa

#11190
b1010010 aab

#11210
b100000 aab

#11220
b1010010 aaa

#11240
b100000 aaa

#11320
b1010010 aab

#11340
b100000 aab

#11350
b1010010 aaa

#11370
b100000 aaa

#11450
b1010010 aab

#11470
b100000 aab

#11480
b1010010 aaa

#11500
b100000 aaa

#11580
b1010010 aab

#11600
b100000 aab

#11610
b1010010 aaa

#11630
b100000 aaa

#11710
b1010010 aab

#11730
b100000 aab

#11740
b1010010 aaa

#11760
b100000 aaa

#11840
b1010010 aab

#11860
b100000 aab

#11870
b1010010 aaa

#11890
b100000 aaa

#11970
b1010010 aab

#11990
b100000 aab

#12000
b1010010 aaa

#12020
b100000 aaa

#12100
b1010010 aab

#12120
b100000 aab

#12130
b1010010 aaa

#12150
b100000 aaa

#12230
b1010010 aab

#12250
b100000 aab

#12260
b1010010 aaa

#12280
b100000 aaa

#12360
b1010010 aab

#12380
b100000 aab

#12390
b1010010 aaa

#12410
b100000 aaa

#12490
b1010010 aab

#12510
b100000 aab

#12520
b1010010 aaa

#12540
b100000 aaa

#12620
b1010010 aab

#12640
b100000 aab

#12650
b1010010 aaa

#12670
b100000 aaa

#12750
b1010010 aab

#12770
b100000 aab

#12780
b1010010 aaa

#12800
b100000 aaa

#12880
b1010010 aab

#12900
b100000 aab

#12910
b1010010 aaa

#12930
b100000 aaa

#13010
b1010010 aab

#13030
b100000 aab

#13040
b1010010 aaa

#13060
b100000 aaa

#13140
b1010010 aab

#13160
b100000 aab

#13170
b1010010 aaa

#13190
b100000 aaa

#13270
b1010010 aab

#13290
b100000 aab

#13300
b1010010 aaa

#13320
b100000 aaa

#13400
b1010010 aab

#13420
b100000 aab

#13430
b1010010 aaa

#13450
b100000 aaa

#13530
b1010010 aab

#13550
b100000 aab

#13560
b1010010 aaa

#13580
b100000 aaa

#13660
b1010010 aab

#13680
b100000 aab

#13690
b1010010 aaa

#13710
b100000 aaa

#13790
b1010010 aab

#13810
b100000 aab

#13820
b1010010 aaa

#13840
b100000 aaa

#13920
b1010010 aab

#13940
b100000 aab

#13950
b1010010 aaa

#13970
b100000 aaa

#14050
b1010010 aab

#14070
b100000 aab

#14080
b1010010 aaa

#14100
b100000 aaa

#14180
b1010010 aab

#14200
b100000 aab

#14210
b1010010 aaa

#14230
b100000 aaa

#14310
b1010010 aab

#14330
b100000 aab

#14340
b1010010 aaa

#14360
b100000 aaa

#14440
b1010010 aab

#14460
b100000 aab

#14470
b1010010 aaa

#14490
b100000 aaa

#14570
b1010010 aab

#14590
b100000 aab

#14600
b1010010 aaa

#14620
b100000 aaa

#14700
b1010010 aab

#14720
b100000 aab

#14730
b1010010 aaa

#14750
b100000 aaa

#14830
b1010010 aab

#14850
b100000 aab

#14860
b1010010 aaa

#14880
b100000 aaa

#14960
b1010010 aab

#14980
b100000 aab

#14990
b1010010 aaa

#15010
b100000 aaa

#15090
b1010010 aab

#15110
b100000 aab

#15120
b1010010 aaa

#15140
b100000 aaa

#15220
b1010010 aab

#15240
b100000 aab

#15250
b1010010 aaa

#15270
b100000 aaa

#15350
b1010010 aab

#15370
b100000 aab

#15380
b1010010 aaa

#15400
b100000 aaa

#15480
b1010010 aab

#15500
b100000 aab

#15510
b1010010 aaa

#15530
b100000 aaa

#15610
b1010010 aab

#15630
b100000 aab

#15640
b1010010 aaa

#15660
b100000 aaa

#15740
b1010010 aab

#15760
b100000 aab

#15770
b1010010 aaa

#15790
b100000 aaa

#15870
b1010010 aab

#15890
b100000 aab

#15900
b1010010 aaa

#15920
b100000 aaa

#16000
b1010010 aab

#16020
b100000 aab

#16030
b1010010 aaa

#16050
b100000 aaa

#16130
b1010010 aab

#16150
b100000 aab

#16160
b1010010 aaa

#16180
b100000 aaa

#16260
b1010010 aab

#16280
b100000 aab

#16290
b1010010 aaa

#16310
b100000 aaa

#16390
b1010010 aab

#16410
b100000 aab

#16420
b1010010 aaa

#16440
b100000 aaa

#16520
b1010010 aab

#16540
b100000 aab

#16550
b1010010 aaa

#16570
b100000 aaa

#16650
b1010010 aab

#16670
b100000 aab

#16680
b1010010 aaa

#16700
b100000 aaa

#16780
b1010010 aab

#16800
b100000 aab

#16810
b1010010 aaa

#16830
b100000 aaa

#16910
b1010010 aab

#16930
b100000 aab

#16940
b1010010 aaa

#16960
b100000 aaa

#17040
b1010010 aab

#17060
b100000 aab

#17070
b1010010 aaa

#17090
b100000 aaa

#17170
b1010010 aab

#17190
b100000 aab

#17200
b1010010 aaa

#17220
b100000 aaa

#17300
b1010010 aab

#17320
b100000 aab

#17330
b1010010 aaa

#17350
b100000 aaa

#17430
b1010010 aab

#17450
b100000 aab

#17460
b1010010 aaa

#17480
b100000 aaa

#17560
b1010010 aab

#17580
b100000 aab

#17590
b1010010 aaa

#17610
b100000 aaa

#17690
b1010010 aab

#17710
b100000 aab

#17720
b1010010 aaa

#17740
b100000 aaa

#17820
b1010010 aab

#17840
b100000 aab

#17850
b1010010 aaa

#17870
b100000 aaa

#17950
b1010010 aab

#17970
b100000 aab

#17980
b1010010 aaa

#18000
b100000 aaa

#18080
b1010010 aab

#18100
b100000 aab

#18110
b1010010 aaa

#18130
b100000 aaa

#18210
b1010010 aab

#18230
b100000 aab

#18240
b1010010 aaa

#18260
b100000 aaa

#18340
b1010010 aab

#18360
b100000 aab

#18370
b1010010 aaa

#18390
b100000 aaa

#18470
b1010010 aab

#18490
b100000 aab

#18500
b1010010 aaa

#18520
b100000 aaa

#18600
b1010010 aab

#18620
b100000 aab

#18630
b1010010 aaa

#18650
b100000 aaa

#18730
b1010010 aab

#18750
b100000 aab

#18760
b1010010 aaa

#18780
b100000 aaa

#18860
b1010010 aab

#18880
b100000 aab

#18890
b1010010 aaa

#18910
b100000 aaa

#18990
b1010010 aab

#19010
b100000 aab

#19020
b1010010 aaa

#19040
b100000 aaa

#19120
b1010010 aab

#19140
b100000 aab

#19150
b1010010 aaa

#19170
b100000 aaa

#19250
b1010010 aab

#19270
b100000 aab

#19280
b1010010 aaa

#19300
b100000 aaa

#19380
b1010010 aab

#19400
b100000 aab

#19410
b1010010 aaa

#19430
b100000 aaa

#19510
b1010010 aab

#19530
b100000 aab

#19540
b1010010 aaa

#19560
b100000 aaa

#19640
b1010010 aab

#19660
b100000 aab

#19670
b1010010 aaa

#19690
b100000 aaa

#19770
b1010010 aab

#19790
b100000 aab

#19800
b1010010 aaa

#19820
b100000 aaa

#19900
b1010010 aab

#19920
b100000 aab

#19930
b1010010 aaa

#19950
b100000 aaa

#20030
b1010010 aab

#20050
b100000 aab

#20060
b1010010 aaa

#20080
b100000 aaa

#20160
b1010010 aab

#20180
b100000 aab

#20190
b1010010 aaa

#20210
b100000 aaa

#20290
b1010010 aab

#20310
b100000 aab

#20320
b1010010 aaa

#20340
b100000 aaa

#20420
b1010010 aab

#20440
b100000 aab

#20450
b1010010 aaa

#20470
b100000 aaa

#20550
b1010010 aab

#20570
b100000 aab

#20580
b1010010 aaa

#20600
b100000 aaa

#20680
b1010010 aab

#20700
b100000 aab

#20710
b1010010 aaa

#20730
b100000 aaa

#20810
b1010010 aab

#20830
b100000 aab

#20840
b1010010 aaa

#20860
b100000 aaa

#20940
b1010010 aab

#20960
b100000 aab

#20970
b1010010 aaa

#20990
b100000 aaa

#21070
b1010010 aab

#21090
b100000 aab

#21100
b1010010 aaa

#21120
b100000 aaa

#21200
b1010010 aab

#21220
b100000 aab

#21230
b1010010 aaa

#21250
b100000 aaa

#21330
b1010010 aab

#21350
b100000 aab

#21360
b1010010 aaa

#21380
b100000 aaa

#21460
b1010010 aab

#21480
b100000 aab

#21490
b1010010 aaa

#21510
b100000 aaa

#21590
b1010010 aab

#21610
b100000 aab

#21620
b1010010 aaa

#21640
b100000 aaa

#21720
b1010010 aab

#21740
b100000 aab

#21750
b1010010 aaa

#21770
b100000 aaa

#21850
b1010010 aab

#21870
b100000 aab

#21880
b1010010 aaa

#21900
b100000 aaa

#21980
b1010010 aab

#22000
b100000 aab

#22010
b1010010 aaa

#22030
b100000 aaa

#22110
b1010010 aab

#22130
b100000 aab

#22140
b1010010 aaa

#22160
b100000 aaa

#22240
b1010010 aab

#22260
b100000 aab

#22270
b1010010 aaa

#22290
b100000 aaa

#22370
b1010010 aab

#22390
b100000 aab

#22400
b1010010 aaa

#22420
b100000 aaa

#22500
b1010010 aab

#22520
b100000 aab

#22530
b1010010 aaa

#22550
b100000 aaa

#22630
b1010010 aab

#22650
b100000 aab

#22660
b1010010 aaa

#22680
b100000 aaa

#22760
b1010010 aab

#22780
b100000 aab

#22790
b1010010 aaa

#22810
b100000 aaa

#22890
b1010010 aab

#22910
b100000 aab

#22920
b1010010 aaa

#22940
b100000 aaa

#23020
b1010010 aab

#23040
b100000 aab

#23050
b1010010 aaa

#23070
b100000 aaa

#23150
b1010010 aab

#23170
b100000 aab

#23180
b1010010 aaa

#23200
b100000 aaa

#23280
b1010010 aab

#23300
b100000 aab

#23310
b1010010 aaa

#23330
b100000 aaa

#23410
b1010010 aab

#23430
b100000 aab

#23440
b1010010 aaa

#23460
b100000 aaa

#23540
b1010010 aab

#23560
b100000 aab

#23570
b1010010 aaa

#23590
b100000 aaa

#23670
b1010010 aab

#23690
b100000 aab

#23700
b1010010 aaa

#23720
b100000 aaa

#23800
b1010010 aab

#23820
b100000 aab

#23830
b1010010 aaa

#23850
b100000 aaa

#23930
b1010010 aab

#23950
b100000 aab

#23960
b1010010 aaa

#23980
b100000 aaa

#24060
b1010010 aab

#24080
b100000 aab

#24090
b1010010 aaa

#24110
b100000 aaa

#24190
b1010010 aab

#24210
b100000 aab

#24220
b1010010 aaa

#24240
b100000 aaa

#24320
b1010010 aab

#24340
b100000 aab

#24350
b1010010 aaa

#24370
b100000 aaa

#24450
b1010010 aab

#24470
b100000 aab

#24480
b1010010 aaa

#24500
b100000 aaa

#24580
b1010010 aab

#24600
b100000 aab

#24610
b1010010 aaa

#24630
b100000 aaa

#24710
b1010010 aab

#24730
b100000 aab

#24740
b1010010 aaa

#24760
b100000 aaa

#24840
b1010010 aab

#24860
b100000 aab

#24870
b1010010 aaa

#24890
b100000 aaa

#24970
b1010010 aab

#24990
b100000 aab

#25090
b1010010 aab

#25110
b100000 aab

#25210
b1010010 aab

#25230
b100000 aab

#25330
b1010010 aab

#25350
b100000 aab

#25450
b1010010 aab

#25470
b100000 aab

#25570
b1010010 aab

#25590
b100000 aab

#25690
b1010010 aab

#25710
b100000 aab

#25810
b1010010 aab

#25830
b100000 aab

#25930
b1010010 aab

#25950
b100000 aab

