vpc/src-snk/testlogs/FCFS.vpc.xml/Mem.vcd
$date
     Oct 06, 2011       13:16:23
$end

$version
              SystemC 2.2.0 --- Aug 31 2011 16:07:50
$end

$timescale
     1 ns
$end

$scope module SystemC $end
$var wire    8  aaa  msg_top.src_2_queue [7:0]  $end
$var wire    8  aab  msg_queue_2_top.snk [7:0]  $end
$upscope $end
$enddefinitions  $end

$comment
All initial values are dumped below at time 0 sec = 0 timescale units.
$end

$dumpvars
b100000 aaa
b100000 aab
$end

#40
b1010010 aaa

#60
b100000 aaa

#70
b1110111 aaa
b1010010 aab

#90
b1010010 aaa
b100000 aab

#100
b1110111 aaa

#110
b1010010 aaa

#130
b100000 aaa

#190
b1010010 aaa

#200
b1110111 aaa

#210
b1010111 aaa

#230
b1010010 aaa

#240
b1110111 aaa

#250
b1010010 aaa
b1110111 aab

#270
b100000 aaa
b1010010 aab

#280
b1110111 aaa

#290
b1010010 aaa
b100000 aab

#310
b100000 aaa

#380
b1010010 aaa

#390
b1110111 aaa

#400
b1010111 aaa
b1110111 aab

#420
b1010010 aaa

#440
b1110111 aaa
b1010010 aab

#460
b1010010 aaa
b100000 aab

#480
b100000 aaa

#570
b1010010 aab

#590
b100000 aab

#680
b1010010 aaa

#700
b100000 aaa
b1010010 aab

#720
b100000 aab

#810
b1010010 aaa

#830
b100000 aaa
b1010010 aab

#850
b100000 aab

#940
b1010010 aaa

#960
b100000 aaa
b1010010 aab

#980
b100000 aab

#1070
b1010010 aaa

#1090
b100000 aaa
b1010010 aab

#1110
b100000 aab

#1200
b1010010 aaa

#1220
b100000 aaa
b1010010 aab

#1240
b100000 aab

#1330
b1010010 aaa

#1350
b100000 aaa
b1010010 aab

#1370
b100000 aab

#1460
b1010010 aaa

#1480
b100000 aaa
b1010010 aab

#1500
b100000 aab

#1590
b1010010 aaa

#1610
b100000 aaa
b1010010 aab

#1630
b100000 aab

#1720
b1010010 aaa

#1740
b100000 aaa
b1010010 aab

#1760
b100000 aab

#1850
b1010010 aaa

#1870
b100000 aaa
b1010010 aab

#1890
b100000 aab

#1980
b1010010 aaa

#2000
b100000 aaa
b1010010 aab

#2020
b100000 aab

#2110
b1010010 aaa

#2130
b100000 aaa
b1010010 aab

#2150
b100000 aab

#2240
b1010010 aaa

#2260
b100000 aaa
b1010010 aab

#2280
b100000 aab

#2370
b1010010 aaa

#2390
b100000 aaa
b1010010 aab

#2410
b100000 aab

#2500
b1010010 aaa

#2520
b100000 aaa
b1010010 aab

#2540
b100000 aab

#2630
b1010010 aaa

#2650
b100000 aaa
b1010010 aab

#2670
b100000 aab

#2760
b1010010 aaa

#2780
b100000 aaa
b1010010 aab

#2800
b100000 aab

#2890
b1010010 aaa

#2910
b100000 aaa
b1010010 aab

#2930
b100000 aab

#3020
b1010010 aaa

#3040
b100000 aaa
b1010010 aab

#3060
b100000 aab

#3150
b1010010 aaa

#3170
b100000 aaa
b1010010 aab

#3190
b100000 aab

#3280
b1010010 aaa

#3300
b100000 aaa
b1010010 aab

#3320
b100000 aab

#3410
b1010010 aaa

#3430
b100000 aaa
b1010010 aab

#3450
b100000 aab

#3540
b1010010 aaa

#3560
b100000 aaa
b1010010 aab

#3580
b100000 aab

#3670
b1010010 aaa

#3690
b100000 aaa
b1010010 aab

#3710
b100000 aab

#3800
b1010010 aaa

#3820
b100000 aaa
b1010010 aab

#3840
b100000 aab

#3930
b1010010 aaa

#3950
b100000 aaa
b1010010 aab

#3970
b100000 aab

#4060
b1010010 aaa

#4080
b100000 aaa
b1010010 aab

#4100
b100000 aab

#4190
b1010010 aaa

#4210
b100000 aaa
b1010010 aab

#4230
b100000 aab

#4320
b1010010 aaa

#4340
b100000 aaa
b1010010 aab

#4360
b100000 aab

#4450
b1010010 aaa

#4470
b100000 aaa
b1010010 aab

#4490
b100000 aab

#4580
b1010010 aaa

#4600
b100000 aaa
b1010010 aab

#4620
b100000 aab

#4710
b1010010 aaa

#4730
b100000 aaa
b1010010 aab

#4750
b100000 aab

#4840
b1010010 aaa

#4860
b100000 aaa
b1010010 aab

#4880
b100000 aab

#4970
b1010010 aaa

#4990
b100000 aaa
b1010010 aab

#5010
b100000 aab

#5100
b1010010 aaa

#5120
b100000 aaa
b1010010 aab

#5140
b100000 aab

#5230
b1010010 aaa

#5250
b100000 aaa
b1010010 aab

#5270
b100000 aab

#5360
b1010010 aaa

#5380
b100000 aaa
b1010010 aab

#5400
b100000 aab

#5490
b1010010 aaa

#5510
b100000 aaa
b1010010 aab

#5530
b100000 aab

#5620
b1010010 aaa

#5640
b100000 aaa
b1010010 aab

#5660
b100000 aab

#5750
b1010010 aaa

#5770
b100000 aaa
b1010010 aab

#5790
b100000 aab

#5880
b1010010 aaa

#5900
b100000 aaa
b1010010 aab

#5920
b100000 aab

#6010
b1010010 aaa

#6030
b100000 aaa
b1010010 aab

#6050
b100000 aab

#6140
b1010010 aaa

#6160
b100000 aaa
b1010010 aab

#6180
b100000 aab

#6270
b1010010 aaa

#6290
b100000 aaa
b1010010 aab

#6310
b100000 aab

#6400
b1010010 aaa

#6420
b100000 aaa
b1010010 aab

#6440
b100000 aab

#6530
b1010010 aaa

#6550
b100000 aaa
b1010010 aab

#6570
b100000 aab

#6660
b1010010 aaa

#6680
b100000 aaa
b1010010 aab

#6700
b100000 aab

#6790
b1010010 aaa

#6810
b100000 aaa
b1010010 aab

#6830
b100000 aab

#6920
b1010010 aaa

#6940
b100000 aaa
b1010010 aab

#6960
b100000 aab

#7050
b1010010 aaa

#7070
b100000 aaa
b1010010 aab

#7090
b100000 aab

#7180
b1010010 aaa

#7200
b100000 aaa
b1010010 aab

#7220
b100000 aab

#7310
b1010010 aaa

#7330
b100000 aaa
b1010010 aab

#7350
b100000 aab

#7440
b1010010 aaa

#7460
b100000 aaa
b1010010 aab

#7480
b100000 aab

#7570
b1010010 aaa

#7590
b100000 aaa
b1010010 aab

#7610
b100000 aab

#7700
b1010010 aaa

#7720
b100000 aaa
b1010010 aab

#7740
b100000 aab

#7830
b1010010 aaa

#7850
b100000 aaa
b1010010 aab

#7870
b100000 aab

#7960
b1010010 aaa

#7980
b100000 aaa
b1010010 aab

#8000
b100000 aab

#8090
b1010010 aaa

#8110
b100000 aaa
b1010010 aab

#8130
b100000 aab

#8220
b1010010 aaa

#8240
b100000 aaa
b1010010 aab

#8260
b100000 aab

#8350
b1010010 aaa

#8370
b100000 aaa
b1010010 aab

#8390
b100000 aab

#8480
b1010010 aaa

#8500
b100000 aaa
b1010010 aab

#8520
b100000 aab

#8610
b1010010 aaa

#8630
b100000 aaa
b1010010 aab

#8650
b100000 aab

#8740
b1010010 aaa

#8760
b100000 aaa
b1010010 aab

#8780
b100000 aab

#8870
b1010010 aaa

#8890
b100000 aaa
b1010010 aab

#8910
b100000 aab

#9000
b1010010 aaa

#9020
b100000 aaa
b1010010 aab

#9040
b100000 aab

#9130
b1010010 aaa

#9150
b100000 aaa
b1010010 aab

#9170
b100000 aab

#9260
b1010010 aaa

#9280
b100000 aaa
b1010010 aab

#9300
b100000 aab

#9390
b1010010 aaa

#9410
b100000 aaa
b1010010 aab

#9430
b100000 aab

#9520
b1010010 aaa

#9540
b100000 aaa
b1010010 aab

#9560
b100000 aab

#9650
b1010010 aaa

#9670
b100000 aaa
b1010010 aab

#9690
b100000 aab

#9780
b1010010 aaa

#9800
b100000 aaa
b1010010 aab

#9820
b100000 aab

#9910
b1010010 aaa

#9930
b100000 aaa
b1010010 aab

#9950
b100000 aab

#10040
b1010010 aaa

#10060
b100000 aaa
b1010010 aab

#10080
b100000 aab

#10170
b1010010 aaa

#10190
b100000 aaa
b1010010 aab

#10210
b100000 aab

#10300
b1010010 aaa

#10320
b100000 aaa
b1010010 aab

#10340
b100000 aab

#10430
b1010010 aaa

#10450
b100000 aaa
b1010010 aab

#10470
b100000 aab

#10560
b1010010 aaa

#10580
b100000 aaa
b1010010 aab

#10600
b100000 aab

#10690
b1010010 aaa

#10710
b100000 aaa
b1010010 aab

#10730
b100000 aab

#10820
b1010010 aaa

#10840
b100000 aaa
b1010010 aab

#10860
b100000 aab

#10950
b1010010 aaa

#10970
b100000 aaa
b1010010 aab

#10990
b100000 aab

#11080
b1010010 aaa

#11100
b100000 aaa
b1010010 aab

#11120
b100000 aab

#11210
b1010010 aaa

#11230
b100000 aaa
b1010010 aab

#11250
b100000 aab

#11340
b1010010 aaa

#11360
b100000 aaa
b1010010 aab

#11380
b100000 aab

#11470
b1010010 aaa

#11490
b100000 aaa
b1010010 aab

#11510
b100000 aab

#11600
b1010010 aaa

#11620
b100000 aaa
b1010010 aab

#11640
b100000 aab

#11730
b1010010 aaa

#11750
b100000 aaa
b1010010 aab

#11770
b100000 aab

#11860
b1010010 aaa

#11880
b100000 aaa
b1010010 aab

#11900
b100000 aab

#11990
b1010010 aaa

#12010
b100000 aaa
b1010010 aab

#12030
b100000 aab

#12120
b1010010 aaa

#12140
b100000 aaa
b1010010 aab

#12160
b100000 aab

#12250
b1010010 aaa

#12270
b100000 aaa
b1010010 aab

#12290
b100000 aab

#12380
b1010010 aaa

#12400
b100000 aaa
b1010010 aab

#12420
b100000 aab

#12510
b1010010 aaa

#12530
b100000 aaa
b1010010 aab

#12550
b100000 aab

#12640
b1010010 aaa

#12660
b100000 aaa
b1010010 aab

#12680
b100000 aab

#12770
b1010010 aaa

#12790
b100000 aaa
b1010010 aab

#12810
b100000 aab

#12900
b1010010 aaa

#12920
b100000 aaa
b1010010 aab

#12940
b100000 aab

#13030
b1010010 aaa

#13050
b100000 aaa
b1010010 aab

#13070
b100000 aab

#13160
b1010010 aaa

#13180
b100000 aaa
b1010010 aab

#13200
b100000 aab

#13290
b1010010 aaa

#13310
b100000 aaa
b1010010 aab

#13330
b100000 aab

#13420
b1010010 aaa

#13440
b100000 aaa
b1010010 aab

#13460
b100000 aab

#13550
b1010010 aaa

#13570
b100000 aaa
b1010010 aab

#13590
b100000 aab

#13680
b1010010 aaa

#13700
b100000 aaa
b1010010 aab

#13720
b100000 aab

#13810
b1010010 aaa

#13830
b100000 aaa
b1010010 aab

#13850
b100000 aab

#13940
b1010010 aaa

#13960
b100000 aaa
b1010010 aab

#13980
b100000 aab

#14070
b1010010 aaa

#14090
b100000 aaa
b1010010 aab

#14110
b100000 aab

#14200
b1010010 aaa

#14220
b100000 aaa
b1010010 aab

#14240
b100000 aab

#14330
b1010010 aaa

#14350
b100000 aaa
b1010010 aab

#14370
b100000 aab

#14460
b1010010 aaa

#14480
b100000 aaa
b1010010 aab

#14500
b100000 aab

#14590
b1010010 aaa

#14610
b100000 aaa
b1010010 aab

#14630
b100000 aab

#14720
b1010010 aaa

#14740
b100000 aaa
b1010010 aab

#14760
b100000 aab

#14850
b1010010 aaa

#14870
b100000 aaa
b1010010 aab

#14890
b100000 aab

#14980
b1010010 aaa

#15000
b100000 aaa
b1010010 aab

#15020
b100000 aab

#15110
b1010010 aaa

#15130
b100000 aaa
b1010010 aab

#15150
b100000 aab

#15240
b1010010 aaa

#15260
b100000 aaa
b1010010 aab

#15280
b100000 aab

#15370
b1010010 aaa

#15390
b100000 aaa
b1010010 aab

#15410
b100000 aab

#15500
b1010010 aaa

#15520
b100000 aaa
b1010010 aab

#15540
b100000 aab

#15630
b1010010 aaa

#15650
b100000 aaa
b1010010 aab

#15670
b100000 aab

#15760
b1010010 aaa

#15780
b100000 aaa
b1010010 aab

#15800
b100000 aab

#15890
b1010010 aaa

#15910
b100000 aaa
b1010010 aab

#15930
b100000 aab

#16020
b1010010 aaa

#16040
b100000 aaa
b1010010 aab

#16060
b100000 aab

#16150
b1010010 aaa

#16170
b100000 aaa
b1010010 aab

#16190
b100000 aab

#16280
b1010010 aaa

#16300
b100000 aaa
b1010010 aab

#16320
b100000 aab

#16410
b1010010 aaa

#16430
b100000 aaa
b1010010 aab

#16450
b100000 aab

#16540
b1010010 aaa

#16560
b100000 aaa
b1010010 aab

#16580
b100000 aab

#16670
b1010010 aaa

#16690
b100000 aaa
b1010010 aab

#16710
b100000 aab

#16800
b1010010 aaa

#16820
b100000 aaa
b1010010 aab

#16840
b100000 aab

#16930
b1010010 aaa

#16950
b100000 aaa
b1010010 aab

#16970
b100000 aab

#17060
b1010010 aaa

#17080
b100000 aaa
b1010010 aab

#17100
b100000 aab

#17190
b1010010 aaa

#17210
b100000 aaa
b1010010 aab

#17230
b100000 aab

#17320
b1010010 aaa

#17340
b100000 aaa
b1010010 aab

#17360
b100000 aab

#17450
b1010010 aaa

#17470
b100000 aaa
b1010010 aab

#17490
b100000 aab

#17580
b1010010 aaa

#17600
b100000 aaa
b1010010 aab

#17620
b100000 aab

#17710
b1010010 aaa

#17730
b100000 aaa
b1010010 aab

#17750
b100000 aab

#17840
b1010010 aaa

#17860
b100000 aaa
b1010010 aab

#17880
b100000 aab

#17970
b1010010 aaa

#17990
b100000 aaa
b1010010 aab

#18010
b100000 aab

#18100
b1010010 aaa

#18120
b100000 aaa
b1010010 aab

#18140
b100000 aab

#18230
b1010010 aaa

#18250
b100000 aaa
b1010010 aab

#18270
b100000 aab

#18360
b1010010 aaa

#18380
b100000 aaa
b1010010 aab

#18400
b100000 aab

#18490
b1010010 aaa

#18510
b100000 aaa
b1010010 aab

#18530
b100000 aab

#18620
b1010010 aaa

#18640
b100000 aaa
b1010010 aab

#18660
b100000 aab

#18750
b1010010 aaa

#18770
b100000 aaa
b1010010 aab

#18790
b100000 aab

#18880
b1010010 aaa

#18900
b100000 aaa
b1010010 aab

#18920
b100000 aab

#19010
b1010010 aaa

#19030
b100000 aaa
b1010010 aab

#19050
b100000 aab

#19140
b1010010 aaa

#19160
b100000 aaa
b1010010 aab

#19180
b100000 aab

#19270
b1010010 aaa

#19290
b100000 aaa
b1010010 aab

#19310
b100000 aab

#19400
b1010010 aaa

#19420
b100000 aaa
b1010010 aab

#19440
b100000 aab

#19530
b1010010 aaa

#19550
b100000 aaa
b1010010 aab

#19570
b100000 aab

#19660
b1010010 aaa

#19680
b100000 aaa
b1010010 aab

#19700
b100000 aab

#19790
b1010010 aaa

#19810
b100000 aaa
b1010010 aab

#19830
b100000 aab

#19920
b1010010 aaa

#19940
b100000 aaa
b1010010 aab

#19960
b100000 aab

#20050
b1010010 aaa

#20070
b100000 aaa
b1010010 aab

#20090
b100000 aab

#20180
b1010010 aaa

#20200
b100000 aaa
b1010010 aab

#20220
b100000 aab

#20310
b1010010 aaa

#20330
b100000 aaa
b1010010 aab

#20350
b100000 aab

#20440
b1010010 aaa

#20460
b100000 aaa
b1010010 aab

#20480
b100000 aab

#20570
b1010010 aaa

#20590
b100000 aaa
b1010010 aab

#20610
b100000 aab

#20700
b1010010 aaa

#20720
b100000 aaa
b1010010 aab

#20740
b100000 aab

#20830
b1010010 aaa

#20850
b100000 aaa
b1010010 aab

#20870
b100000 aab

#20960
b1010010 aaa

#20980
b100000 aaa
b1010010 aab

#21000
b100000 aab

#21090
b1010010 aaa

#21110
b100000 aaa
b1010010 aab

#21130
b100000 aab

#21220
b1010010 aaa

#21240
b100000 aaa
b1010010 aab

#21260
b100000 aab

#21350
b1010010 aaa

#21370
b100000 aaa
b1010010 aab

#21390
b100000 aab

#21480
b1010010 aaa

#21500
b100000 aaa
b1010010 aab

#21520
b100000 aab

#21610
b1010010 aaa

#21630
b100000 aaa
b1010010 aab

#21650
b100000 aab

#21740
b1010010 aaa

#21760
b100000 aaa
b1010010 aab

#21780
b100000 aab

#21870
b1010010 aaa

#21890
b100000 aaa
b1010010 aab

#21910
b100000 aab

#22000
b1010010 aaa

#22020
b100000 aaa
b1010010 aab

#22040
b100000 aab

#22130
b1010010 aaa

#22150
b100000 aaa
b1010010 aab

#22170
b100000 aab

#22260
b1010010 aaa

#22280
b100000 aaa
b1010010 aab

#22300
b100000 aab

#22390
b1010010 aaa

#22410
b100000 aaa
b1010010 aab

#22430
b100000 aab

#22520
b1010010 aaa

#22540
b100000 aaa
b1010010 aab

#22560
b100000 aab

#22650
b1010010 aaa

#22670
b100000 aaa
b1010010 aab

#22690
b100000 aab

#22780
b1010010 aaa

#22800
b100000 aaa
b1010010 aab

#22820
b100000 aab

#22910
b1010010 aaa

#22930
b100000 aaa
b1010010 aab

#22950
b100000 aab

#23040
b1010010 aaa

#23060
b100000 aaa
b1010010 aab

#23080
b100000 aab

#23170
b1010010 aaa

#23190
b100000 aaa
b1010010 aab

#23210
b100000 aab

#23300
b1010010 aaa

#23320
b100000 aaa
b1010010 aab

#23340
b100000 aab

#23430
b1010010 aaa

#23450
b100000 aaa
b1010010 aab

#23470
b100000 aab

#23560
b1010010 aaa

#23580
b100000 aaa
b1010010 aab

#23600
b100000 aab

#23690
b1010010 aaa

#23710
b100000 aaa
b1010010 aab

#23730
b100000 aab

#23820
b1010010 aaa

#23840
b100000 aaa
b1010010 aab

#23860
b100000 aab

#23950
b1010010 aaa

#23970
b100000 aaa
b1010010 aab

#23990
b100000 aab

#24080
b1010010 aaa

#24100
b100000 aaa
b1010010 aab

#24120
b100000 aab

#24210
b1010010 aaa

#24230
b100000 aaa
b1010010 aab

#24250
b100000 aab

#24340
b1010010 aaa

#24360
b100000 aaa
b1010010 aab

#24380
b100000 aab

#24470
b1010010 aaa

#24490
b100000 aaa
b1010010 aab

#24510
b100000 aab

#24600
b1010010 aaa

#24620
b100000 aaa
b1010010 aab

#24640
b100000 aab

#24730
b1010010 aaa

#24750
b100000 aaa
b1010010 aab

#24770
b100000 aab

#24860
b1010010 aaa

#24880
b100000 aaa
b1010010 aab

#24900
b100000 aab

#24990
b1010010 aaa

#25010
b100000 aaa
b1010010 aab

#25030
b100000 aab

#25140
b1010010 aab

#25160
b100000 aab

#25270
b1010010 aab

#25290
b100000 aab

#25400
b1010010 aab

#25420
b100000 aab

#25530
b1010010 aab

#25550
b100000 aab

#25660
b1010010 aab

#25680
b100000 aab

#25790
b1010010 aab

#25810
b100000 aab

#25920
b1010010 aab

#25940
b100000 aab

#26050
b1010010 aab

#26070
b100000 aab

