testcases/src/test-src-snk-plain/vpc/FCFS-latency-CPU-golden.vcd
$date
     Jul 05, 2018       15:42:27
$end

$version
 SystemC 2.3.1-Accellera --- May  7 2018 11:30:25
$end

$timescale
     1 ns
$end

$scope module SystemC $end
$var wire    8  aaaaa  top.snk [7:0]  $end
$var wire    8  aaaab  top.src [7:0]  $end
$upscope $end
$enddefinitions  $end

$comment
All initial values are dumped below at time 0 sec = 0 timescale units.
$end

$dumpvars
b100000 aaaaa
b1010010 aaaab
$end

#7500000
b1110010 aaaab

#15000000
b100000 aaaab

#15500000
b1010010 aaaaa

#25500000
b1110111 aaaaa
b1010010 aaaab

#33000000
b1010010 aaaaa
b100000 aaaab

#43000000
b1110111 aaaaa
b1010010 aaaab

#50500000
b1010010 aaaaa
b100000 aaaab

#60500000
b1110111 aaaaa
b1010010 aaaab

#68000000
b1010010 aaaaa
b100000 aaaab

#78000000
b1110111 aaaaa
b1010010 aaaab

#85500000
b1010010 aaaaa
b100000 aaaab

#95500000
b1110111 aaaaa
b1010010 aaaab

#103000000
b1010010 aaaaa
b100000 aaaab

#113000000
b1110111 aaaaa
b1010010 aaaab

#120500000
b1010010 aaaaa
b100000 aaaab

#130500000
b1110111 aaaaa
b1010010 aaaab

#138000000
b1010010 aaaaa
b100000 aaaab

#148000000
b1110111 aaaaa
b1010010 aaaab

#155500000
b1010010 aaaaa
b100000 aaaab

#165500000
b1110111 aaaaa
b1010010 aaaab

#173000000
b1010010 aaaaa
b100000 aaaab

#183000000
b1110111 aaaaa
b1010010 aaaab

#190500000
b1010010 aaaaa
b100000 aaaab

#200500000
b1110111 aaaaa
b1010010 aaaab

#208000000
b1010010 aaaaa
b100000 aaaab

#218000000
b1110111 aaaaa
b1010010 aaaab

#225500000
b1010010 aaaaa
b100000 aaaab

#235500000
b1110111 aaaaa
b1010010 aaaab

#243000000
b1010010 aaaaa
b100000 aaaab

#253000000
b1110111 aaaaa
b1010010 aaaab

#260500000
b1010010 aaaaa
b100000 aaaab

#270500000
b1110111 aaaaa
b1010010 aaaab

#278000000
b1010010 aaaaa
b100000 aaaab

#288000000
b1110111 aaaaa
b1010010 aaaab

#295500000
b1010010 aaaaa
b100000 aaaab

#305500000
b1110111 aaaaa
b1010010 aaaab

#313000000
b1010010 aaaaa
b100000 aaaab

#323000000
b1110111 aaaaa
b1010010 aaaab

#330500000
b1010010 aaaaa
b100000 aaaab

#340500000
b1110111 aaaaa
b1010010 aaaab

#348000000
b1010010 aaaaa
b100000 aaaab

#358000000
b1110111 aaaaa
b1010010 aaaab

#365500000
b1010010 aaaaa
b100000 aaaab

#375500000
b1110111 aaaaa
b1010010 aaaab

#383000000
b1010010 aaaaa
b100000 aaaab

#393000000
b1110111 aaaaa
b1010010 aaaab

#400500000
b1010010 aaaaa
b100000 aaaab

#410500000
b1110111 aaaaa
b1010010 aaaab

#418000000
b1010010 aaaaa
b100000 aaaab

#428000000
b1110111 aaaaa
b1010010 aaaab

#435500000
b1010010 aaaaa
b100000 aaaab

#445500000
b1110111 aaaaa
b1010010 aaaab

#453000000
b1010010 aaaaa
b100000 aaaab

#463000000
b1110111 aaaaa
b1010010 aaaab

#470500000
b1010010 aaaaa
b100000 aaaab

#480500000
b1110111 aaaaa
b1010010 aaaab

#488000000
b1010010 aaaaa
b100000 aaaab

#498000000
b1110111 aaaaa
b1010010 aaaab

#505500000
b1010010 aaaaa
b100000 aaaab

#515500000
b1110111 aaaaa
b1010010 aaaab

#523000000
b1010010 aaaaa
b100000 aaaab

#533000000
b1110111 aaaaa
b1010010 aaaab

#540500000
b1010010 aaaaa
b100000 aaaab

#550500000
b1110111 aaaaa
b1010010 aaaab

#558000000
b1010010 aaaaa
b100000 aaaab

#568000000
b1110111 aaaaa
b1010010 aaaab

#575500000
b1010010 aaaaa
b100000 aaaab

#585500000
b1110111 aaaaa
b1010010 aaaab

#593000000
b1010010 aaaaa
b100000 aaaab

#603000000
b1110111 aaaaa
b1010010 aaaab

#610500000
b1010010 aaaaa
b100000 aaaab

#620500000
b1110111 aaaaa
b1010010 aaaab

#628000000
b1010010 aaaaa
b100000 aaaab

#638000000
b1110111 aaaaa
b1010010 aaaab

#645500000
b1010010 aaaaa
b100000 aaaab

#655500000
b1110111 aaaaa
b1010010 aaaab

#663000000
b1010010 aaaaa
b100000 aaaab

#673000000
b1110111 aaaaa
b1010010 aaaab

#680500000
b1010010 aaaaa
b100000 aaaab

#690500000
b1110111 aaaaa
b1010010 aaaab

#698000000
b1010010 aaaaa
b100000 aaaab

#708000000
b1110111 aaaaa
b1010010 aaaab

#715500000
b1010010 aaaaa
b100000 aaaab

#725500000
b1110111 aaaaa
b1010010 aaaab

#733000000
b1010010 aaaaa
b100000 aaaab

#743000000
b1110111 aaaaa
b1010010 aaaab

#750500000
b1010010 aaaaa
b100000 aaaab

#760500000
b1110111 aaaaa
b1010010 aaaab

#768000000
b1010010 aaaaa
b100000 aaaab

#778000000
b1110111 aaaaa
b1010010 aaaab

#785500000
b1010010 aaaaa
b100000 aaaab

#795500000
b1110111 aaaaa
b1010010 aaaab

#803000000
b1010010 aaaaa
b100000 aaaab

#813000000
b1110111 aaaaa
b1010010 aaaab

#820500000
b1010010 aaaaa
b100000 aaaab

#830500000
b1110111 aaaaa
b1010010 aaaab

#838000000
b1010010 aaaaa
b100000 aaaab

#848000000
b1110111 aaaaa
b1010010 aaaab

#855500000
b1010010 aaaaa
b100000 aaaab

#865500000
b1110111 aaaaa
b1010010 aaaab

#873000000
b1010010 aaaaa
b100000 aaaab

#883000000
b1110111 aaaaa
b1010010 aaaab

#890500000
b1010010 aaaaa
b100000 aaaab

#900500000
b1110111 aaaaa
b1010010 aaaab

#908000000
b1010010 aaaaa
b100000 aaaab

#918000000
b1110111 aaaaa
b1010010 aaaab

#925500000
b1010010 aaaaa
b100000 aaaab

#935500000
b1110111 aaaaa
b1010010 aaaab

#943000000
b1010010 aaaaa
b100000 aaaab

#953000000
b1110111 aaaaa
b1010010 aaaab

#960500000
b1010010 aaaaa
b100000 aaaab

#970500000
b1110111 aaaaa
b1010010 aaaab

#978000000
b1010010 aaaaa
b100000 aaaab

#988000000
b1110111 aaaaa
b1010010 aaaab

#995500000
b1010010 aaaaa
b100000 aaaab

#1005500000
b1110111 aaaaa
b1010010 aaaab

#1013000000
b1010010 aaaaa
b100000 aaaab

#1023000000
b1110111 aaaaa
b1010010 aaaab

#1030500000
b1010010 aaaaa
b100000 aaaab

#1040500000
b1110111 aaaaa
b1010010 aaaab

#1048000000
b1010010 aaaaa
b100000 aaaab

#1058000000
b1110111 aaaaa
b1010010 aaaab

#1065500000
b1010010 aaaaa
b100000 aaaab

#1075500000
b1110111 aaaaa
b1010010 aaaab

#1083000000
b1010010 aaaaa
b100000 aaaab

#1093000000
b1110111 aaaaa
b1010010 aaaab

#1100500000
b1010010 aaaaa
b100000 aaaab

#1110500000
b1110111 aaaaa
b1010010 aaaab

#1118000000
b1010010 aaaaa
b100000 aaaab

#1128000000
b1110111 aaaaa
b1010010 aaaab

#1135500000
b1010010 aaaaa
b100000 aaaab

#1145500000
b1110111 aaaaa
b1010010 aaaab

#1153000000
b1010010 aaaaa
b100000 aaaab

#1163000000
b1110111 aaaaa
b1010010 aaaab

#1170500000
b1010010 aaaaa
b100000 aaaab

#1180500000
b1110111 aaaaa
b1010010 aaaab

#1188000000
b1010010 aaaaa
b100000 aaaab

#1198000000
b1110111 aaaaa
b1010010 aaaab

#1205500000
b1010010 aaaaa
b100000 aaaab

#1215500000
b1110111 aaaaa
b1010010 aaaab

#1223000000
b1010010 aaaaa
b100000 aaaab

#1233000000
b1110111 aaaaa
b1010010 aaaab

#1240500000
b1010010 aaaaa
b100000 aaaab

#1250500000
b1110111 aaaaa
b1010010 aaaab

#1258000000
b1010010 aaaaa
b100000 aaaab

#1268000000
b1110111 aaaaa
b1010010 aaaab

#1275500000
b1010010 aaaaa
b100000 aaaab

#1285500000
b1110111 aaaaa
b1010010 aaaab

#1293000000
b1010010 aaaaa
b100000 aaaab

#1303000000
b1110111 aaaaa
b1010010 aaaab

#1310500000
b1010010 aaaaa
b100000 aaaab

#1320500000
b1110111 aaaaa
b1010010 aaaab

#1328000000
b1010010 aaaaa
b100000 aaaab

#1338000000
b1110111 aaaaa
b1010010 aaaab

#1345500000
b1010010 aaaaa
b100000 aaaab

#1355500000
b1110111 aaaaa
b1010010 aaaab

#1363000000
b1010010 aaaaa
b100000 aaaab

#1373000000
b1110111 aaaaa
b1010010 aaaab

#1380500000
b1010010 aaaaa
b100000 aaaab

#1390500000
b1110111 aaaaa
b1010010 aaaab

#1398000000
b1010010 aaaaa
b100000 aaaab

#1408000000
b1110111 aaaaa
b1010010 aaaab

#1415500000
b1010010 aaaaa
b100000 aaaab

#1425500000
b1110111 aaaaa
b1010010 aaaab

#1433000000
b1010010 aaaaa
b100000 aaaab

#1443000000
b1110111 aaaaa
b1010010 aaaab

#1450500000
b1010010 aaaaa
b100000 aaaab

#1460500000
b1110111 aaaaa
b1010010 aaaab

#1468000000
b1010010 aaaaa
b100000 aaaab

#1478000000
b1110111 aaaaa
b1010010 aaaab

#1485500000
b1010010 aaaaa
b100000 aaaab

#1495500000
b1110111 aaaaa
b1010010 aaaab

#1503000000
b1010010 aaaaa
b100000 aaaab

#1513000000
b1110111 aaaaa
b1010010 aaaab

#1520500000
b1010010 aaaaa
b100000 aaaab

#1530500000
b1110111 aaaaa
b1010010 aaaab

#1538000000
b1010010 aaaaa
b100000 aaaab

#1548000000
b1110111 aaaaa
b1010010 aaaab

#1555500000
b1010010 aaaaa
b100000 aaaab

#1565500000
b1110111 aaaaa
b1010010 aaaab

#1573000000
b1010010 aaaaa
b100000 aaaab

#1583000000
b1110111 aaaaa
b1010010 aaaab

#1590500000
b1010010 aaaaa
b100000 aaaab

#1600500000
b1110111 aaaaa
b1010010 aaaab

#1608000000
b1010010 aaaaa
b100000 aaaab

#1618000000
b1110111 aaaaa
b1010010 aaaab

#1625500000
b1010010 aaaaa
b100000 aaaab

#1635500000
b1110111 aaaaa
b1010010 aaaab

#1643000000
b1010010 aaaaa
b100000 aaaab

#1653000000
b1110111 aaaaa
b1010010 aaaab

#1660500000
b1010010 aaaaa
b100000 aaaab

#1670500000
b1110111 aaaaa
b1010010 aaaab

#1678000000
b1010010 aaaaa
b100000 aaaab

#1688000000
b1110111 aaaaa
b1010010 aaaab

#1695500000
b1010010 aaaaa
b100000 aaaab

#1705500000
b1110111 aaaaa
b1010010 aaaab

#1713000000
b1010010 aaaaa
b100000 aaaab

#1723000000
b1110111 aaaaa
b1010010 aaaab

#1730500000
b1010010 aaaaa
b100000 aaaab

#1740500000
b1110010 aaaaa

#1750500000
b100000 aaaaa

