testcases/src/test-src-snk-plain/vpc/SPNOPRE-simple-CPU-golden.vcd
$date
     Jul 05, 2018       15:42:27
$end

$version
 SystemC 2.3.1-Accellera --- May  7 2018 11:30:25
$end

$timescale
     1 ns
$end

$scope module SystemC $end
$var wire    8  aaaaa  top.snk [7:0]  $end
$var wire    8  aaaab  top.src [7:0]  $end
$upscope $end
$enddefinitions  $end

$comment
All initial values are dumped below at time 0 sec = 0 timescale units.
$end

$dumpvars
b100000 aaaaa
b1010010 aaaab
$end

#7500000
b1110111 aaaaa
b1110010 aaaab

#15000000
b1010010 aaaaa
b100000 aaaab

#25000000
b1110111 aaaaa
b1010010 aaaab

#32500000
b1010010 aaaaa
b100000 aaaab

#42500000
b1110111 aaaaa
b1010010 aaaab

#50000000
b1010010 aaaaa
b100000 aaaab

#60000000
b1110111 aaaaa
b1010010 aaaab

#67500000
b1010010 aaaaa
b100000 aaaab

#77500000
b1110111 aaaaa
b1010010 aaaab

#85000000
b1010010 aaaaa
b100000 aaaab

#95000000
b1110111 aaaaa
b1010010 aaaab

#102500000
b1010010 aaaaa
b100000 aaaab

#112500000
b1110111 aaaaa
b1010010 aaaab

#120000000
b1010010 aaaaa
b100000 aaaab

#130000000
b1110111 aaaaa
b1010010 aaaab

#137500000
b1010010 aaaaa
b100000 aaaab

#147500000
b1110111 aaaaa
b1010010 aaaab

#155000000
b1010010 aaaaa
b100000 aaaab

#165000000
b1110111 aaaaa
b1010010 aaaab

#172500000
b1010010 aaaaa
b100000 aaaab

#182500000
b1110111 aaaaa
b1010010 aaaab

#190000000
b1010010 aaaaa
b100000 aaaab

#200000000
b1110111 aaaaa
b1010010 aaaab

#207500000
b1010010 aaaaa
b100000 aaaab

#217500000
b1110111 aaaaa
b1010010 aaaab

#225000000
b1010010 aaaaa
b100000 aaaab

#235000000
b1110111 aaaaa
b1010010 aaaab

#242500000
b1010010 aaaaa
b100000 aaaab

#252500000
b1110111 aaaaa
b1010010 aaaab

#260000000
b1010010 aaaaa
b100000 aaaab

#270000000
b1110111 aaaaa
b1010010 aaaab

#277500000
b1010010 aaaaa
b100000 aaaab

#287500000
b1110111 aaaaa
b1010010 aaaab

#295000000
b1010010 aaaaa
b100000 aaaab

#305000000
b1110111 aaaaa
b1010010 aaaab

#312500000
b1010010 aaaaa
b100000 aaaab

#322500000
b1110111 aaaaa
b1010010 aaaab

#330000000
b1010010 aaaaa
b100000 aaaab

#340000000
b1110111 aaaaa
b1010010 aaaab

#347500000
b1010010 aaaaa
b100000 aaaab

#357500000
b1110111 aaaaa
b1010010 aaaab

#365000000
b1010010 aaaaa
b100000 aaaab

#375000000
b1110111 aaaaa
b1010010 aaaab

#382500000
b1010010 aaaaa
b100000 aaaab

#392500000
b1110111 aaaaa
b1010010 aaaab

#400000000
b1010010 aaaaa
b100000 aaaab

#410000000
b1110111 aaaaa
b1010010 aaaab

#417500000
b1010010 aaaaa
b100000 aaaab

#427500000
b1110111 aaaaa
b1010010 aaaab

#435000000
b1010010 aaaaa
b100000 aaaab

#445000000
b1110111 aaaaa
b1010010 aaaab

#452500000
b1010010 aaaaa
b100000 aaaab

#462500000
b1110111 aaaaa
b1010010 aaaab

#470000000
b1010010 aaaaa
b100000 aaaab

#480000000
b1110111 aaaaa
b1010010 aaaab

#487500000
b1010010 aaaaa
b100000 aaaab

#497500000
b1110111 aaaaa
b1010010 aaaab

#505000000
b1010010 aaaaa
b100000 aaaab

#515000000
b1110111 aaaaa
b1010010 aaaab

#522500000
b1010010 aaaaa
b100000 aaaab

#532500000
b1110111 aaaaa
b1010010 aaaab

#540000000
b1010010 aaaaa
b100000 aaaab

#550000000
b1110111 aaaaa
b1010010 aaaab

#557500000
b1010010 aaaaa
b100000 aaaab

#567500000
b1110111 aaaaa
b1010010 aaaab

#575000000
b1010010 aaaaa
b100000 aaaab

#585000000
b1110111 aaaaa
b1010010 aaaab

#592500000
b1010010 aaaaa
b100000 aaaab

#602500000
b1110111 aaaaa
b1010010 aaaab

#610000000
b1010010 aaaaa
b100000 aaaab

#620000000
b1110111 aaaaa
b1010010 aaaab

#627500000
b1010010 aaaaa
b100000 aaaab

#637500000
b1110111 aaaaa
b1010010 aaaab

#645000000
b1010010 aaaaa
b100000 aaaab

#655000000
b1110111 aaaaa
b1010010 aaaab

#662500000
b1010010 aaaaa
b100000 aaaab

#672500000
b1110111 aaaaa
b1010010 aaaab

#680000000
b1010010 aaaaa
b100000 aaaab

#690000000
b1110111 aaaaa
b1010010 aaaab

#697500000
b1010010 aaaaa
b100000 aaaab

#707500000
b1110111 aaaaa
b1010010 aaaab

#715000000
b1010010 aaaaa
b100000 aaaab

#725000000
b1110111 aaaaa
b1010010 aaaab

#732500000
b1010010 aaaaa
b100000 aaaab

#742500000
b1110111 aaaaa
b1010010 aaaab

#750000000
b1010010 aaaaa
b100000 aaaab

#760000000
b1110111 aaaaa
b1010010 aaaab

#767500000
b1010010 aaaaa
b100000 aaaab

#777500000
b1110111 aaaaa
b1010010 aaaab

#785000000
b1010010 aaaaa
b100000 aaaab

#795000000
b1110111 aaaaa
b1010010 aaaab

#802500000
b1010010 aaaaa
b100000 aaaab

#812500000
b1110111 aaaaa
b1010010 aaaab

#820000000
b1010010 aaaaa
b100000 aaaab

#830000000
b1110111 aaaaa
b1010010 aaaab

#837500000
b1010010 aaaaa
b100000 aaaab

#847500000
b1110111 aaaaa
b1010010 aaaab

#855000000
b1010010 aaaaa
b100000 aaaab

#865000000
b1110111 aaaaa
b1010010 aaaab

#872500000
b1010010 aaaaa
b100000 aaaab

#882500000
b1110111 aaaaa
b1010010 aaaab

#890000000
b1010010 aaaaa
b100000 aaaab

#900000000
b1110111 aaaaa
b1010010 aaaab

#907500000
b1010010 aaaaa
b100000 aaaab

#917500000
b1110111 aaaaa
b1010010 aaaab

#925000000
b1010010 aaaaa
b100000 aaaab

#935000000
b1110111 aaaaa
b1010010 aaaab

#942500000
b1010010 aaaaa
b100000 aaaab

#952500000
b1110111 aaaaa
b1010010 aaaab

#960000000
b1010010 aaaaa
b100000 aaaab

#970000000
b1110111 aaaaa
b1010010 aaaab

#977500000
b1010010 aaaaa
b100000 aaaab

#987500000
b1110111 aaaaa
b1010010 aaaab

#995000000
b1010010 aaaaa
b100000 aaaab

#1005000000
b1110111 aaaaa
b1010010 aaaab

#1012500000
b1010010 aaaaa
b100000 aaaab

#1022500000
b1110111 aaaaa
b1010010 aaaab

#1030000000
b1010010 aaaaa
b100000 aaaab

#1040000000
b1110111 aaaaa
b1010010 aaaab

#1047500000
b1010010 aaaaa
b100000 aaaab

#1057500000
b1110111 aaaaa
b1010010 aaaab

#1065000000
b1010010 aaaaa
b100000 aaaab

#1075000000
b1110111 aaaaa
b1010010 aaaab

#1082500000
b1010010 aaaaa
b100000 aaaab

#1092500000
b1110111 aaaaa
b1010010 aaaab

#1100000000
b1010010 aaaaa
b100000 aaaab

#1110000000
b1110111 aaaaa
b1010010 aaaab

#1117500000
b1010010 aaaaa
b100000 aaaab

#1127500000
b1110111 aaaaa
b1010010 aaaab

#1135000000
b1010010 aaaaa
b100000 aaaab

#1145000000
b1110111 aaaaa
b1010010 aaaab

#1152500000
b1010010 aaaaa
b100000 aaaab

#1162500000
b1110111 aaaaa
b1010010 aaaab

#1170000000
b1010010 aaaaa
b100000 aaaab

#1180000000
b1110111 aaaaa
b1010010 aaaab

#1187500000
b1010010 aaaaa
b100000 aaaab

#1197500000
b1110111 aaaaa
b1010010 aaaab

#1205000000
b1010010 aaaaa
b100000 aaaab

#1215000000
b1110111 aaaaa
b1010010 aaaab

#1222500000
b1010010 aaaaa
b100000 aaaab

#1232500000
b1110111 aaaaa
b1010010 aaaab

#1240000000
b1010010 aaaaa
b100000 aaaab

#1250000000
b1110111 aaaaa
b1010010 aaaab

#1257500000
b1010010 aaaaa
b100000 aaaab

#1267500000
b1110111 aaaaa
b1010010 aaaab

#1275000000
b1010010 aaaaa
b100000 aaaab

#1285000000
b1110111 aaaaa
b1010010 aaaab

#1292500000
b1010010 aaaaa
b100000 aaaab

#1302500000
b1110111 aaaaa
b1010010 aaaab

#1310000000
b1010010 aaaaa
b100000 aaaab

#1320000000
b1110111 aaaaa
b1010010 aaaab

#1327500000
b1010010 aaaaa
b100000 aaaab

#1337500000
b1110111 aaaaa
b1010010 aaaab

#1345000000
b1010010 aaaaa
b100000 aaaab

#1355000000
b1110111 aaaaa
b1010010 aaaab

#1362500000
b1010010 aaaaa
b100000 aaaab

#1372500000
b1110111 aaaaa
b1010010 aaaab

#1380000000
b1010010 aaaaa
b100000 aaaab

#1390000000
b1110111 aaaaa
b1010010 aaaab

#1397500000
b1010010 aaaaa
b100000 aaaab

#1407500000
b1110111 aaaaa
b1010010 aaaab

#1415000000
b1010010 aaaaa
b100000 aaaab

#1425000000
b1110111 aaaaa
b1010010 aaaab

#1432500000
b1010010 aaaaa
b100000 aaaab

#1442500000
b1110111 aaaaa
b1010010 aaaab

#1450000000
b1010010 aaaaa
b100000 aaaab

#1460000000
b1110111 aaaaa
b1010010 aaaab

#1467500000
b1010010 aaaaa
b100000 aaaab

#1477500000
b1110111 aaaaa
b1010010 aaaab

#1485000000
b1010010 aaaaa
b100000 aaaab

#1495000000
b1110111 aaaaa
b1010010 aaaab

#1502500000
b1010010 aaaaa
b100000 aaaab

#1512500000
b1110111 aaaaa
b1010010 aaaab

#1520000000
b1010010 aaaaa
b100000 aaaab

#1530000000
b1110111 aaaaa
b1010010 aaaab

#1537500000
b1010010 aaaaa
b100000 aaaab

#1547500000
b1110111 aaaaa
b1010010 aaaab

#1555000000
b1010010 aaaaa
b100000 aaaab

#1565000000
b1110111 aaaaa
b1010010 aaaab

#1572500000
b1010010 aaaaa
b100000 aaaab

#1582500000
b1110111 aaaaa
b1010010 aaaab

#1590000000
b1010010 aaaaa
b100000 aaaab

#1600000000
b1110111 aaaaa
b1010010 aaaab

#1607500000
b1010010 aaaaa
b100000 aaaab

#1617500000
b1110111 aaaaa
b1010010 aaaab

#1625000000
b1010010 aaaaa
b100000 aaaab

#1635000000
b1110111 aaaaa
b1010010 aaaab

#1642500000
b1010010 aaaaa
b100000 aaaab

#1652500000
b1110111 aaaaa
b1010010 aaaab

#1660000000
b1010010 aaaaa
b100000 aaaab

#1670000000
b1110111 aaaaa
b1010010 aaaab

#1677500000
b1010010 aaaaa
b100000 aaaab

#1687500000
b1110111 aaaaa
b1010010 aaaab

#1695000000
b1010010 aaaaa
b100000 aaaab

#1705000000
b1110111 aaaaa
b1010010 aaaab

#1712500000
b1010010 aaaaa
b100000 aaaab

#1722500000
b1110111 aaaaa
b1010010 aaaab

#1730000000
b1010010 aaaaa
b100000 aaaab

#1740000000
b1110010 aaaaa

#1750000000
b100000 aaaaa

