testcases/src/test-src-snk-plain/vpc/SPNOPRE-latency-CPU-golden.vcd
$date
     Jul 05, 2018       15:42:27
$end

$version
 SystemC 2.3.1-Accellera --- May  7 2018 11:30:25
$end

$timescale
     1 ns
$end

$scope module SystemC $end
$var wire    8  aaaaa  top.snk [7:0]  $end
$var wire    8  aaaab  top.src [7:0]  $end
$upscope $end
$enddefinitions  $end

$comment
All initial values are dumped below at time 0 sec = 0 timescale units.
$end

$dumpvars
b100000 aaaaa
b1010010 aaaab
$end

#7500000
b1110010 aaaab

#10000000
b1110111 aaaaa

#15000000
b1010010 aaaaa
b100000 aaaab

#25000000
b1110010 aaaaa
b1110111 aaaab

#35000000
b100000 aaaaa
b1010010 aaaab

#42500000
b1110010 aaaab

#45000000
b1110111 aaaaa

#50000000
b1010010 aaaaa
b100000 aaaab

#60000000
b1110010 aaaaa
b1110111 aaaab

#70000000
b100000 aaaaa
b1010010 aaaab

#77500000
b1110010 aaaab

#80000000
b1110111 aaaaa

#85000000
b1010010 aaaaa
b100000 aaaab

#95000000
b1110010 aaaaa
b1110111 aaaab

#105000000
b100000 aaaaa
b1010010 aaaab

#112500000
b1110010 aaaab

#115000000
b1110111 aaaaa

#120000000
b1010010 aaaaa
b100000 aaaab

#130000000
b1110010 aaaaa
b1110111 aaaab

#140000000
b100000 aaaaa
b1010010 aaaab

#147500000
b1110010 aaaab

#150000000
b1110111 aaaaa

#155000000
b1010010 aaaaa
b100000 aaaab

#165000000
b1110010 aaaaa
b1110111 aaaab

#175000000
b100000 aaaaa
b1010010 aaaab

#182500000
b1110010 aaaab

#185000000
b1110111 aaaaa

#190000000
b1010010 aaaaa
b100000 aaaab

#200000000
b1110010 aaaaa
b1110111 aaaab

#210000000
b100000 aaaaa
b1010010 aaaab

#217500000
b1110010 aaaab

#220000000
b1110111 aaaaa

#225000000
b1010010 aaaaa
b100000 aaaab

#235000000
b1110010 aaaaa
b1110111 aaaab

#245000000
b100000 aaaaa
b1010010 aaaab

#252500000
b1110010 aaaab

#255000000
b1110111 aaaaa

#260000000
b1010010 aaaaa
b100000 aaaab

#270000000
b1110010 aaaaa
b1110111 aaaab

#280000000
b100000 aaaaa
b1010010 aaaab

#287500000
b1110010 aaaab

#290000000
b1110111 aaaaa

#295000000
b1010010 aaaaa
b100000 aaaab

#305000000
b1110010 aaaaa
b1110111 aaaab

#315000000
b100000 aaaaa
b1010010 aaaab

#322500000
b1110010 aaaab

#325000000
b1110111 aaaaa

#330000000
b1010010 aaaaa
b100000 aaaab

#340000000
b1110010 aaaaa
b1110111 aaaab

#350000000
b100000 aaaaa
b1010010 aaaab

#357500000
b1110010 aaaab

#360000000
b1110111 aaaaa

#365000000
b1010010 aaaaa
b100000 aaaab

#375000000
b1110010 aaaaa
b1110111 aaaab

#385000000
b100000 aaaaa
b1010010 aaaab

#392500000
b1110010 aaaab

#395000000
b1110111 aaaaa

#400000000
b1010010 aaaaa
b100000 aaaab

#410000000
b1110010 aaaaa
b1110111 aaaab

#420000000
b100000 aaaaa
b1010010 aaaab

#427500000
b1110010 aaaab

#430000000
b1110111 aaaaa

#435000000
b1010010 aaaaa
b100000 aaaab

#445000000
b1110010 aaaaa
b1110111 aaaab

#455000000
b100000 aaaaa
b1010010 aaaab

#462500000
b1110010 aaaab

#465000000
b1110111 aaaaa

#470000000
b1010010 aaaaa
b100000 aaaab

#480000000
b1110010 aaaaa
b1110111 aaaab

#490000000
b100000 aaaaa
b1010010 aaaab

#497500000
b1110010 aaaab

#500000000
b1110111 aaaaa

#505000000
b1010010 aaaaa
b100000 aaaab

#515000000
b1110010 aaaaa
b1110111 aaaab

#525000000
b100000 aaaaa
b1010010 aaaab

#532500000
b1110010 aaaab

#535000000
b1110111 aaaaa

#540000000
b1010010 aaaaa
b100000 aaaab

#550000000
b1110010 aaaaa
b1110111 aaaab

#560000000
b100000 aaaaa
b1010010 aaaab

#567500000
b1110010 aaaab

#570000000
b1110111 aaaaa

#575000000
b1010010 aaaaa
b100000 aaaab

#585000000
b1110010 aaaaa
b1110111 aaaab

#595000000
b100000 aaaaa
b1010010 aaaab

#602500000
b1110010 aaaab

#605000000
b1110111 aaaaa

#610000000
b1010010 aaaaa
b100000 aaaab

#620000000
b1110010 aaaaa
b1110111 aaaab

#630000000
b100000 aaaaa
b1010010 aaaab

#637500000
b1110010 aaaab

#640000000
b1110111 aaaaa

#645000000
b1010010 aaaaa
b100000 aaaab

#655000000
b1110010 aaaaa
b1110111 aaaab

#665000000
b100000 aaaaa
b1010010 aaaab

#672500000
b1110010 aaaab

#675000000
b1110111 aaaaa

#680000000
b1010010 aaaaa
b100000 aaaab

#690000000
b1110010 aaaaa
b1110111 aaaab

#700000000
b100000 aaaaa
b1010010 aaaab

#707500000
b1110010 aaaab

#710000000
b1110111 aaaaa

#715000000
b1010010 aaaaa
b100000 aaaab

#725000000
b1110010 aaaaa
b1110111 aaaab

#735000000
b100000 aaaaa
b1010010 aaaab

#742500000
b1110010 aaaab

#745000000
b1110111 aaaaa

#750000000
b1010010 aaaaa
b100000 aaaab

#760000000
b1110010 aaaaa
b1110111 aaaab

#770000000
b100000 aaaaa
b1010010 aaaab

#777500000
b1110010 aaaab

#780000000
b1110111 aaaaa

#785000000
b1010010 aaaaa
b100000 aaaab

#795000000
b1110010 aaaaa
b1110111 aaaab

#805000000
b100000 aaaaa
b1010010 aaaab

#812500000
b1110010 aaaab

#815000000
b1110111 aaaaa

#820000000
b1010010 aaaaa
b100000 aaaab

#830000000
b1110010 aaaaa
b1110111 aaaab

#840000000
b100000 aaaaa
b1010010 aaaab

#847500000
b1110010 aaaab

#850000000
b1110111 aaaaa

#855000000
b1010010 aaaaa
b100000 aaaab

#865000000
b1110010 aaaaa
b1110111 aaaab

#875000000
b100000 aaaaa
b1010010 aaaab

#882500000
b1110010 aaaab

#885000000
b1110111 aaaaa

#890000000
b1010010 aaaaa
b100000 aaaab

#900000000
b1110010 aaaaa
b1110111 aaaab

#910000000
b100000 aaaaa
b1010010 aaaab

#917500000
b1110010 aaaab

#920000000
b1110111 aaaaa

#925000000
b1010010 aaaaa
b100000 aaaab

#935000000
b1110010 aaaaa
b1110111 aaaab

#945000000
b100000 aaaaa
b1010010 aaaab

#952500000
b1110010 aaaab

#955000000
b1110111 aaaaa

#960000000
b1010010 aaaaa
b100000 aaaab

#970000000
b1110010 aaaaa
b1110111 aaaab

#980000000
b100000 aaaaa
b1010010 aaaab

#987500000
b1110010 aaaab

#990000000
b1110111 aaaaa

#995000000
b1010010 aaaaa
b100000 aaaab

#1005000000
b1110010 aaaaa
b1110111 aaaab

#1015000000
b100000 aaaaa
b1010010 aaaab

#1022500000
b1110010 aaaab

#1025000000
b1110111 aaaaa

#1030000000
b1010010 aaaaa
b100000 aaaab

#1040000000
b1110010 aaaaa
b1110111 aaaab

#1050000000
b100000 aaaaa
b1010010 aaaab

#1057500000
b1110010 aaaab

#1060000000
b1110111 aaaaa

#1065000000
b1010010 aaaaa
b100000 aaaab

#1075000000
b1110010 aaaaa
b1110111 aaaab

#1085000000
b100000 aaaaa
b1010010 aaaab

#1092500000
b1110010 aaaab

#1095000000
b1110111 aaaaa

#1100000000
b1010010 aaaaa
b100000 aaaab

#1110000000
b1110010 aaaaa
b1110111 aaaab

#1120000000
b100000 aaaaa
b1010010 aaaab

#1127500000
b1110010 aaaab

#1130000000
b1110111 aaaaa

#1135000000
b1010010 aaaaa
b100000 aaaab

#1145000000
b1110010 aaaaa
b1110111 aaaab

#1155000000
b100000 aaaaa
b1010010 aaaab

#1162500000
b1110010 aaaab

#1165000000
b1110111 aaaaa

#1170000000
b1010010 aaaaa
b100000 aaaab

#1180000000
b1110010 aaaaa
b1110111 aaaab

#1190000000
b100000 aaaaa
b1010010 aaaab

#1197500000
b1110010 aaaab

#1200000000
b1110111 aaaaa

#1205000000
b1010010 aaaaa
b100000 aaaab

#1215000000
b1110010 aaaaa
b1110111 aaaab

#1225000000
b100000 aaaaa
b1010010 aaaab

#1232500000
b1110010 aaaab

#1235000000
b1110111 aaaaa

#1240000000
b1010010 aaaaa
b100000 aaaab

#1250000000
b1110010 aaaaa
b1110111 aaaab

#1260000000
b100000 aaaaa
b1010010 aaaab

#1267500000
b1110010 aaaab

#1270000000
b1110111 aaaaa

#1275000000
b1010010 aaaaa
b100000 aaaab

#1285000000
b1110010 aaaaa
b1110111 aaaab

#1295000000
b100000 aaaaa
b1010010 aaaab

#1302500000
b1110010 aaaab

#1305000000
b1110111 aaaaa

#1310000000
b1010010 aaaaa
b100000 aaaab

#1320000000
b1110010 aaaaa
b1110111 aaaab

#1330000000
b100000 aaaaa
b1010010 aaaab

#1337500000
b1110010 aaaab

#1340000000
b1110111 aaaaa

#1345000000
b1010010 aaaaa
b100000 aaaab

#1355000000
b1110010 aaaaa
b1110111 aaaab

#1365000000
b100000 aaaaa
b1010010 aaaab

#1372500000
b1110010 aaaab

#1375000000
b1110111 aaaaa

#1380000000
b1010010 aaaaa
b100000 aaaab

#1390000000
b1110010 aaaaa
b1110111 aaaab

#1400000000
b100000 aaaaa
b1010010 aaaab

#1407500000
b1110010 aaaab

#1410000000
b1110111 aaaaa

#1415000000
b1010010 aaaaa
b100000 aaaab

#1425000000
b1110010 aaaaa
b1110111 aaaab

#1435000000
b100000 aaaaa
b1010010 aaaab

#1442500000
b1110010 aaaab

#1445000000
b1110111 aaaaa

#1450000000
b1010010 aaaaa
b100000 aaaab

#1460000000
b1110010 aaaaa
b1110111 aaaab

#1470000000
b100000 aaaaa
b1010010 aaaab

#1477500000
b1110010 aaaab

#1480000000
b1110111 aaaaa

#1485000000
b1010010 aaaaa
b100000 aaaab

#1495000000
b1110010 aaaaa
b1110111 aaaab

#1505000000
b100000 aaaaa
b1010010 aaaab

#1512500000
b1110010 aaaab

#1515000000
b1110111 aaaaa

#1520000000
b1010010 aaaaa
b100000 aaaab

#1530000000
b1110010 aaaaa
b1110111 aaaab

#1540000000
b100000 aaaaa
b1010010 aaaab

#1547500000
b1110010 aaaab

#1550000000
b1110111 aaaaa

#1555000000
b1010010 aaaaa
b100000 aaaab

#1565000000
b1110010 aaaaa
b1110111 aaaab

#1575000000
b100000 aaaaa
b1010010 aaaab

#1582500000
b1110010 aaaab

#1585000000
b1110111 aaaaa

#1590000000
b1010010 aaaaa
b100000 aaaab

#1600000000
b1110010 aaaaa
b1110111 aaaab

#1610000000
b100000 aaaaa
b1010010 aaaab

#1617500000
b1110010 aaaab

#1620000000
b1110111 aaaaa

#1625000000
b1010010 aaaaa
b100000 aaaab

#1635000000
b1110010 aaaaa
b1110111 aaaab

#1645000000
b100000 aaaaa
b1010010 aaaab

#1652500000
b1110010 aaaab

#1655000000
b1110111 aaaaa

#1660000000
b1010010 aaaaa
b100000 aaaab

#1670000000
b1110010 aaaaa
b1110111 aaaab

#1680000000
b100000 aaaaa
b1010010 aaaab

#1687500000
b1110010 aaaab

#1690000000
b1110111 aaaaa

#1695000000
b1010010 aaaaa
b100000 aaaab

#1705000000
b1110010 aaaaa
b1110111 aaaab

#1715000000
b100000 aaaaa
b1010010 aaaab

#1722500000
b1110010 aaaab

#1725000000
b1110111 aaaaa

#1730000000
b1010010 aaaaa
b100000 aaaab

#1740000000
b1110010 aaaaa

#1750000000
b100000 aaaaa

