vpc/src-snk/testlogs/FCFS.vpc.xml-src-snk-tt-200/Bus.vcd
$date
     Oct 06, 2011       15:03:19
$end

$version
              SystemC 2.2.0 --- Aug 31 2011 16:07:50
$end

$timescale
     1 ns
$end

$scope module SystemC $end
$var wire    8  aaa  msg_top.src_2_queue [7:0]  $end
$var wire    8  aab  msg_queue_2_top.snk [7:0]  $end
$upscope $end
$enddefinitions  $end

$comment
All initial values are dumped below at time 0 sec = 0 timescale units.
$end

$dumpvars
b100000 aaa
b100000 aab
$end

#280
b1010010 aaa

#290
b100000 aaa

#330
b1010010 aab

#410
b100000 aab

#780
b1010010 aaa

#790
b100000 aaa

#830
b1010010 aab

#910
b100000 aab

#1280
b1010010 aaa

#1290
b100000 aaa

#1330
b1010010 aab

#1410
b100000 aab

#1780
b1010010 aaa

#1790
b100000 aaa

#1830
b1010010 aab

#1910
b100000 aab

#2280
b1010010 aaa

#2290
b100000 aaa

#2330
b1010010 aab

#2410
b100000 aab

#2780
b1010010 aaa

#2790
b100000 aaa

#2830
b1010010 aab

#2910
b100000 aab

#3280
b1010010 aaa

#3290
b100000 aaa

#3330
b1010010 aab

#3410
b100000 aab

#3780
b1010010 aaa

#3790
b100000 aaa

#3830
b1010010 aab

#3910
b100000 aab

#4280
b1010010 aaa

#4290
b100000 aaa

#4330
b1010010 aab

#4410
b100000 aab

#4780
b1010010 aaa

#4790
b100000 aaa

#4830
b1010010 aab

#4910
b100000 aab

#5280
b1010010 aaa

#5290
b100000 aaa

#5330
b1010010 aab

#5410
b100000 aab

#5780
b1010010 aaa

#5790
b100000 aaa

#5830
b1010010 aab

#5910
b100000 aab

#6280
b1010010 aaa

#6290
b100000 aaa

#6330
b1010010 aab

#6410
b100000 aab

#6780
b1010010 aaa

#6790
b100000 aaa

#6830
b1010010 aab

#6910
b100000 aab

#7280
b1010010 aaa

#7290
b100000 aaa

#7330
b1010010 aab

#7410
b100000 aab

#7780
b1010010 aaa

#7790
b100000 aaa

#7830
b1010010 aab

#7910
b100000 aab

#8280
b1010010 aaa

#8290
b100000 aaa

#8330
b1010010 aab

#8410
b100000 aab

#8780
b1010010 aaa

#8790
b100000 aaa

#8830
b1010010 aab

#8910
b100000 aab

#9280
b1010010 aaa

#9290
b100000 aaa

#9330
b1010010 aab

#9410
b100000 aab

#9780
b1010010 aaa

#9790
b100000 aaa

#9830
b1010010 aab

#9910
b100000 aab

#10280
b1010010 aaa

#10290
b100000 aaa

#10330
b1010010 aab

#10410
b100000 aab

#10780
b1010010 aaa

#10790
b100000 aaa

#10830
b1010010 aab

#10910
b100000 aab

#11280
b1010010 aaa

#11290
b100000 aaa

#11330
b1010010 aab

#11410
b100000 aab

#11780
b1010010 aaa

#11790
b100000 aaa

#11830
b1010010 aab

#11910
b100000 aab

#12280
b1010010 aaa

#12290
b100000 aaa

#12330
b1010010 aab

#12410
b100000 aab

#12780
b1010010 aaa

#12790
b100000 aaa

#12830
b1010010 aab

#12910
b100000 aab

#13280
b1010010 aaa

#13290
b100000 aaa

#13330
b1010010 aab

#13410
b100000 aab

#13780
b1010010 aaa

#13790
b100000 aaa

#13830
b1010010 aab

#13910
b100000 aab

#14280
b1010010 aaa

#14290
b100000 aaa

#14330
b1010010 aab

#14410
b100000 aab

#14780
b1010010 aaa

#14790
b100000 aaa

#14830
b1010010 aab

#14910
b100000 aab

#15280
b1010010 aaa

#15290
b100000 aaa

#15330
b1010010 aab

#15410
b100000 aab

#15780
b1010010 aaa

#15790
b100000 aaa

#15830
b1010010 aab

#15910
b100000 aab

#16280
b1010010 aaa

#16290
b100000 aaa

#16330
b1010010 aab

#16410
b100000 aab

#16780
b1010010 aaa

#16790
b100000 aaa

#16830
b1010010 aab

#16910
b100000 aab

#17280
b1010010 aaa

#17290
b100000 aaa

#17330
b1010010 aab

#17410
b100000 aab

#17780
b1010010 aaa

#17790
b100000 aaa

#17830
b1010010 aab

#17910
b100000 aab

#18280
b1010010 aaa

#18290
b100000 aaa

#18330
b1010010 aab

#18410
b100000 aab

#18780
b1010010 aaa

#18790
b100000 aaa

#18830
b1010010 aab

#18910
b100000 aab

#19280
b1010010 aaa

#19290
b100000 aaa

#19330
b1010010 aab

#19410
b100000 aab

#19780
b1010010 aaa

#19790
b100000 aaa

#19830
b1010010 aab

#19910
b100000 aab

#20280
b1010010 aaa

#20290
b100000 aaa

#20330
b1010010 aab

#20410
b100000 aab

#20780
b1010010 aaa

#20790
b100000 aaa

#20830
b1010010 aab

#20910
b100000 aab

#21280
b1010010 aaa

#21290
b100000 aaa

#21330
b1010010 aab

#21410
b100000 aab

#21780
b1010010 aaa

#21790
b100000 aaa

#21830
b1010010 aab

#21910
b100000 aab

#22280
b1010010 aaa

#22290
b100000 aaa

#22330
b1010010 aab

#22410
b100000 aab

#22780
b1010010 aaa

#22790
b100000 aaa

#22830
b1010010 aab

#22910
b100000 aab

#23280
b1010010 aaa

#23290
b100000 aaa

#23330
b1010010 aab

#23410
b100000 aab

#23780
b1010010 aaa

#23790
b100000 aaa

#23830
b1010010 aab

#23910
b100000 aab

#24280
b1010010 aaa

#24290
b100000 aaa

#24330
b1010010 aab

#24410
b100000 aab

#24780
b1010010 aaa

#24790
b100000 aaa

#24830
b1010010 aab

#24910
b100000 aab

#25280
b1010010 aaa

#25290
b100000 aaa

#25330
b1010010 aab

#25410
b100000 aab

#25780
b1010010 aaa

#25790
b100000 aaa

#25830
b1010010 aab

#25910
b100000 aab

#26280
b1010010 aaa

#26290
b100000 aaa

#26330
b1010010 aab

#26410
b100000 aab

#26780
b1010010 aaa

#26790
b100000 aaa

#26830
b1010010 aab

#26910
b100000 aab

#27280
b1010010 aaa

#27290
b100000 aaa

#27330
b1010010 aab

#27410
b100000 aab

#27780
b1010010 aaa

#27790
b100000 aaa

#27830
b1010010 aab

#27910
b100000 aab

#28280
b1010010 aaa

#28290
b100000 aaa

#28330
b1010010 aab

#28410
b100000 aab

#28780
b1010010 aaa

#28790
b100000 aaa

#28830
b1010010 aab

#28910
b100000 aab

#29280
b1010010 aaa

#29290
b100000 aaa

#29330
b1010010 aab

#29410
b100000 aab

#29780
b1010010 aaa

#29790
b100000 aaa

#29830
b1010010 aab

#29910
b100000 aab

#30280
b1010010 aaa

#30290
b100000 aaa

#30330
b1010010 aab

#30410
b100000 aab

#30780
b1010010 aaa

#30790
b100000 aaa

#30830
b1010010 aab

#30910
b100000 aab

#31280
b1010010 aaa

#31290
b100000 aaa

#31330
b1010010 aab

#31410
b100000 aab

#31780
b1010010 aaa

#31790
b100000 aaa

#31830
b1010010 aab

#31910
b100000 aab

#32280
b1010010 aaa

#32290
b100000 aaa

#32330
b1010010 aab

#32410
b100000 aab

#32780
b1010010 aaa

#32790
b100000 aaa

#32830
b1010010 aab

#32910
b100000 aab

#33280
b1010010 aaa

#33290
b100000 aaa

#33330
b1010010 aab

#33410
b100000 aab

#33780
b1010010 aaa

#33790
b100000 aaa

#33830
b1010010 aab

#33910
b100000 aab

#34280
b1010010 aaa

#34290
b100000 aaa

#34330
b1010010 aab

#34410
b100000 aab

#34780
b1010010 aaa

#34790
b100000 aaa

#34830
b1010010 aab

#34910
b100000 aab

#35280
b1010010 aaa

#35290
b100000 aaa

#35330
b1010010 aab

#35410
b100000 aab

#35780
b1010010 aaa

#35790
b100000 aaa

#35830
b1010010 aab

#35910
b100000 aab

#36280
b1010010 aaa

#36290
b100000 aaa

#36330
b1010010 aab

#36410
b100000 aab

#36780
b1010010 aaa

#36790
b100000 aaa

#36830
b1010010 aab

#36910
b100000 aab

#37280
b1010010 aaa

#37290
b100000 aaa

#37330
b1010010 aab

#37410
b100000 aab

#37780
b1010010 aaa

#37790
b100000 aaa

#37830
b1010010 aab

#37910
b100000 aab

#38280
b1010010 aaa

#38290
b100000 aaa

#38330
b1010010 aab

#38410
b100000 aab

#38780
b1010010 aaa

#38790
b100000 aaa

#38830
b1010010 aab

#38910
b100000 aab

#39280
b1010010 aaa

#39290
b100000 aaa

#39330
b1010010 aab

#39410
b100000 aab

#39780
b1010010 aaa

#39790
b100000 aaa

#39830
b1010010 aab

#39910
b100000 aab

#40280
b1010010 aaa

#40290
b100000 aaa

#40330
b1010010 aab

#40410
b100000 aab

#40780
b1010010 aaa

#40790
b100000 aaa

#40830
b1010010 aab

#40910
b100000 aab

#41280
b1010010 aaa

#41290
b100000 aaa

#41330
b1010010 aab

#41410
b100000 aab

#41780
b1010010 aaa

#41790
b100000 aaa

#41830
b1010010 aab

#41910
b100000 aab

#42280
b1010010 aaa

#42290
b100000 aaa

#42330
b1010010 aab

#42410
b100000 aab

#42780
b1010010 aaa

#42790
b100000 aaa

#42830
b1010010 aab

#42910
b100000 aab

#43280
b1010010 aaa

#43290
b100000 aaa

#43330
b1010010 aab

#43410
b100000 aab

#43780
b1010010 aaa

#43790
b100000 aaa

#43830
b1010010 aab

#43910
b100000 aab

#44280
b1010010 aaa

#44290
b100000 aaa

#44330
b1010010 aab

#44410
b100000 aab

#44780
b1010010 aaa

#44790
b100000 aaa

#44830
b1010010 aab

#44910
b100000 aab

#45280
b1010010 aaa

#45290
b100000 aaa

#45330
b1010010 aab

#45410
b100000 aab

#45780
b1010010 aaa

#45790
b100000 aaa

#45830
b1010010 aab

#45910
b100000 aab

#46280
b1010010 aaa

#46290
b100000 aaa

#46330
b1010010 aab

#46410
b100000 aab

#46780
b1010010 aaa

#46790
b100000 aaa

#46830
b1010010 aab

#46910
b100000 aab

#47280
b1010010 aaa

#47290
b100000 aaa

#47330
b1010010 aab

#47410
b100000 aab

#47780
b1010010 aaa

#47790
b100000 aaa

#47830
b1010010 aab

#47910
b100000 aab

#48280
b1010010 aaa

#48290
b100000 aaa

#48330
b1010010 aab

#48410
b100000 aab

#48780
b1010010 aaa

#48790
b100000 aaa

#48830
b1010010 aab

#48910
b100000 aab

#49280
b1010010 aaa

#49290
b100000 aaa

#49330
b1010010 aab

#49410
b100000 aab

#49780
b1010010 aaa

#49790
b100000 aaa

#49830
b1010010 aab

#49910
b100000 aab

#50280
b1010010 aaa

#50290
b100000 aaa

#50330
b1010010 aab

#50410
b100000 aab

#50780
b1010010 aaa

#50790
b100000 aaa

#50830
b1010010 aab

#50910
b100000 aab

#51280
b1010010 aaa

#51290
b100000 aaa

#51330
b1010010 aab

#51410
b100000 aab

#51780
b1010010 aaa

#51790
b100000 aaa

#51830
b1010010 aab

#51910
b100000 aab

#52280
b1010010 aaa

#52290
b100000 aaa

#52330
b1010010 aab

#52410
b100000 aab

#52780
b1010010 aaa

#52790
b100000 aaa

#52830
b1010010 aab

#52910
b100000 aab

#53280
b1010010 aaa

#53290
b100000 aaa

#53330
b1010010 aab

#53410
b100000 aab

#53780
b1010010 aaa

#53790
b100000 aaa

#53830
b1010010 aab

#53910
b100000 aab

#54280
b1010010 aaa

#54290
b100000 aaa

#54330
b1010010 aab

#54410
b100000 aab

#54780
b1010010 aaa

#54790
b100000 aaa

#54830
b1010010 aab

#54910
b100000 aab

#55280
b1010010 aaa

#55290
b100000 aaa

#55330
b1010010 aab

#55410
b100000 aab

#55780
b1010010 aaa

#55790
b100000 aaa

#55830
b1010010 aab

#55910
b100000 aab

#56280
b1010010 aaa

#56290
b100000 aaa

#56330
b1010010 aab

#56410
b100000 aab

#56780
b1010010 aaa

#56790
b100000 aaa

#56830
b1010010 aab

#56910
b100000 aab

#57280
b1010010 aaa

#57290
b100000 aaa

#57330
b1010010 aab

#57410
b100000 aab

#57780
b1010010 aaa

#57790
b100000 aaa

#57830
b1010010 aab

#57910
b100000 aab

#58280
b1010010 aaa

#58290
b100000 aaa

#58330
b1010010 aab

#58410
b100000 aab

#58780
b1010010 aaa

#58790
b100000 aaa

#58830
b1010010 aab

#58910
b100000 aab

#59280
b1010010 aaa

#59290
b100000 aaa

#59330
b1010010 aab

#59410
b100000 aab

#59780
b1010010 aaa

#59790
b100000 aaa

#59830
b1010010 aab

#59910
b100000 aab

#60280
b1010010 aaa

#60290
b100000 aaa

#60330
b1010010 aab

#60410
b100000 aab

#60780
b1010010 aaa

#60790
b100000 aaa

#60830
b1010010 aab

#60910
b100000 aab

#61280
b1010010 aaa

#61290
b100000 aaa

#61330
b1010010 aab

#61410
b100000 aab

#61780
b1010010 aaa

#61790
b100000 aaa

#61830
b1010010 aab

#61910
b100000 aab

#62280
b1010010 aaa

#62290
b100000 aaa

#62330
b1010010 aab

#62410
b100000 aab

#62780
b1010010 aaa

#62790
b100000 aaa

#62830
b1010010 aab

#62910
b100000 aab

#63280
b1010010 aaa

#63290
b100000 aaa

#63330
b1010010 aab

#63410
b100000 aab

#63780
b1010010 aaa

#63790
b100000 aaa

#63830
b1010010 aab

#63910
b100000 aab

#64280
b1010010 aaa

#64290
b100000 aaa

#64330
b1010010 aab

#64410
b100000 aab

#64780
b1010010 aaa

#64790
b100000 aaa

#64830
b1010010 aab

#64910
b100000 aab

#65280
b1010010 aaa

#65290
b100000 aaa

#65330
b1010010 aab

#65410
b100000 aab

#65780
b1010010 aaa

#65790
b100000 aaa

#65830
b1010010 aab

#65910
b100000 aab

#66280
b1010010 aaa

#66290
b100000 aaa

#66330
b1010010 aab

#66410
b100000 aab

#66780
b1010010 aaa

#66790
b100000 aaa

#66830
b1010010 aab

#66910
b100000 aab

#67280
b1010010 aaa

#67290
b100000 aaa

#67330
b1010010 aab

#67410
b100000 aab

#67780
b1010010 aaa

#67790
b100000 aaa

#67830
b1010010 aab

#67910
b100000 aab

#68280
b1010010 aaa

#68290
b100000 aaa

#68330
b1010010 aab

#68410
b100000 aab

#68780
b1010010 aaa

#68790
b100000 aaa

#68830
b1010010 aab

#68910
b100000 aab

#69280
b1010010 aaa

#69290
b100000 aaa

#69330
b1010010 aab

#69410
b100000 aab

#69780
b1010010 aaa

#69790
b100000 aaa

#69830
b1010010 aab

#69910
b100000 aab

#70280
b1010010 aaa

#70290
b100000 aaa

#70330
b1010010 aab

#70410
b100000 aab

#70780
b1010010 aaa

#70790
b100000 aaa

#70830
b1010010 aab

#70910
b100000 aab

#71280
b1010010 aaa

#71290
b100000 aaa

#71330
b1010010 aab

#71410
b100000 aab

#71780
b1010010 aaa

#71790
b100000 aaa

#71830
b1010010 aab

#71910
b100000 aab

#72280
b1010010 aaa

#72290
b100000 aaa

#72330
b1010010 aab

#72410
b100000 aab

#72780
b1010010 aaa

#72790
b100000 aaa

#72830
b1010010 aab

#72910
b100000 aab

#73280
b1010010 aaa

#73290
b100000 aaa

#73330
b1010010 aab

#73410
b100000 aab

#73780
b1010010 aaa

#73790
b100000 aaa

#73830
b1010010 aab

#73910
b100000 aab

#74280
b1010010 aaa

#74290
b100000 aaa

#74330
b1010010 aab

#74410
b100000 aab

#74780
b1010010 aaa

#74790
b100000 aaa

#74830
b1010010 aab

#74910
b100000 aab

#75280
b1010010 aaa

#75290
b100000 aaa

#75330
b1010010 aab

#75410
b100000 aab

#75780
b1010010 aaa

#75790
b100000 aaa

#75830
b1010010 aab

#75910
b100000 aab

#76280
b1010010 aaa

#76290
b100000 aaa

#76330
b1010010 aab

#76410
b100000 aab

#76780
b1010010 aaa

#76790
b100000 aaa

#76830
b1010010 aab

#76910
b100000 aab

#77280
b1010010 aaa

#77290
b100000 aaa

#77330
b1010010 aab

#77410
b100000 aab

#77780
b1010010 aaa

#77790
b100000 aaa

#77830
b1010010 aab

#77910
b100000 aab

#78280
b1010010 aaa

#78290
b100000 aaa

#78330
b1010010 aab

#78410
b100000 aab

#78780
b1010010 aaa

#78790
b100000 aaa

#78830
b1010010 aab

#78910
b100000 aab

#79280
b1010010 aaa

#79290
b100000 aaa

#79330
b1010010 aab

#79410
b100000 aab

#79780
b1010010 aaa

#79790
b100000 aaa

#79830
b1010010 aab

#79910
b100000 aab

#80280
b1010010 aaa

#80290
b100000 aaa

#80330
b1010010 aab

#80410
b100000 aab

#80780
b1010010 aaa

#80790
b100000 aaa

#80830
b1010010 aab

#80910
b100000 aab

#81280
b1010010 aaa

#81290
b100000 aaa

#81330
b1010010 aab

#81410
b100000 aab

#81780
b1010010 aaa

#81790
b100000 aaa

#81830
b1010010 aab

#81910
b100000 aab

#82280
b1010010 aaa

#82290
b100000 aaa

#82330
b1010010 aab

#82410
b100000 aab

#82780
b1010010 aaa

#82790
b100000 aaa

#82830
b1010010 aab

#82910
b100000 aab

#83280
b1010010 aaa

#83290
b100000 aaa

#83330
b1010010 aab

#83410
b100000 aab

#83780
b1010010 aaa

#83790
b100000 aaa

#83830
b1010010 aab

#83910
b100000 aab

#84280
b1010010 aaa

#84290
b100000 aaa

#84330
b1010010 aab

#84410
b100000 aab

#84780
b1010010 aaa

#84790
b100000 aaa

#84830
b1010010 aab

#84910
b100000 aab

#85280
b1010010 aaa

#85290
b100000 aaa

#85330
b1010010 aab

#85410
b100000 aab

#85780
b1010010 aaa

#85790
b100000 aaa

#85830
b1010010 aab

#85910
b100000 aab

#86280
b1010010 aaa

#86290
b100000 aaa

#86330
b1010010 aab

#86410
b100000 aab

#86780
b1010010 aaa

#86790
b100000 aaa

#86830
b1010010 aab

#86910
b100000 aab

#87280
b1010010 aaa

#87290
b100000 aaa

#87330
b1010010 aab

#87410
b100000 aab

#87780
b1010010 aaa

#87790
b100000 aaa

#87830
b1010010 aab

#87910
b100000 aab

#88280
b1010010 aaa

#88290
b100000 aaa

#88330
b1010010 aab

#88410
b100000 aab

#88780
b1010010 aaa

#88790
b100000 aaa

#88830
b1010010 aab

#88910
b100000 aab

#89280
b1010010 aaa

#89290
b100000 aaa

#89330
b1010010 aab

#89410
b100000 aab

#89780
b1010010 aaa

#89790
b100000 aaa

#89830
b1010010 aab

#89910
b100000 aab

#90280
b1010010 aaa

#90290
b100000 aaa

#90330
b1010010 aab

#90410
b100000 aab

#90780
b1010010 aaa

#90790
b100000 aaa

#90830
b1010010 aab

#90910
b100000 aab

#91280
b1010010 aaa

#91290
b100000 aaa

#91330
b1010010 aab

#91410
b100000 aab

#91780
b1010010 aaa

#91790
b100000 aaa

#91830
b1010010 aab

#91910
b100000 aab

#92280
b1010010 aaa

#92290
b100000 aaa

#92330
b1010010 aab

#92410
b100000 aab

#92780
b1010010 aaa

#92790
b100000 aaa

#92830
b1010010 aab

#92910
b100000 aab

#93280
b1010010 aaa

#93290
b100000 aaa

#93330
b1010010 aab

#93410
b100000 aab

#93780
b1010010 aaa

#93790
b100000 aaa

#93830
b1010010 aab

#93910
b100000 aab

#94280
b1010010 aaa

#94290
b100000 aaa

#94330
b1010010 aab

#94410
b100000 aab

#94780
b1010010 aaa

#94790
b100000 aaa

#94830
b1010010 aab

#94910
b100000 aab

#95280
b1010010 aaa

#95290
b100000 aaa

#95330
b1010010 aab

#95410
b100000 aab

#95780
b1010010 aaa

#95790
b100000 aaa

#95830
b1010010 aab

#95910
b100000 aab

#96280
b1010010 aaa

#96290
b100000 aaa

#96330
b1010010 aab

#96410
b100000 aab

#96780
b1010010 aaa

#96790
b100000 aaa

#96830
b1010010 aab

#96910
b100000 aab

#97280
b1010010 aaa

#97290
b100000 aaa

#97330
b1010010 aab

#97410
b100000 aab

#97780
b1010010 aaa

#97790
b100000 aaa

#97830
b1010010 aab

#97910
b100000 aab

#98280
b1010010 aaa

#98290
b100000 aaa

#98330
b1010010 aab

#98410
b100000 aab

#98780
b1010010 aaa

#98790
b100000 aaa

#98830
b1010010 aab

#98910
b100000 aab

#99280
b1010010 aaa

#99290
b100000 aaa

#99330
b1010010 aab

#99410
b100000 aab

#99780
b1010010 aaa

#99790
b100000 aaa

#99830
b1010010 aab

#99910
b100000 aab

